[0] Config.pm:304> INFO - This is Biber 2.12
[0] Config.pm:307> INFO - Logfile is 'sources.blg'
[59] biber-darwin:315> INFO - === Mon Mar  9, 2020, 16:40:20
[264] Utils.pm:209> ERROR - Cannot find control file 'sources.bcf'! - Did latex run successfully on your .tex file before you ran biber?
[264] Biber.pm:114> INFO - ERRORS: 1
