[0] Config.pm:304> INFO - This is Biber 2.14
[0] Config.pm:307> INFO - Logfile is 'da-2.3.7_statistics.blg'
[124] biber-MSWIN32:322> INFO - === 
[980] Utils.pm:320> ERROR - Cannot find 'da-2.3.7_statistics.bcf'!
[981] Biber.pm:132> INFO - ERRORS: 1
