[1] Config.pm:304> INFO - This is Biber 2.12
[1] Config.pm:307> INFO - Logfile is 'da-2.7.1.3_sqlite.blg'
[76] biber-darwin:315> INFO - === Tue Feb 18, 2020, 11:45:21
[291] Utils.pm:209> ERROR - Cannot find control file 'da-2.7.1.3_sqlite.bcf'! - Did latex run successfully on your .tex file before you ran biber?
[291] Biber.pm:114> INFO - ERRORS: 1
