\relax 
\providecommand{\transparent@use}[1]{}
\providecommand\hyper@newdestlabel[2]{}
\@nameuse{bbl@beforestart}
\providecommand\HyperFirstAtBeginDocument{\AtBeginDocument}
\HyperFirstAtBeginDocument{\ifx\hyper@anchor\@undefined
\global\let\oldcontentsline\contentsline
\gdef\contentsline#1#2#3#4{\oldcontentsline{#1}{#2}{#3}}
\global\let\oldnewlabel\newlabel
\gdef\newlabel#1#2{\newlabelxx{#1}#2}
\gdef\newlabelxx#1#2#3#4#5#6{\oldnewlabel{#1}{{#2}{#3}}}
\AtEndDocument{\ifx\hyper@anchor\@undefined
\let\contentsline\oldcontentsline
\let\newlabel\oldnewlabel
\fi}
\fi}
\global\let\hyper@last\relax 
\gdef\HyperFirstAtBeginDocument#1{#1}
\providecommand\HyField@AuxAddToFields[1]{}
\providecommand\HyField@AuxAddToCoFields[2]{}
\abx@aux@refcontext{apa/global//global/global}
\@writefile{toc}{\boolfalse {citerequest}\boolfalse {citetracker}\boolfalse {pagetracker}\boolfalse {backtracker}\relax }
\@writefile{lof}{\boolfalse {citerequest}\boolfalse {citetracker}\boolfalse {pagetracker}\boolfalse {backtracker}\relax }
\@writefile{lot}{\boolfalse {citerequest}\boolfalse {citetracker}\boolfalse {pagetracker}\boolfalse {backtracker}\relax }
\babel@aux{english}{}
\@writefile{toc}{\defcounter {refsection}{0}\relax }\@writefile{toc}{\contentsline {section}{\numberline {1}Introduction}{5}{section.1}\protected@file@percent }
\@writefile{toc}{\defcounter {refsection}{0}\relax }\@writefile{toc}{\contentsline {subsection}{\numberline {1.1}Team}{5}{subsection.1.1}\protected@file@percent }
\@writefile{lof}{\defcounter {refsection}{0}\relax }\@writefile{lof}{\contentsline {figure}{\numberline {1}{\ignorespaces Kerstin Klaminger\relax }}{5}{figure.caption.1}\protected@file@percent }
\@writefile{lof}{\defcounter {refsection}{0}\relax }\@writefile{lof}{\contentsline {figure}{\numberline {2}{\ignorespaces Matthäus Schwarzkogler\relax }}{5}{figure.caption.2}\protected@file@percent }
\@writefile{lof}{\defcounter {refsection}{0}\relax }\@writefile{lof}{\contentsline {figure}{\numberline {3}{\ignorespaces Bernhard Heiß\relax }}{6}{figure.caption.3}\protected@file@percent }
\@writefile{lof}{\defcounter {refsection}{0}\relax }\@writefile{lof}{\contentsline {figure}{\numberline {4}{\ignorespaces Matthias Pöschl\relax }}{6}{figure.caption.4}\protected@file@percent }
\@writefile{lof}{\defcounter {refsection}{0}\relax }\@writefile{lof}{\contentsline {figure}{\numberline {5}{\ignorespaces Mario Schweiger\relax }}{6}{figure.caption.5}\protected@file@percent }
\@writefile{toc}{\defcounter {refsection}{0}\relax }\@writefile{toc}{\contentsline {subsection}{\numberline {1.2}Extended Team}{7}{subsection.1.2}\protected@file@percent }
\@writefile{toc}{\defcounter {refsection}{0}\relax }\@writefile{toc}{\contentsline {subsubsection}{\numberline {1.2.1}Professors}{7}{subsubsection.1.2.1}\protected@file@percent }
\@writefile{toc}{\defcounter {refsection}{0}\relax }\@writefile{toc}{\contentsline {subsubsection}{\numberline {1.2.2}Supporters}{7}{subsubsection.1.2.2}\protected@file@percent }
\abx@aux@cite{ssiLogo}
\abx@aux@segm{0}{0}{ssiLogo}
\@writefile{toc}{\defcounter {refsection}{0}\relax }\@writefile{toc}{\contentsline {subsection}{\numberline {1.3}Client}{8}{subsection.1.3}\protected@file@percent }
\@writefile{toc}{\defcounter {refsection}{0}\relax }\@writefile{toc}{\contentsline {subsubsection}{\numberline {1.3.1}SSI Schäfer IT Solutions GmbH}{8}{subsubsection.1.3.1}\protected@file@percent }
\@writefile{lof}{\defcounter {refsection}{0}\relax }\@writefile{lof}{\contentsline {figure}{\numberline {6}{\ignorespaces SSI Schäfer Logo}}{8}{figure.caption.6}\protected@file@percent }
\abx@aux@cite{wfmpic}
\abx@aux@segm{0}{0}{wfmpic}
\@writefile{toc}{\defcounter {refsection}{0}\relax }\@writefile{toc}{\contentsline {section}{\numberline {2}Project Management}{9}{section.2}\protected@file@percent }
\@writefile{toc}{\defcounter {refsection}{0}\relax }\@writefile{toc}{\contentsline {subsection}{\numberline {2.1}Waterfall Model}{9}{subsection.2.1}\protected@file@percent }
\@writefile{lof}{\defcounter {refsection}{0}\relax }\@writefile{lof}{\contentsline {figure}{\numberline {7}{\ignorespaces Waterfall Model}}{9}{figure.caption.7}\protected@file@percent }
\abx@aux@cite{tut_waterfallmodel}
\abx@aux@segm{0}{0}{tut_waterfallmodel}
\abx@aux@cite{what_is_waterfallmodel}
\abx@aux@segm{0}{0}{what_is_waterfallmodel}
\abx@aux@page{3}{11}
\abx@aux@page{4}{11}
\@writefile{toc}{\defcounter {refsection}{0}\relax }\@writefile{toc}{\contentsline {subsection}{\numberline {2.2}Milestones}{12}{subsection.2.2}\protected@file@percent }
\@writefile{lot}{\defcounter {refsection}{0}\relax }\@writefile{lot}{\contentsline {table}{\numberline {1}{\ignorespaces Milestones\relax }}{12}{table.caption.8}\protected@file@percent }
\@writefile{toc}{\defcounter {refsection}{0}\relax }\@writefile{toc}{\contentsline {subsection}{\numberline {2.3}Requirements}{13}{subsection.2.3}\protected@file@percent }
\@writefile{toc}{\defcounter {refsection}{0}\relax }\@writefile{toc}{\contentsline {subsection}{\numberline {2.4}Work Breakdown Structure}{15}{subsection.2.4}\protected@file@percent }
\newlabel{Work Breakdown Structure}{{2.4}{15}{Work Breakdown Structure}{subsection.2.4}{}}
\@writefile{lof}{\defcounter {refsection}{0}\relax }\@writefile{lof}{\contentsline {figure}{\numberline {8}{\ignorespaces Work Breakdown Structure\relax }}{15}{figure.caption.9}\protected@file@percent }
\abx@aux@cite{rasci}
\abx@aux@segm{0}{0}{rasci}
\@writefile{toc}{\defcounter {refsection}{0}\relax }\@writefile{toc}{\contentsline {subsection}{\numberline {2.5}Work Packages and RASCI Matrix}{16}{subsection.2.5}\protected@file@percent }
\abx@aux@page{5}{16}
\@writefile{lof}{\defcounter {refsection}{0}\relax }\@writefile{lof}{\contentsline {figure}{\numberline {9}{\ignorespaces RASCI Matrix\relax }}{17}{figure.caption.10}\protected@file@percent }
\abx@aux@cite{planpoker}
\abx@aux@segm{0}{0}{planpoker}
\@writefile{toc}{\defcounter {refsection}{0}\relax }\@writefile{toc}{\contentsline {subsection}{\numberline {2.6}Planning Poker}{18}{subsection.2.6}\protected@file@percent }
\abx@aux@page{6}{18}
\@writefile{toc}{\defcounter {refsection}{0}\relax }\@writefile{toc}{\contentsline {subsection}{\numberline {2.7}Sequence Diagrams}{19}{subsection.2.7}\protected@file@percent }
\@writefile{lof}{\defcounter {refsection}{0}\relax }\@writefile{lof}{\contentsline {figure}{\numberline {10}{\ignorespaces Sequence Diagram for login\relax }}{19}{figure.caption.11}\protected@file@percent }
\@writefile{lof}{\defcounter {refsection}{0}\relax }\@writefile{lof}{\contentsline {figure}{\numberline {11}{\ignorespaces Sequence Diagram for starting the timer\relax }}{20}{figure.caption.12}\protected@file@percent }
\@writefile{lof}{\defcounter {refsection}{0}\relax }\@writefile{lof}{\contentsline {figure}{\numberline {12}{\ignorespaces Sequence Diagram for stopping the timer\relax }}{20}{figure.caption.13}\protected@file@percent }
\abx@aux@cite{heyspacelogo}
\abx@aux@segm{0}{0}{heyspacelogo}
\abx@aux@cite{outlooklogo}
\abx@aux@segm{0}{0}{outlooklogo}
\@writefile{toc}{\defcounter {refsection}{0}\relax }\@writefile{toc}{\contentsline {subsection}{\numberline {2.8}Communication}{21}{subsection.2.8}\protected@file@percent }
\@writefile{toc}{\defcounter {refsection}{0}\relax }\@writefile{toc}{\contentsline {subsubsection}{\numberline {2.8.1}Internal: HeySpace}{21}{subsubsection.2.8.1}\protected@file@percent }
\@writefile{lof}{\defcounter {refsection}{0}\relax }\@writefile{lof}{\contentsline {figure}{\numberline {13}{\ignorespaces HeySpace Logo}}{21}{figure.caption.14}\protected@file@percent }
\@writefile{toc}{\defcounter {refsection}{0}\relax }\@writefile{toc}{\contentsline {subsubsection}{\numberline {2.8.2}External: E-Mail}{21}{subsubsection.2.8.2}\protected@file@percent }
\@writefile{lof}{\defcounter {refsection}{0}\relax }\@writefile{lof}{\contentsline {figure}{\numberline {14}{\ignorespaces Microsoft Outlook Logo}}{21}{figure.caption.15}\protected@file@percent }
\abx@aux@cite{Java_Logo}
\abx@aux@segm{0}{0}{Java_Logo}
\@writefile{toc}{\defcounter {refsection}{0}\relax }\@writefile{toc}{\contentsline {section}{\numberline {3}Technologies}{22}{section.3}\protected@file@percent }
\@writefile{toc}{\defcounter {refsection}{0}\relax }\@writefile{toc}{\contentsline {subsection}{\numberline {3.1}Android}{22}{subsection.3.1}\protected@file@percent }
\@writefile{toc}{\defcounter {refsection}{0}\relax }\@writefile{toc}{\contentsline {subsubsection}{\numberline {3.1.1}Java}{22}{subsubsection.3.1.1}\protected@file@percent }
\@writefile{lof}{\defcounter {refsection}{0}\relax }\@writefile{lof}{\contentsline {figure}{\numberline {15}{\ignorespaces Java Logo}}{22}{figure.caption.16}\protected@file@percent }
\abx@aux@cite{xmllogo}
\abx@aux@segm{0}{0}{xmllogo}
\@writefile{toc}{\defcounter {refsection}{0}\relax }\@writefile{toc}{\contentsline {subsubsection}{\numberline {3.1.2}XML}{23}{subsubsection.3.1.2}\protected@file@percent }
\@writefile{lof}{\defcounter {refsection}{0}\relax }\@writefile{lof}{\contentsline {figure}{\numberline {16}{\ignorespaces XML Logo}}{23}{figure.caption.17}\protected@file@percent }
\abx@aux@cite{sqlitelogo}
\abx@aux@segm{0}{0}{sqlitelogo}
\abx@aux@cite{sqliteInfo}
\abx@aux@segm{0}{0}{sqliteInfo}
\abx@aux@cite{androidRoomInfo}
\abx@aux@segm{0}{0}{androidRoomInfo}
\abx@aux@cite{roomInfo}
\abx@aux@segm{0}{0}{roomInfo}
\abx@aux@cite{jetpackInfo}
\abx@aux@segm{0}{0}{jetpackInfo}
\@writefile{toc}{\defcounter {refsection}{0}\relax }\@writefile{toc}{\contentsline {subsubsection}{\numberline {3.1.3}SQLite}{24}{subsubsection.3.1.3}\protected@file@percent }
\@writefile{lof}{\defcounter {refsection}{0}\relax }\@writefile{lof}{\contentsline {figure}{\numberline {17}{\ignorespaces SQLite Logo}}{24}{figure.caption.18}\protected@file@percent }
\abx@aux@page{12}{24}
\@writefile{toc}{\defcounter {refsection}{0}\relax }\@writefile{toc}{\contentsline {subsubsection}{\numberline {3.1.4}Room Persistence Library}{24}{subsubsection.3.1.4}\protected@file@percent }
\abx@aux@page{13}{24}
\abx@aux@page{14}{24}
\abx@aux@page{15}{24}
\abx@aux@cite{materialdesignlogo}
\abx@aux@segm{0}{0}{materialdesignlogo}
\@writefile{toc}{\defcounter {refsection}{0}\relax }\@writefile{toc}{\contentsline {subsubsection}{\numberline {3.1.5}Material Design}{25}{subsubsection.3.1.5}\protected@file@percent }
\@writefile{lof}{\defcounter {refsection}{0}\relax }\@writefile{lof}{\contentsline {figure}{\numberline {18}{\ignorespaces Material Design Logo}}{25}{figure.caption.19}\protected@file@percent }
\abx@aux@cite{versionControlInfo}
\abx@aux@segm{0}{0}{versionControlInfo}
\abx@aux@cite{gitLogo}
\abx@aux@segm{0}{0}{gitLogo}
\abx@aux@cite{gitInfo}
\abx@aux@segm{0}{0}{gitInfo}
\@writefile{toc}{\defcounter {refsection}{0}\relax }\@writefile{toc}{\contentsline {subsection}{\numberline {3.2}Version Control}{26}{subsection.3.2}\protected@file@percent }
\abx@aux@page{17}{26}
\@writefile{toc}{\defcounter {refsection}{0}\relax }\@writefile{toc}{\contentsline {subsubsection}{\numberline {3.2.1}Git}{26}{subsubsection.3.2.1}\protected@file@percent }
\@writefile{lof}{\defcounter {refsection}{0}\relax }\@writefile{lof}{\contentsline {figure}{\numberline {19}{\ignorespaces Git Logo}}{26}{figure.caption.20}\protected@file@percent }
\abx@aux@page{19}{26}
\abx@aux@cite{bitbucketlogo}
\abx@aux@segm{0}{0}{bitbucketlogo}
\abx@aux@cite{bitBucketInfo}
\abx@aux@segm{0}{0}{bitBucketInfo}
\abx@aux@cite{sourcetreelogo}
\abx@aux@segm{0}{0}{sourcetreelogo}
\abx@aux@cite{sourcetreeInfo}
\abx@aux@segm{0}{0}{sourcetreeInfo}
\@writefile{toc}{\defcounter {refsection}{0}\relax }\@writefile{toc}{\contentsline {subsubsection}{\numberline {3.2.2}Atlassian BitBucket}{27}{subsubsection.3.2.2}\protected@file@percent }
\@writefile{lof}{\defcounter {refsection}{0}\relax }\@writefile{lof}{\contentsline {figure}{\numberline {20}{\ignorespaces BitBucket Logo}}{27}{figure.caption.21}\protected@file@percent }
\abx@aux@page{21}{27}
\@writefile{toc}{\defcounter {refsection}{0}\relax }\@writefile{toc}{\contentsline {subsubsection}{\numberline {3.2.3}Atlassian SourceTree}{27}{subsubsection.3.2.3}\protected@file@percent }
\@writefile{lof}{\defcounter {refsection}{0}\relax }\@writefile{lof}{\contentsline {figure}{\numberline {21}{\ignorespaces Atlassian SourceTree Logo}}{27}{figure.caption.22}\protected@file@percent }
\abx@aux@page{23}{27}
\abx@aux@cite{latexlogo}
\abx@aux@segm{0}{0}{latexlogo}
\abx@aux@cite{texmakerlogo}
\abx@aux@segm{0}{0}{texmakerlogo}
\abx@aux@cite{texlivelogo}
\abx@aux@segm{0}{0}{texlivelogo}
\abx@aux@cite{chartlogo}
\abx@aux@segm{0}{0}{chartlogo}
\@writefile{toc}{\defcounter {refsection}{0}\relax }\@writefile{toc}{\contentsline {subsection}{\numberline {3.3}LaTeX}{28}{subsection.3.3}\protected@file@percent }
\@writefile{lof}{\defcounter {refsection}{0}\relax }\@writefile{lof}{\contentsline {figure}{\numberline {22}{\ignorespaces LaTex Logo}}{28}{figure.caption.23}\protected@file@percent }
\@writefile{toc}{\defcounter {refsection}{0}\relax }\@writefile{toc}{\contentsline {subsubsection}{\numberline {3.3.1}TexMaker}{28}{subsubsection.3.3.1}\protected@file@percent }
\@writefile{lof}{\defcounter {refsection}{0}\relax }\@writefile{lof}{\contentsline {figure}{\numberline {23}{\ignorespaces Texmaker Logo}}{28}{figure.caption.24}\protected@file@percent }
\@writefile{toc}{\defcounter {refsection}{0}\relax }\@writefile{toc}{\contentsline {subsubsection}{\numberline {3.3.2}TeX Live}{28}{subsubsection.3.3.2}\protected@file@percent }
\@writefile{lof}{\defcounter {refsection}{0}\relax }\@writefile{lof}{\contentsline {figure}{\numberline {24}{\ignorespaces Tex Live Logo}}{28}{figure.caption.25}\protected@file@percent }
\abx@aux@cite{firebaselogo}
\abx@aux@segm{0}{0}{firebaselogo}
\@writefile{toc}{\defcounter {refsection}{0}\relax }\@writefile{toc}{\contentsline {subsection}{\numberline {3.4}MPAndroidChart}{29}{subsection.3.4}\protected@file@percent }
\@writefile{lof}{\defcounter {refsection}{0}\relax }\@writefile{lof}{\contentsline {figure}{\numberline {25}{\ignorespaces MPAndroidChart Logo}}{29}{figure.caption.26}\protected@file@percent }
\@writefile{toc}{\defcounter {refsection}{0}\relax }\@writefile{toc}{\contentsline {subsection}{\numberline {3.5}Firebase}{29}{subsection.3.5}\protected@file@percent }
\newlabel{sec:firebase}{{3.5}{29}{Firebase}{subsection.3.5}{}}
\@writefile{lof}{\defcounter {refsection}{0}\relax }\@writefile{lof}{\contentsline {figure}{\numberline {26}{\ignorespaces Firebase Logo}}{29}{figure.caption.27}\protected@file@percent }
\abx@aux@cite{AndroidStudio_Logo}
\abx@aux@segm{0}{0}{AndroidStudio_Logo}
\abx@aux@cite{moqupslogo}
\abx@aux@segm{0}{0}{moqupslogo}
\@writefile{toc}{\defcounter {refsection}{0}\relax }\@writefile{toc}{\contentsline {subsection}{\numberline {3.6}Tools}{30}{subsection.3.6}\protected@file@percent }
\@writefile{toc}{\defcounter {refsection}{0}\relax }\@writefile{toc}{\contentsline {subsubsection}{\numberline {3.6.1}Android Studio}{30}{subsubsection.3.6.1}\protected@file@percent }
\@writefile{lof}{\defcounter {refsection}{0}\relax }\@writefile{lof}{\contentsline {figure}{\numberline {27}{\ignorespaces Android Studio Logo}}{30}{figure.caption.28}\protected@file@percent }
\@writefile{toc}{\defcounter {refsection}{0}\relax }\@writefile{toc}{\contentsline {subsubsection}{\numberline {3.6.2}Moqups.com}{30}{subsubsection.3.6.2}\protected@file@percent }
\@writefile{lof}{\defcounter {refsection}{0}\relax }\@writefile{lof}{\contentsline {figure}{\numberline {28}{\ignorespaces Moqups Logo}}{30}{figure.caption.29}\protected@file@percent }
\abx@aux@cite{postmanlogo}
\abx@aux@segm{0}{0}{postmanlogo}
\abx@aux@cite{postman}
\abx@aux@segm{0}{0}{postman}
\abx@aux@cite{mindviewlogo}
\abx@aux@segm{0}{0}{mindviewlogo}
\abx@aux@cite{mindview}
\abx@aux@segm{0}{0}{mindview}
\@writefile{toc}{\defcounter {refsection}{0}\relax }\@writefile{toc}{\contentsline {subsubsection}{\numberline {3.6.3}Postman API}{31}{subsubsection.3.6.3}\protected@file@percent }
\@writefile{lof}{\defcounter {refsection}{0}\relax }\@writefile{lof}{\contentsline {figure}{\numberline {29}{\ignorespaces Postman API Client Logo}}{31}{figure.caption.30}\protected@file@percent }
\abx@aux@page{32}{31}
\@writefile{toc}{\defcounter {refsection}{0}\relax }\@writefile{toc}{\contentsline {subsubsection}{\numberline {3.6.4}MindView 7.0}{31}{subsubsection.3.6.4}\protected@file@percent }
\@writefile{lof}{\defcounter {refsection}{0}\relax }\@writefile{lof}{\contentsline {figure}{\numberline {30}{\ignorespaces MindView}}{31}{figure.caption.31}\protected@file@percent }
\abx@aux@page{34}{31}
\abx@aux@cite{excel_logo}
\abx@aux@segm{0}{0}{excel_logo}
\abx@aux@cite{excel}
\abx@aux@segm{0}{0}{excel}
\abx@aux@cite{sequenceInfo}
\abx@aux@segm{0}{0}{sequenceInfo}
\abx@aux@cite{sequenceInfo}
\abx@aux@segm{0}{0}{sequenceInfo}
\abx@aux@cite{sequenceInfo}
\abx@aux@segm{0}{0}{sequenceInfo}
\@writefile{toc}{\defcounter {refsection}{0}\relax }\@writefile{toc}{\contentsline {subsubsection}{\numberline {3.6.5}Microsoft Excel}{32}{subsubsection.3.6.5}\protected@file@percent }
\@writefile{lof}{\defcounter {refsection}{0}\relax }\@writefile{lof}{\contentsline {figure}{\numberline {31}{\ignorespaces Microsoft Excel Logo}}{32}{figure.caption.32}\protected@file@percent }
\abx@aux@page{36}{32}
\@writefile{toc}{\defcounter {refsection}{0}\relax }\@writefile{toc}{\contentsline {subsubsection}{\numberline {3.6.6}SequenceDiagram.org}{32}{subsubsection.3.6.6}\protected@file@percent }
\abx@aux@page{37}{32}
\abx@aux@page{38}{32}
\abx@aux@page{39}{32}
\@writefile{toc}{\defcounter {refsection}{0}\relax }\@writefile{toc}{\contentsline {section}{\numberline {4}Project Design}{33}{section.4}\protected@file@percent }
\@writefile{toc}{\defcounter {refsection}{0}\relax }\@writefile{toc}{\contentsline {subsection}{\numberline {4.1}Mockups}{33}{subsection.4.1}\protected@file@percent }
\@writefile{lof}{\defcounter {refsection}{0}\relax }\@writefile{lof}{\contentsline {figure}{\numberline {32}{\ignorespaces Mockup: Loading screen\relax }}{33}{figure.32}\protected@file@percent }
\@writefile{lof}{\defcounter {refsection}{0}\relax }\@writefile{lof}{\contentsline {figure}{\numberline {33}{\ignorespaces Mockup: Home screen\relax }}{33}{figure.33}\protected@file@percent }
\@writefile{lof}{\defcounter {refsection}{0}\relax }\@writefile{lof}{\contentsline {figure}{\numberline {34}{\ignorespaces Mockup: Worktime listing\relax }}{33}{figure.34}\protected@file@percent }
\@writefile{lof}{\defcounter {refsection}{0}\relax }\@writefile{lof}{\contentsline {figure}{\numberline {35}{\ignorespaces Mockup: Project listing\relax }}{33}{figure.35}\protected@file@percent }
\@writefile{lof}{\defcounter {refsection}{0}\relax }\@writefile{lof}{\contentsline {figure}{\numberline {36}{\ignorespaces Mockup: Statistic\relax }}{33}{figure.36}\protected@file@percent }
\@writefile{lof}{\defcounter {refsection}{0}\relax }\@writefile{lof}{\contentsline {figure}{\numberline {37}{\ignorespaces Mockup: Widget\relax }}{33}{figure.37}\protected@file@percent }
\abx@aux@cite{pixeldensity}
\abx@aux@segm{0}{0}{pixeldensity}
\@writefile{toc}{\defcounter {refsection}{0}\relax }\@writefile{toc}{\contentsline {subsection}{\numberline {4.2}How design works in Android Studio}{34}{subsection.4.2}\protected@file@percent }
\abx@aux@page{40}{34}
\@writefile{toc}{\defcounter {refsection}{0}\relax }\@writefile{toc}{\contentsline {subsubsection}{\numberline {4.2.1}Android Studio Layout Editor}{34}{subsubsection.4.2.1}\protected@file@percent }
\@writefile{lof}{\defcounter {refsection}{0}\relax }\@writefile{lof}{\contentsline {figure}{\numberline {38}{\ignorespaces Layout Editor\relax }}{34}{figure.caption.33}\protected@file@percent }
\abx@aux@cite{independentPixel}
\abx@aux@segm{0}{0}{independentPixel}
\abx@aux@cite{densityBuckets}
\abx@aux@segm{0}{0}{densityBuckets}
\@writefile{toc}{\defcounter {refsection}{0}\relax }\@writefile{toc}{\contentsline {subsubsection}{\numberline {4.2.2}Density-Independent-Pixels}{36}{subsubsection.4.2.2}\protected@file@percent }
\abx@aux@page{41}{36}
\abx@aux@page{42}{36}
\@writefile{toc}{\defcounter {refsection}{0}\relax }\@writefile{toc}{\contentsline {subsubsection}{\numberline {4.2.3}Layouts used in our application}{37}{subsubsection.4.2.3}\protected@file@percent }
\newlabel{sec:layouts}{{4.2.3}{37}{Layouts used in our application}{subsubsection.4.2.3}{}}
\@writefile{toc}{\defcounter {refsection}{0}\relax }\@writefile{toc}{\contentsline {subsection}{\numberline {4.3}SlideMenu}{38}{subsection.4.3}\protected@file@percent }
\@writefile{lof}{\defcounter {refsection}{0}\relax }\@writefile{lof}{\contentsline {figure}{\numberline {39}{\ignorespaces SlideMenu\relax }}{38}{figure.caption.34}\protected@file@percent }
\@writefile{toc}{\defcounter {refsection}{0}\relax }\@writefile{toc}{\contentsline {subsubsection}{\numberline {4.3.1}menu\_user.xml}{39}{subsubsection.4.3.1}\protected@file@percent }
\@writefile{lol}{\defcounter {refsection}{0}\relax }\@writefile{lol}{\contentsline {lstlisting}{\numberline {1}ImageView for profile picture}{39}{lstlisting.1}\protected@file@percent }
\@writefile{toc}{\defcounter {refsection}{0}\relax }\@writefile{toc}{\contentsline {subsubsection}{\numberline {4.3.2}menu\_list.xml}{39}{subsubsection.4.3.2}\protected@file@percent }
\@writefile{lol}{\defcounter {refsection}{0}\relax }\@writefile{lol}{\contentsline {lstlisting}{\numberline {2}Menu list item}{39}{lstlisting.2}\protected@file@percent }
\@writefile{lol}{\defcounter {refsection}{0}\relax }\@writefile{lol}{\contentsline {lstlisting}{\numberline {3}NavigationView with menu\_user.xml as header and menu\_list.xml as menu}{40}{lstlisting.3}\protected@file@percent }
\@writefile{toc}{\defcounter {refsection}{0}\relax }\@writefile{toc}{\contentsline {subsubsection}{\numberline {4.3.3}Method: onBackPressed()}{40}{subsubsection.4.3.3}\protected@file@percent }
\@writefile{lol}{\defcounter {refsection}{0}\relax }\@writefile{lol}{\contentsline {lstlisting}{\numberline {4}Method called after pressing the back button}{40}{lstlisting.4}\protected@file@percent }
\@writefile{toc}{\defcounter {refsection}{0}\relax }\@writefile{toc}{\contentsline {subsubsection}{\numberline {4.3.4}Method: onNavigationItemSelected(MenuItem item)}{41}{subsubsection.4.3.4}\protected@file@percent }
\@writefile{lol}{\defcounter {refsection}{0}\relax }\@writefile{lol}{\contentsline {lstlisting}{\numberline {5}Method called when navigating between functionalities}{41}{lstlisting.5}\protected@file@percent }
\@writefile{toc}{\defcounter {refsection}{0}\relax }\@writefile{toc}{\contentsline {subsubsection}{\numberline {4.3.5}Method: overridePendingTransition(int enterAnim, int exitAnim)}{41}{subsubsection.4.3.5}\protected@file@percent }
\@writefile{lol}{\defcounter {refsection}{0}\relax }\@writefile{lol}{\contentsline {lstlisting}{\numberline {6}Transitions for switching between activities}{41}{lstlisting.6}\protected@file@percent }
\@writefile{toc}{\defcounter {refsection}{0}\relax }\@writefile{toc}{\contentsline {subsection}{\numberline {4.4}Login Dialog}{42}{subsection.4.4}\protected@file@percent }
\@writefile{lof}{\defcounter {refsection}{0}\relax }\@writefile{lof}{\contentsline {figure}{\numberline {40}{\ignorespaces Login Dialog\relax }}{42}{figure.caption.35}\protected@file@percent }
\@writefile{toc}{\defcounter {refsection}{0}\relax }\@writefile{toc}{\contentsline {subsubsection}{\numberline {4.4.1}login\_menu.xml}{42}{subsubsection.4.4.1}\protected@file@percent }
\@writefile{lol}{\defcounter {refsection}{0}\relax }\@writefile{lol}{\contentsline {lstlisting}{\numberline {7}Text-Input for login with imeOptions}{43}{lstlisting.7}\protected@file@percent }
\@writefile{toc}{\defcounter {refsection}{0}\relax }\@writefile{toc}{\contentsline {subsubsection}{\numberline {4.4.2}Method: setOnEditorActionListener()}{43}{subsubsection.4.4.2}\protected@file@percent }
\@writefile{lol}{\defcounter {refsection}{0}\relax }\@writefile{lol}{\contentsline {lstlisting}{\numberline {8}EditorActionListener to change focus of input field}{43}{lstlisting.8}\protected@file@percent }
\@writefile{toc}{\defcounter {refsection}{0}\relax }\@writefile{toc}{\contentsline {subsubsection}{\numberline {4.4.3}Method: setOnCheckedChangeListener()}{44}{subsubsection.4.4.3}\protected@file@percent }
\@writefile{lol}{\defcounter {refsection}{0}\relax }\@writefile{lol}{\contentsline {lstlisting}{\numberline {9}Listener for Remember-Me option}{44}{lstlisting.9}\protected@file@percent }
\@writefile{toc}{\defcounter {refsection}{0}\relax }\@writefile{toc}{\contentsline {subsubsection}{\numberline {4.4.4}Method: loadSharedPreferences()}{44}{subsubsection.4.4.4}\protected@file@percent }
\@writefile{lol}{\defcounter {refsection}{0}\relax }\@writefile{lol}{\contentsline {lstlisting}{\numberline {10}Loading setting of last session}{44}{lstlisting.10}\protected@file@percent }
\@writefile{toc}{\defcounter {refsection}{0}\relax }\@writefile{toc}{\contentsline {subsubsection}{\numberline {4.4.5}Method: startLogin()}{45}{subsubsection.4.4.5}\protected@file@percent }
\@writefile{lol}{\defcounter {refsection}{0}\relax }\@writefile{lol}{\contentsline {lstlisting}{\numberline {11}Handling the user's log-in}{45}{lstlisting.11}\protected@file@percent }
\@writefile{toc}{\defcounter {refsection}{0}\relax }\@writefile{toc}{\contentsline {subsection}{\numberline {4.5}Home Screen}{46}{subsection.4.5}\protected@file@percent }
\@writefile{lof}{\defcounter {refsection}{0}\relax }\@writefile{lof}{\contentsline {figure}{\numberline {41}{\ignorespaces Home screen with running timer\relax }}{46}{figure.caption.36}\protected@file@percent }
\@writefile{toc}{\defcounter {refsection}{0}\relax }\@writefile{toc}{\contentsline {subsubsection}{\numberline {4.5.1}The design of the home screen}{46}{subsubsection.4.5.1}\protected@file@percent }
\@writefile{toc}{\defcounter {refsection}{0}\relax }\@writefile{toc}{\contentsline {subsubsection}{\numberline {4.5.2}Starting the time recording}{47}{subsubsection.4.5.2}\protected@file@percent }
\newlabel{sec:start}{{4.5.2}{47}{Starting the time recording}{subsubsection.4.5.2}{}}
\@writefile{lol}{\defcounter {refsection}{0}\relax }\@writefile{lol}{\contentsline {lstlisting}{\numberline {12}onClickListener() for the timer button}{47}{lstlisting.12}\protected@file@percent }
\@writefile{toc}{\defcounter {refsection}{0}\relax }\@writefile{toc}{\contentsline {subsubsection}{\numberline {4.5.3}Stopping the time recording}{47}{subsubsection.4.5.3}\protected@file@percent }
\@writefile{lof}{\defcounter {refsection}{0}\relax }\@writefile{lof}{\contentsline {figure}{\numberline {42}{\ignorespaces Stop dialog\relax }}{48}{figure.caption.37}\protected@file@percent }
\@writefile{toc}{\defcounter {refsection}{0}\relax }\@writefile{toc}{\contentsline {subsubsection}{\numberline {4.5.4}Timer}{48}{subsubsection.4.5.4}\protected@file@percent }
\newlabel{sec:timer}{{4.5.4}{48}{Timer}{subsubsection.4.5.4}{}}
\@writefile{lol}{\defcounter {refsection}{0}\relax }\@writefile{lol}{\contentsline {lstlisting}{\numberline {13}Method for starting the timer}{49}{lstlisting.13}\protected@file@percent }
\@writefile{toc}{\defcounter {refsection}{0}\relax }\@writefile{toc}{\contentsline {subsubsection}{\numberline {4.5.5}Multilevel Dropdown Menu}{49}{subsubsection.4.5.5}\protected@file@percent }
\@writefile{lof}{\defcounter {refsection}{0}\relax }\@writefile{lof}{\contentsline {figure}{\numberline {43}{\ignorespaces Dropdown Level 1\relax }}{50}{figure.caption.38}\protected@file@percent }
\@writefile{lof}{\defcounter {refsection}{0}\relax }\@writefile{lof}{\contentsline {figure}{\numberline {44}{\ignorespaces Dropdown Level 2\relax }}{50}{figure.caption.39}\protected@file@percent }
\@writefile{toc}{\defcounter {refsection}{0}\relax }\@writefile{toc}{\contentsline {subsubsection}{\numberline {4.5.6}Using the home menu as a guest}{50}{subsubsection.4.5.6}\protected@file@percent }
\newlabel{sec:guesthome}{{4.5.6}{50}{Using the home menu as a guest}{subsubsection.4.5.6}{}}
\@writefile{toc}{\defcounter {refsection}{0}\relax }\@writefile{toc}{\contentsline {subsection}{\numberline {4.6}Worktime List}{51}{subsection.4.6}\protected@file@percent }
\@writefile{lof}{\defcounter {refsection}{0}\relax }\@writefile{lof}{\contentsline {figure}{\numberline {45}{\ignorespaces Worktime List\relax }}{51}{figure.caption.40}\protected@file@percent }
\@writefile{toc}{\defcounter {refsection}{0}\relax }\@writefile{toc}{\contentsline {subsubsection}{\numberline {4.6.1}The design of the worktime list}{52}{subsubsection.4.6.1}\protected@file@percent }
\@writefile{lol}{\defcounter {refsection}{0}\relax }\@writefile{lol}{\contentsline {lstlisting}{\numberline {14}onRefreshListener() for the SwipeRefreshLayout}{52}{lstlisting.14}\protected@file@percent }
\abx@aux@cite{dialogs}
\abx@aux@segm{0}{0}{dialogs}
\@writefile{toc}{\defcounter {refsection}{0}\relax }\@writefile{toc}{\contentsline {subsubsection}{\numberline {4.6.2}WorktimelistAdapter}{54}{subsubsection.4.6.2}\protected@file@percent }
\@writefile{lol}{\defcounter {refsection}{0}\relax }\@writefile{lol}{\contentsline {lstlisting}{\numberline {15}RecyclerView.Adapter}{54}{lstlisting.15}\protected@file@percent }
\@writefile{lol}{\defcounter {refsection}{0}\relax }\@writefile{lol}{\contentsline {lstlisting}{\numberline {16}ViewHolder}{54}{lstlisting.16}\protected@file@percent }
\@writefile{lol}{\defcounter {refsection}{0}\relax }\@writefile{lol}{\contentsline {lstlisting}{\numberline {17}ItemCLickListener}{54}{lstlisting.17}\protected@file@percent }
\@writefile{toc}{\defcounter {refsection}{0}\relax }\@writefile{toc}{\contentsline {subsubsection}{\numberline {4.6.3}Dialogs}{55}{subsubsection.4.6.3}\protected@file@percent }
\abx@aux@page{43}{55}
\@writefile{lol}{\defcounter {refsection}{0}\relax }\@writefile{lol}{\contentsline {lstlisting}{\numberline {18}Dialog}{55}{lstlisting.18}\protected@file@percent }
\@writefile{toc}{\defcounter {refsection}{0}\relax }\@writefile{toc}{\contentsline {subsubsection}{\numberline {4.6.4}Edit Function}{56}{subsubsection.4.6.4}\protected@file@percent }
\newlabel{sec:edit}{{4.6.4}{56}{Edit Function}{subsubsection.4.6.4}{}}
\@writefile{lof}{\defcounter {refsection}{0}\relax }\@writefile{lof}{\contentsline {figure}{\numberline {46}{\ignorespaces Edit Dialog\relax }}{56}{figure.caption.41}\protected@file@percent }
\@writefile{toc}{\defcounter {refsection}{0}\relax }\@writefile{toc}{\contentsline {subsubsection}{\numberline {4.6.5}Synchronize, Filter and Add}{56}{subsubsection.4.6.5}\protected@file@percent }
\@writefile{lol}{\defcounter {refsection}{0}\relax }\@writefile{lol}{\contentsline {lstlisting}{\numberline {19}Synchronize}{56}{lstlisting.19}\protected@file@percent }
\@writefile{toc}{\defcounter {refsection}{0}\relax }\@writefile{toc}{\contentsline {subsubsection}{\numberline {4.6.6}Using the Worktime List as a guest}{57}{subsubsection.4.6.6}\protected@file@percent }
\newlabel{sec:guestWorktime}{{4.6.6}{57}{Using the Worktime List as a guest}{subsubsection.4.6.6}{}}
\@writefile{toc}{\defcounter {refsection}{0}\relax }\@writefile{toc}{\contentsline {subsection}{\numberline {4.7}Project List}{58}{subsection.4.7}\protected@file@percent }
\@writefile{lof}{\defcounter {refsection}{0}\relax }\@writefile{lof}{\contentsline {figure}{\numberline {47}{\ignorespaces Project List Item\relax }}{58}{figure.caption.42}\protected@file@percent }
\@writefile{lof}{\defcounter {refsection}{0}\relax }\@writefile{lof}{\contentsline {figure}{\numberline {48}{\ignorespaces Issue List Item\relax }}{58}{figure.caption.42}\protected@file@percent }
\@writefile{toc}{\defcounter {refsection}{0}\relax }\@writefile{toc}{\contentsline {subsubsection}{\numberline {4.7.1}RecyclerView}{58}{subsubsection.4.7.1}\protected@file@percent }
\@writefile{lol}{\defcounter {refsection}{0}\relax }\@writefile{lol}{\contentsline {lstlisting}{\numberline {20}RecyclerView with an adapter for each project item}{58}{lstlisting.20}\protected@file@percent }
\@writefile{toc}{\defcounter {refsection}{0}\relax }\@writefile{toc}{\contentsline {subsubsection}{\numberline {4.7.2}ProjectActivity and ProjectListAdapter}{59}{subsubsection.4.7.2}\protected@file@percent }
\@writefile{lol}{\defcounter {refsection}{0}\relax }\@writefile{lol}{\contentsline {lstlisting}{\numberline {21}Adding projects with the help of the adapter class}{59}{lstlisting.21}\protected@file@percent }
\@writefile{lol}{\defcounter {refsection}{0}\relax }\@writefile{lol}{\contentsline {lstlisting}{\numberline {22}Adding projects to adapter}{59}{lstlisting.22}\protected@file@percent }
\@writefile{toc}{\defcounter {refsection}{0}\relax }\@writefile{toc}{\contentsline {subsubsection}{\numberline {4.7.3}Method: showColors()}{60}{subsubsection.4.7.3}\protected@file@percent }
\@writefile{lol}{\defcounter {refsection}{0}\relax }\@writefile{lol}{\contentsline {lstlisting}{\numberline {23}Displaying the color of each project}{60}{lstlisting.23}\protected@file@percent }
\@writefile{lol}{\defcounter {refsection}{0}\relax }\@writefile{lol}{\contentsline {lstlisting}{\numberline {24}Setting the color of a project}{60}{lstlisting.24}\protected@file@percent }
\abx@aux@cite{colorpicker}
\abx@aux@segm{0}{0}{colorpicker}
\@writefile{toc}{\defcounter {refsection}{0}\relax }\@writefile{toc}{\contentsline {subsubsection}{\numberline {4.7.4}ColorPicker}{61}{subsubsection.4.7.4}\protected@file@percent }
\@writefile{lol}{\defcounter {refsection}{0}\relax }\@writefile{lol}{\contentsline {lstlisting}{\numberline {25}Opening a dialog for picking a color of the project}{61}{lstlisting.25}\protected@file@percent }
\abx@aux@page{44}{61}
\@writefile{toc}{\defcounter {refsection}{0}\relax }\@writefile{toc}{\contentsline {subsection}{\numberline {4.8}Statistics}{62}{subsection.4.8}\protected@file@percent }
\@writefile{lof}{\defcounter {refsection}{0}\relax }\@writefile{lof}{\contentsline {figure}{\numberline {49}{\ignorespaces Statistic Design\relax }}{62}{figure.caption.43}\protected@file@percent }
\@writefile{toc}{\defcounter {refsection}{0}\relax }\@writefile{toc}{\contentsline {subsubsection}{\numberline {4.8.1}The design of the statistics}{62}{subsubsection.4.8.1}\protected@file@percent }
\@writefile{toc}{\defcounter {refsection}{0}\relax }\@writefile{toc}{\contentsline {subsubsection}{\numberline {4.8.2}StatisticsTabAdapter}{63}{subsubsection.4.8.2}\protected@file@percent }
\@writefile{lol}{\defcounter {refsection}{0}\relax }\@writefile{lol}{\contentsline {lstlisting}{\numberline {26}getItem()}{63}{lstlisting.26}\protected@file@percent }
\@writefile{toc}{\defcounter {refsection}{0}\relax }\@writefile{toc}{\contentsline {subsection}{\numberline {4.9}Export}{64}{subsection.4.9}\protected@file@percent }
\@writefile{lof}{\defcounter {refsection}{0}\relax }\@writefile{lof}{\contentsline {figure}{\numberline {50}{\ignorespaces Export Menu\relax }}{64}{figure.caption.44}\protected@file@percent }
\@writefile{toc}{\defcounter {refsection}{0}\relax }\@writefile{toc}{\contentsline {subsubsection}{\numberline {4.9.1}E-Mail Validation}{64}{subsubsection.4.9.1}\protected@file@percent }
\@writefile{lol}{\defcounter {refsection}{0}\relax }\@writefile{lol}{\contentsline {lstlisting}{\numberline {27}Validating the e-mail address}{64}{lstlisting.27}\protected@file@percent }
\abx@aux@cite{datetimepicker}
\abx@aux@segm{0}{0}{datetimepicker}
\@writefile{toc}{\defcounter {refsection}{0}\relax }\@writefile{toc}{\contentsline {subsubsection}{\numberline {4.9.2}Method: openDatePicker(TextInputEditText etTime)}{65}{subsubsection.4.9.2}\protected@file@percent }
\@writefile{lol}{\defcounter {refsection}{0}\relax }\@writefile{lol}{\contentsline {lstlisting}{\numberline {28}Opening a dialog to select a specific date}{65}{lstlisting.28}\protected@file@percent }
\abx@aux@page{45}{65}
\@writefile{toc}{\defcounter {refsection}{0}\relax }\@writefile{toc}{\contentsline {subsection}{\numberline {4.10}Settings}{66}{subsection.4.10}\protected@file@percent }
\@writefile{lof}{\defcounter {refsection}{0}\relax }\@writefile{lof}{\contentsline {figure}{\numberline {51}{\ignorespaces Settings Menu\relax }}{66}{figure.caption.45}\protected@file@percent }
\@writefile{toc}{\defcounter {refsection}{0}\relax }\@writefile{toc}{\contentsline {subsubsection}{\numberline {4.10.1}Basic information}{66}{subsubsection.4.10.1}\protected@file@percent }
\@writefile{toc}{\defcounter {refsection}{0}\relax }\@writefile{toc}{\contentsline {subsubsection}{\numberline {4.10.2}Auto-Login}{66}{subsubsection.4.10.2}\protected@file@percent }
\abx@aux@cite{datetimepicker}
\abx@aux@segm{0}{0}{datetimepicker}
\@writefile{lol}{\defcounter {refsection}{0}\relax }\@writefile{lol}{\contentsline {lstlisting}{\numberline {29}Checking for auto-log-in setting of previous session}{67}{lstlisting.29}\protected@file@percent }
\@writefile{toc}{\defcounter {refsection}{0}\relax }\@writefile{toc}{\contentsline {subsubsection}{\numberline {4.10.3}Method: checkNotificationsOn()}{67}{subsubsection.4.10.3}\protected@file@percent }
\@writefile{lol}{\defcounter {refsection}{0}\relax }\@writefile{lol}{\contentsline {lstlisting}{\numberline {30}Selecting a time for when the notification will be sent}{67}{lstlisting.30}\protected@file@percent }
\abx@aux@page{46}{67}
\@writefile{toc}{\defcounter {refsection}{0}\relax }\@writefile{toc}{\contentsline {subsubsection}{\numberline {4.10.4}Method: showPopupMenu()}{68}{subsubsection.4.10.4}\protected@file@percent }
\@writefile{lol}{\defcounter {refsection}{0}\relax }\@writefile{lol}{\contentsline {lstlisting}{\numberline {31}Click-Listener for default issue}{68}{lstlisting.31}\protected@file@percent }
\@writefile{lol}{\defcounter {refsection}{0}\relax }\@writefile{lol}{\contentsline {lstlisting}{\numberline {32}Drop-down of available projects}{68}{lstlisting.32}\protected@file@percent }
\@writefile{lol}{\defcounter {refsection}{0}\relax }\@writefile{lol}{\contentsline {lstlisting}{\numberline {33}Drop-down of available issues of selected project}{69}{lstlisting.33}\protected@file@percent }
\abx@aux@cite{jiralogo}
\abx@aux@segm{0}{0}{jiralogo}
\abx@aux@cite{jira}
\abx@aux@segm{0}{0}{jira}
\@writefile{toc}{\defcounter {refsection}{0}\relax }\@writefile{toc}{\contentsline {section}{\numberline {5}Project Webservices}{70}{section.5}\protected@file@percent }
\@writefile{toc}{\defcounter {refsection}{0}\relax }\@writefile{toc}{\contentsline {subsection}{\numberline {5.1}Descriptions}{70}{subsection.5.1}\protected@file@percent }
\@writefile{toc}{\defcounter {refsection}{0}\relax }\@writefile{toc}{\contentsline {subsubsection}{\numberline {5.1.1}Jira Software}{70}{subsubsection.5.1.1}\protected@file@percent }
\@writefile{lof}{\defcounter {refsection}{0}\relax }\@writefile{lof}{\contentsline {figure}{\numberline {52}{\ignorespaces Jira Logo}}{70}{figure.caption.46}\protected@file@percent }
\abx@aux@page{48}{70}
\@writefile{toc}{\defcounter {refsection}{0}\relax }\@writefile{toc}{\contentsline {subsubsection}{\numberline {5.1.2}Worktime Server}{71}{subsubsection.5.1.2}\protected@file@percent }
\abx@aux@cite{retrofit_doc}
\abx@aux@segm{0}{0}{retrofit_doc}
\abx@aux@cite{jsonvsxml}
\abx@aux@segm{0}{0}{jsonvsxml}
\abx@aux@cite{pojoWiki}
\abx@aux@segm{0}{0}{pojoWiki}
\@writefile{toc}{\defcounter {refsection}{0}\relax }\@writefile{toc}{\contentsline {subsubsection}{\numberline {5.1.3}Retrofit}{72}{subsubsection.5.1.3}\protected@file@percent }
\abx@aux@page{49}{72}
\abx@aux@page{50}{72}
\@writefile{lol}{\defcounter {refsection}{0}\relax }\@writefile{lol}{\contentsline {lstlisting}{\numberline {34}Generating Retrofit Object}{72}{lstlisting.34}\protected@file@percent }
\abx@aux@page{51}{73}
\@writefile{lol}{\defcounter {refsection}{0}\relax }\@writefile{lol}{\contentsline {lstlisting}{\numberline {35}POJO Class example with one variable}{73}{lstlisting.35}\protected@file@percent }
\abx@aux@cite{singletonWiki}
\abx@aux@segm{0}{0}{singletonWiki}
\abx@aux@cite{singletonWiki}
\abx@aux@segm{0}{0}{singletonWiki}
\@writefile{toc}{\defcounter {refsection}{0}\relax }\@writefile{toc}{\contentsline {subsection}{\numberline {5.2}Basic Structure}{74}{subsection.5.2}\protected@file@percent }
\@writefile{toc}{\defcounter {refsection}{0}\relax }\@writefile{toc}{\contentsline {subsubsection}{\numberline {5.2.1}Webservice Model}{74}{subsubsection.5.2.1}\protected@file@percent }
\abx@aux@page{52}{74}
\abx@aux@page{53}{74}
\@writefile{lol}{\defcounter {refsection}{0}\relax }\@writefile{lol}{\contentsline {lstlisting}{\numberline {36}Singleton Pattern}{74}{lstlisting.36}\protected@file@percent }
\@writefile{lol}{\defcounter {refsection}{0}\relax }\@writefile{lol}{\contentsline {lstlisting}{\numberline {37}Communication Methods for Database and REST API Operations}{75}{lstlisting.37}\protected@file@percent }
\@writefile{toc}{\defcounter {refsection}{0}\relax }\@writefile{toc}{\contentsline {subsubsection}{\numberline {5.2.2}Delegate Interface}{76}{subsubsection.5.2.2}\protected@file@percent }
\abx@aux@cite{taskguide}
\abx@aux@segm{0}{0}{taskguide}
\@writefile{toc}{\defcounter {refsection}{0}\relax }\@writefile{toc}{\contentsline {subsubsection}{\numberline {5.2.3}Background Processes}{77}{subsubsection.5.2.3}\protected@file@percent }
\@writefile{lof}{\defcounter {refsection}{0}\relax }\@writefile{lof}{\contentsline {figure}{\numberline {53}{\ignorespaces Guide for Network Operation}}{77}{figure.caption.47}\protected@file@percent }
\abx@aux@cite{retrofit2_call}
\abx@aux@segm{0}{0}{retrofit2_call}
\abx@aux@cite{retrofit2_call}
\abx@aux@segm{0}{0}{retrofit2_call}
\abx@aux@cite{asynctask_why}
\abx@aux@segm{0}{0}{asynctask_why}
\abx@aux@cite{asynctask_why}
\abx@aux@segm{0}{0}{asynctask_why}
\abx@aux@page{55}{78}
\@writefile{lol}{\defcounter {refsection}{0}\relax }\@writefile{lol}{\contentsline {lstlisting}{\numberline {38}Retrofit2 Call Interface}{78}{lstlisting.38}\protected@file@percent }
\abx@aux@page{56}{78}
\abx@aux@page{57}{78}
\@writefile{lol}{\defcounter {refsection}{0}\relax }\@writefile{lol}{\contentsline {lstlisting}{\numberline {39}AsyncTask Abstract Class}{78}{lstlisting.39}\protected@file@percent }
\abx@aux@page{58}{78}
\abx@aux@cite{deleteInfo}
\abx@aux@segm{0}{0}{deleteInfo}
\@writefile{toc}{\defcounter {refsection}{0}\relax }\@writefile{toc}{\contentsline {subsubsection}{\numberline {5.2.4}RetroFit Request Interface}{79}{subsubsection.5.2.4}\protected@file@percent }
\newlabel{sec:retrofitInterface}{{5.2.4}{79}{RetroFit Request Interface}{subsubsection.5.2.4}{}}
\abx@aux@page{59}{79}
\@writefile{lof}{\defcounter {refsection}{0}\relax }\@writefile{lof}{\contentsline {figure}{\numberline {54}{\ignorespaces Structure of an URL\relax }}{79}{figure.caption.48}\protected@file@percent }
\abx@aux@cite{httppost}
\abx@aux@segm{0}{0}{httppost}
\abx@aux@cite{retrofitDoc}
\abx@aux@segm{0}{0}{retrofitDoc}
\abx@aux@cite{retrofitDoc}
\abx@aux@segm{0}{0}{retrofitDoc}
\abx@aux@page{60}{80}
\@writefile{lol}{\defcounter {refsection}{0}\relax }\@writefile{lol}{\contentsline {lstlisting}{\numberline {40}Retrofit Annotations Content Types}{80}{lstlisting.40}\protected@file@percent }
\abx@aux@page{61}{80}
\@writefile{lol}{\defcounter {refsection}{0}\relax }\@writefile{lol}{\contentsline {lstlisting}{\numberline {41}Retrofit Annotations GET and POST Parameter}{80}{lstlisting.41}\protected@file@percent }
\abx@aux@page{62}{80}
\abx@aux@cite{retrofitDoc}
\abx@aux@segm{0}{0}{retrofitDoc}
\@writefile{lol}{\defcounter {refsection}{0}\relax }\@writefile{lol}{\contentsline {lstlisting}{\numberline {42}Retrofit Basic POST and GET Request}{81}{lstlisting.42}\protected@file@percent }
\abx@aux@page{63}{81}
\@writefile{toc}{\defcounter {refsection}{0}\relax }\@writefile{toc}{\contentsline {subsection}{\numberline {5.3}Requests}{82}{subsection.5.3}\protected@file@percent }
\@writefile{toc}{\defcounter {refsection}{0}\relax }\@writefile{toc}{\contentsline {subsubsection}{\numberline {5.3.1}Login Worktime}{82}{subsubsection.5.3.1}\protected@file@percent }
\@writefile{lol}{\defcounter {refsection}{0}\relax }\@writefile{lol}{\contentsline {lstlisting}{\numberline {43}Retrofit Login Request Method}{82}{lstlisting.43}\protected@file@percent }
\@writefile{lol}{\defcounter {refsection}{0}\relax }\@writefile{lol}{\contentsline {lstlisting}{\numberline {44}Login Response}{82}{lstlisting.44}\protected@file@percent }
\@writefile{lol}{\defcounter {refsection}{0}\relax }\@writefile{lol}{\contentsline {lstlisting}{\numberline {45}Callback Object for Login}{83}{lstlisting.45}\protected@file@percent }
\@writefile{lol}{\defcounter {refsection}{0}\relax }\@writefile{lol}{\contentsline {lstlisting}{\numberline {46}Login failed notification}{83}{lstlisting.46}\protected@file@percent }
\@writefile{toc}{\defcounter {refsection}{0}\relax }\@writefile{toc}{\contentsline {subsubsection}{\numberline {5.3.2}CheckToken}{84}{subsubsection.5.3.2}\protected@file@percent }
\@writefile{lol}{\defcounter {refsection}{0}\relax }\@writefile{lol}{\contentsline {lstlisting}{\numberline {47}Retrofit CheckToken Request Method}{84}{lstlisting.47}\protected@file@percent }
\@writefile{lol}{\defcounter {refsection}{0}\relax }\@writefile{lol}{\contentsline {lstlisting}{\numberline {48}CheckToken Response for expired token}{84}{lstlisting.48}\protected@file@percent }
\@writefile{lol}{\defcounter {refsection}{0}\relax }\@writefile{lol}{\contentsline {lstlisting}{\numberline {49}If-Else Statement for token validation}{85}{lstlisting.49}\protected@file@percent }
\@writefile{lol}{\defcounter {refsection}{0}\relax }\@writefile{lol}{\contentsline {lstlisting}{\numberline {50}ValidationComplete() Method in LoadingActivity.java}{85}{lstlisting.50}\protected@file@percent }
\@writefile{toc}{\defcounter {refsection}{0}\relax }\@writefile{toc}{\contentsline {subsubsection}{\numberline {5.3.3}GetWorktime}{86}{subsubsection.5.3.3}\protected@file@percent }
\@writefile{lol}{\defcounter {refsection}{0}\relax }\@writefile{lol}{\contentsline {lstlisting}{\numberline {51}Retrofit getWorktime Request Method}{86}{lstlisting.51}\protected@file@percent }
\@writefile{lol}{\defcounter {refsection}{0}\relax }\@writefile{lol}{\contentsline {lstlisting}{\numberline {52}getWorktime Response}{87}{lstlisting.52}\protected@file@percent }
\@writefile{lol}{\defcounter {refsection}{0}\relax }\@writefile{lol}{\contentsline {lstlisting}{\numberline {53}Callback Object for getWorktime}{87}{lstlisting.53}\protected@file@percent }
\@writefile{lol}{\defcounter {refsection}{0}\relax }\@writefile{lol}{\contentsline {lstlisting}{\numberline {54}Calling the getWorktime Request}{88}{lstlisting.54}\protected@file@percent }
\@writefile{toc}{\defcounter {refsection}{0}\relax }\@writefile{toc}{\contentsline {subsubsection}{\numberline {5.3.4}PostWorktime}{89}{subsubsection.5.3.4}\protected@file@percent }
\@writefile{lol}{\defcounter {refsection}{0}\relax }\@writefile{lol}{\contentsline {lstlisting}{\numberline {55}Worktime Format for request}{89}{lstlisting.55}\protected@file@percent }
\@writefile{lol}{\defcounter {refsection}{0}\relax }\@writefile{lol}{\contentsline {lstlisting}{\numberline {56}Retrofit PostWorktime Request Method}{90}{lstlisting.56}\protected@file@percent }
\@writefile{lol}{\defcounter {refsection}{0}\relax }\@writefile{lol}{\contentsline {lstlisting}{\numberline {57}PostWorktime Response}{90}{lstlisting.57}\protected@file@percent }
\@writefile{lol}{\defcounter {refsection}{0}\relax }\@writefile{lol}{\contentsline {lstlisting}{\numberline {58}GetPreparedDataForRequest() Method in Callback Object of PostWorktime}{91}{lstlisting.58}\protected@file@percent }
\@writefile{lol}{\defcounter {refsection}{0}\relax }\@writefile{lol}{\contentsline {lstlisting}{\numberline {59}Callback Object for PostWorktime}{91}{lstlisting.59}\protected@file@percent }
\@writefile{toc}{\defcounter {refsection}{0}\relax }\@writefile{toc}{\contentsline {subsubsection}{\numberline {5.3.5}DeleteWorktime}{92}{subsubsection.5.3.5}\protected@file@percent }
\@writefile{lol}{\defcounter {refsection}{0}\relax }\@writefile{lol}{\contentsline {lstlisting}{\numberline {60}Retrofit Delete Request Method}{92}{lstlisting.60}\protected@file@percent }
\@writefile{lol}{\defcounter {refsection}{0}\relax }\@writefile{lol}{\contentsline {lstlisting}{\numberline {61}DeleteWorktime Response}{92}{lstlisting.61}\protected@file@percent }
\@writefile{lol}{\defcounter {refsection}{0}\relax }\@writefile{lol}{\contentsline {lstlisting}{\numberline {62}If-Else Statement for deleting entries}{93}{lstlisting.62}\protected@file@percent }
\@writefile{toc}{\defcounter {refsection}{0}\relax }\@writefile{toc}{\contentsline {subsubsection}{\numberline {5.3.6}GetIssueInfo}{94}{subsubsection.5.3.6}\protected@file@percent }
\@writefile{lol}{\defcounter {refsection}{0}\relax }\@writefile{lol}{\contentsline {lstlisting}{\numberline {63}getIssueInfo Response}{94}{lstlisting.63}\protected@file@percent }
\abx@aux@cite{basicauthcode}
\abx@aux@segm{0}{0}{basicauthcode}
\@writefile{toc}{\defcounter {refsection}{0}\relax }\@writefile{toc}{\contentsline {subsubsection}{\numberline {5.3.7}Login Jira}{95}{subsubsection.5.3.7}\protected@file@percent }
\@writefile{lol}{\defcounter {refsection}{0}\relax }\@writefile{lol}{\contentsline {lstlisting}{\numberline {64}Basic Authentication Interceptor for Jira Login}{95}{lstlisting.64}\protected@file@percent }
\abx@aux@page{64}{95}
\abx@aux@cite{cookieinterceptorcodes}
\abx@aux@segm{0}{0}{cookieinterceptorcodes}
\newlabel{ReceivedCookiesInterceptor}{{65}{96}{Receiving Cookies Interceptor for Jira Communication }{lstlisting.65}{}}
\@writefile{lol}{\defcounter {refsection}{0}\relax }\@writefile{lol}{\contentsline {lstlisting}{\numberline {65}Receiving Cookies Interceptor for Jira Communication }{96}{lstlisting.65}\protected@file@percent }
\abx@aux@page{65}{96}
\@writefile{lol}{\defcounter {refsection}{0}\relax }\@writefile{lol}{\contentsline {lstlisting}{\numberline {66}Storing Cookies - Methods.setCookies()}{96}{lstlisting.66}\protected@file@percent }
\newlabel{Build OkHttpClient}{{67}{97}{Building the OkHttpClient}{lstlisting.67}{}}
\@writefile{lol}{\defcounter {refsection}{0}\relax }\@writefile{lol}{\contentsline {lstlisting}{\numberline {67}Building the OkHttpClient}{97}{lstlisting.67}\protected@file@percent }
\@writefile{lol}{\defcounter {refsection}{0}\relax }\@writefile{lol}{\contentsline {lstlisting}{\numberline {68}Jira Login Retrofit Interface Method}{97}{lstlisting.68}\protected@file@percent }
\@writefile{lol}{\defcounter {refsection}{0}\relax }\@writefile{lol}{\contentsline {lstlisting}{\numberline {69}Callback Object for Jira Login}{98}{lstlisting.69}\protected@file@percent }
\@writefile{toc}{\defcounter {refsection}{0}\relax }\@writefile{toc}{\contentsline {subsubsection}{\numberline {5.3.8}GetIssues}{99}{subsubsection.5.3.8}\protected@file@percent }
\newlabel{getIssues}{{5.3.8}{99}{GetIssues}{subsubsection.5.3.8}{}}
\@writefile{lol}{\defcounter {refsection}{0}\relax }\@writefile{lol}{\contentsline {lstlisting}{\numberline {70}Jira getIssues Response}{100}{lstlisting.70}\protected@file@percent }
\@writefile{lol}{\defcounter {refsection}{0}\relax }\@writefile{lol}{\contentsline {lstlisting}{\numberline {71}Retrofit Interface Method for Requesting Issues via Jira}{100}{lstlisting.71}\protected@file@percent }
\@writefile{lol}{\defcounter {refsection}{0}\relax }\@writefile{lol}{\contentsline {lstlisting}{\numberline {72}Callback Object for Requesting Issues (getIssues)}{101}{lstlisting.72}\protected@file@percent }
\abx@aux@cite{cookieinterceptorcodes}
\abx@aux@segm{0}{0}{cookieinterceptorcodes}
\@writefile{toc}{\defcounter {refsection}{0}\relax }\@writefile{toc}{\contentsline {subsubsection}{\numberline {5.3.9}Logout Jira}{102}{subsubsection.5.3.9}\protected@file@percent }
\newlabel{AddCookiesInterceptor}{{73}{102}{Adding Cookies Interceptor for Jira Communication}{lstlisting.73}{}}
\@writefile{lol}{\defcounter {refsection}{0}\relax }\@writefile{lol}{\contentsline {lstlisting}{\numberline {73}Adding Cookies Interceptor for Jira Communication}{102}{lstlisting.73}\protected@file@percent }
\abx@aux@page{66}{102}
\@writefile{lol}{\defcounter {refsection}{0}\relax }\@writefile{lol}{\contentsline {lstlisting}{\numberline {74}Jira Logout Retrofit Interface Method}{102}{lstlisting.74}\protected@file@percent }
\@writefile{lol}{\defcounter {refsection}{0}\relax }\@writefile{lol}{\contentsline {lstlisting}{\numberline {75}Jira Logout Callback Object}{103}{lstlisting.75}\protected@file@percent }
\@writefile{lol}{\defcounter {refsection}{0}\relax }\@writefile{lol}{\contentsline {lstlisting}{\numberline {76}Removing Cookies - Methods.removeCookies()}{103}{lstlisting.76}\protected@file@percent }
\abx@aux@cite{roomarchitecture}
\abx@aux@segm{0}{0}{roomarchitecture}
\abx@aux@cite{roomarchitecture}
\abx@aux@segm{0}{0}{roomarchitecture}
\abx@aux@cite{sqlitevsroom}
\abx@aux@segm{0}{0}{sqlitevsroom}
\@writefile{toc}{\defcounter {refsection}{0}\relax }\@writefile{toc}{\contentsline {section}{\numberline {6}Project Database}{104}{section.6}\protected@file@percent }
\@writefile{toc}{\defcounter {refsection}{0}\relax }\@writefile{toc}{\contentsline {subsection}{\numberline {6.1}Room Architecture}{104}{subsection.6.1}\protected@file@percent }
\abx@aux@page{67}{104}
\@writefile{lof}{\defcounter {refsection}{0}\relax }\@writefile{lof}{\contentsline {figure}{\numberline {55}{\ignorespaces Room Architecture Diagram}}{104}{figure.caption.49}\protected@file@percent }
\abx@aux@page{69}{104}
\abx@aux@cite{roomarchitecture}
\abx@aux@segm{0}{0}{roomarchitecture}
\abx@aux@cite{roomdatabase}
\abx@aux@segm{0}{0}{roomdatabase}
\abx@aux@cite{roomdatabase}
\abx@aux@segm{0}{0}{roomdatabase}
\@writefile{toc}{\defcounter {refsection}{0}\relax }\@writefile{toc}{\contentsline {subsubsection}{\numberline {6.1.1}Database}{105}{subsubsection.6.1.1}\protected@file@percent }
\abx@aux@page{70}{105}
\@writefile{lol}{\defcounter {refsection}{0}\relax }\@writefile{lol}{\contentsline {lstlisting}{\numberline {77}Room Database Class}{105}{lstlisting.77}\protected@file@percent }
\abx@aux@page{71}{105}
\abx@aux@page{72}{105}
\@writefile{toc}{\defcounter {refsection}{0}\relax }\@writefile{toc}{\contentsline {subsubsection}{\numberline {6.1.2}Database Access Object}{105}{subsubsection.6.1.2}\protected@file@percent }
\@writefile{lol}{\defcounter {refsection}{0}\relax }\@writefile{lol}{\contentsline {lstlisting}{\numberline {78}DAO Method getAll()}{106}{lstlisting.78}\protected@file@percent }
\@writefile{lol}{\defcounter {refsection}{0}\relax }\@writefile{lol}{\contentsline {lstlisting}{\numberline {79}DAO Method insertWorktime()}{106}{lstlisting.79}\protected@file@percent }
\@writefile{lol}{\defcounter {refsection}{0}\relax }\@writefile{lol}{\contentsline {lstlisting}{\numberline {80}DAO Method deleteAll()}{106}{lstlisting.80}\protected@file@percent }
\@writefile{lol}{\defcounter {refsection}{0}\relax }\@writefile{lol}{\contentsline {lstlisting}{\numberline {81}DAO Method getRunningWorktime()}{106}{lstlisting.81}\protected@file@percent }
\@writefile{lol}{\defcounter {refsection}{0}\relax }\@writefile{lol}{\contentsline {lstlisting}{\numberline {82}DAO Method updateOnGoingWorktime()}{106}{lstlisting.82}\protected@file@percent }
\@writefile{lol}{\defcounter {refsection}{0}\relax }\@writefile{lol}{\contentsline {lstlisting}{\numberline {83}DAO Method deleteWorktime()}{106}{lstlisting.83}\protected@file@percent }
\abx@aux@cite{entityInfo}
\abx@aux@segm{0}{0}{entityInfo}
\@writefile{toc}{\defcounter {refsection}{0}\relax }\@writefile{toc}{\contentsline {subsubsection}{\numberline {6.1.3}Entity}{107}{subsubsection.6.1.3}\protected@file@percent }
\@writefile{lol}{\defcounter {refsection}{0}\relax }\@writefile{lol}{\contentsline {lstlisting}{\numberline {84}Worktime Room Entity Annotations}{107}{lstlisting.84}\protected@file@percent }
\abx@aux@page{73}{107}
\@writefile{toc}{\defcounter {refsection}{0}\relax }\@writefile{toc}{\contentsline {subsection}{\numberline {6.2}Usage}{108}{subsection.6.2}\protected@file@percent }
\@writefile{toc}{\defcounter {refsection}{0}\relax }\@writefile{toc}{\contentsline {subsubsection}{\numberline {6.2.1}Read}{108}{subsubsection.6.2.1}\protected@file@percent }
\@writefile{lol}{\defcounter {refsection}{0}\relax }\@writefile{lol}{\contentsline {lstlisting}{\numberline {85}Webservice Method loadWorktimesFormDatabase()}{108}{lstlisting.85}\protected@file@percent }
\@writefile{lol}{\defcounter {refsection}{0}\relax }\@writefile{lol}{\contentsline {lstlisting}{\numberline {86}AsyncTask for Read Database}{109}{lstlisting.86}\protected@file@percent }
\@writefile{toc}{\defcounter {refsection}{0}\relax }\@writefile{toc}{\contentsline {subsubsection}{\numberline {6.2.2}Delete}{109}{subsubsection.6.2.2}\protected@file@percent }
\@writefile{lol}{\defcounter {refsection}{0}\relax }\@writefile{lol}{\contentsline {lstlisting}{\numberline {87}Webservice Method deleteAllWorktimesFromDatabase()}{109}{lstlisting.87}\protected@file@percent }
\@writefile{lol}{\defcounter {refsection}{0}\relax }\@writefile{lol}{\contentsline {lstlisting}{\numberline {88}AsyncTask for Clear Database}{110}{lstlisting.88}\protected@file@percent }
\@writefile{toc}{\defcounter {refsection}{0}\relax }\@writefile{toc}{\contentsline {subsubsection}{\numberline {6.2.3}Save}{110}{subsubsection.6.2.3}\protected@file@percent }
\@writefile{lol}{\defcounter {refsection}{0}\relax }\@writefile{lol}{\contentsline {lstlisting}{\numberline {89}Webservice Method saveWorktimeInDatabase()}{110}{lstlisting.89}\protected@file@percent }
\@writefile{lol}{\defcounter {refsection}{0}\relax }\@writefile{lol}{\contentsline {lstlisting}{\numberline {90}AsyncTask for storing Worktimes in Database}{111}{lstlisting.90}\protected@file@percent }
\@writefile{toc}{\defcounter {refsection}{0}\relax }\@writefile{toc}{\contentsline {subsubsection}{\numberline {6.2.4}Update}{112}{subsubsection.6.2.4}\protected@file@percent }
\@writefile{lol}{\defcounter {refsection}{0}\relax }\@writefile{lol}{\contentsline {lstlisting}{\numberline {91}Webservice Method stopWorktime()}{112}{lstlisting.91}\protected@file@percent }
\@writefile{lol}{\defcounter {refsection}{0}\relax }\@writefile{lol}{\contentsline {lstlisting}{\numberline {92}Webservice Method editWorktime()}{112}{lstlisting.92}\protected@file@percent }
\@writefile{lol}{\defcounter {refsection}{0}\relax }\@writefile{lol}{\contentsline {lstlisting}{\numberline {93}AsyncTask for updating Worktimes in database}{113}{lstlisting.93}\protected@file@percent }
\abx@aux@cite{RequirementsAppWidget}
\abx@aux@segm{0}{0}{RequirementsAppWidget}
\@writefile{toc}{\defcounter {refsection}{0}\relax }\@writefile{toc}{\contentsline {section}{\numberline {7}Project App Functionalities}{114}{section.7}\protected@file@percent }
\@writefile{toc}{\defcounter {refsection}{0}\relax }\@writefile{toc}{\contentsline {subsection}{\numberline {7.1}Widget}{114}{subsection.7.1}\protected@file@percent }
\@writefile{toc}{\defcounter {refsection}{0}\relax }\@writefile{toc}{\contentsline {subsubsection}{\numberline {7.1.1}Requirements}{114}{subsubsection.7.1.1}\protected@file@percent }
\abx@aux@page{74}{114}
\@writefile{toc}{\defcounter {refsection}{0}\relax }\@writefile{toc}{\contentsline {subsubsection}{\numberline {7.1.2}View Layout}{115}{subsubsection.7.1.2}\protected@file@percent }
\@writefile{lof}{\defcounter {refsection}{0}\relax }\@writefile{lof}{\contentsline {figure}{\numberline {56}{\ignorespaces App Widget Layout\relax }}{115}{figure.caption.50}\protected@file@percent }
\@writefile{lof}{\defcounter {refsection}{0}\relax }\@writefile{lof}{\contentsline {figure}{\numberline {57}{\ignorespaces Start icon\relax }}{115}{figure.caption.51}\protected@file@percent }
\providecommand*\caption@xref[2]{\@setref\relax\@undefined{#1}}
\newlabel{fig:test1}{{57}{115}{Start icon\relax }{figure.caption.51}{}}
\@writefile{lof}{\defcounter {refsection}{0}\relax }\@writefile{lof}{\contentsline {figure}{\numberline {58}{\ignorespaces Stop icon\relax }}{115}{figure.caption.51}\protected@file@percent }
\newlabel{fig:test2}{{58}{115}{Stop icon\relax }{figure.caption.51}{}}
\@writefile{lof}{\defcounter {refsection}{0}\relax }\@writefile{lof}{\contentsline {figure}{\numberline {59}{\ignorespaces Choosing an App Widget\relax }}{115}{figure.caption.52}\protected@file@percent }
\@writefile{toc}{\defcounter {refsection}{0}\relax }\@writefile{toc}{\contentsline {subsubsection}{\numberline {7.1.3}AppWidgetProviderInfo}{116}{subsubsection.7.1.3}\protected@file@percent }
\@writefile{lol}{\defcounter {refsection}{0}\relax }\@writefile{lol}{\contentsline {lstlisting}{\numberline {94}widget\_info.xml}{116}{lstlisting.94}\protected@file@percent }
\@writefile{toc}{\defcounter {refsection}{0}\relax }\@writefile{toc}{\contentsline {subsubsection}{\numberline {7.1.4}Widget Configuration Activity}{117}{subsubsection.7.1.4}\protected@file@percent }
\@writefile{lol}{\defcounter {refsection}{0}\relax }\@writefile{lol}{\contentsline {lstlisting}{\numberline {95}Create Widget Instance}{117}{lstlisting.95}\protected@file@percent }
\@writefile{lol}{\defcounter {refsection}{0}\relax }\@writefile{lol}{\contentsline {lstlisting}{\numberline {96}Check for multiple App Widget Instances}{118}{lstlisting.96}\protected@file@percent }
\abx@aux@cite{AppWidgetProvider}
\abx@aux@segm{0}{0}{AppWidgetProvider}
\abx@aux@cite{AppWidgetProvider_methods}
\abx@aux@segm{0}{0}{AppWidgetProvider_methods}
\@writefile{toc}{\defcounter {refsection}{0}\relax }\@writefile{toc}{\contentsline {subsubsection}{\numberline {7.1.5}AppWidgetProvider}{119}{subsubsection.7.1.5}\protected@file@percent }
\newlabel{AppWidgetProvider}{{7.1.5}{119}{AppWidgetProvider}{subsubsection.7.1.5}{}}
\abx@aux@page{75}{119}
\abx@aux@page{76}{119}
\abx@aux@cite{AlarmManager}
\abx@aux@segm{0}{0}{AlarmManager}
\abx@aux@page{77}{120}
\@writefile{lol}{\defcounter {refsection}{0}\relax }\@writefile{lol}{\contentsline {lstlisting}{\numberline {97}WidgetActivity onUpdate}{121}{lstlisting.97}\protected@file@percent }
\@writefile{lol}{\defcounter {refsection}{0}\relax }\@writefile{lol}{\contentsline {lstlisting}{\numberline {98}WidgetActivity performConfig()}{122}{lstlisting.98}\protected@file@percent }
\@writefile{lol}{\defcounter {refsection}{0}\relax }\@writefile{lol}{\contentsline {lstlisting}{\numberline {99}WidgetActivity onDisabled()}{122}{lstlisting.99}\protected@file@percent }
\@writefile{lol}{\defcounter {refsection}{0}\relax }\@writefile{lol}{\contentsline {lstlisting}{\numberline {100}WidgetActivity onReceive()}{123}{lstlisting.100}\protected@file@percent }
\@writefile{lol}{\defcounter {refsection}{0}\relax }\@writefile{lol}{\contentsline {lstlisting}{\numberline {101}WidgetActivity isOverOneMinute()}{124}{lstlisting.101}\protected@file@percent }
\@writefile{lol}{\defcounter {refsection}{0}\relax }\@writefile{lol}{\contentsline {lstlisting}{\numberline {102}WidgetActivity startWork()}{125}{lstlisting.102}\protected@file@percent }
\@writefile{lol}{\defcounter {refsection}{0}\relax }\@writefile{lol}{\contentsline {lstlisting}{\numberline {103}WidgetActivity getPendingSelfIntent()}{125}{lstlisting.103}\protected@file@percent }
\@writefile{toc}{\defcounter {refsection}{0}\relax }\@writefile{toc}{\contentsline {subsubsection}{\numberline {7.1.6}BroadcastReceiver}{126}{subsubsection.7.1.6}\protected@file@percent }
\@writefile{lol}{\defcounter {refsection}{0}\relax }\@writefile{lol}{\contentsline {lstlisting}{\numberline {104}CustomBroadcastReceiver onReceive()}{126}{lstlisting.104}\protected@file@percent }
\@writefile{lol}{\defcounter {refsection}{0}\relax }\@writefile{lol}{\contentsline {lstlisting}{\numberline {105}CustomBroadcastReceiver getCurrentTime()}{126}{lstlisting.105}\protected@file@percent }
\@writefile{toc}{\defcounter {refsection}{0}\relax }\@writefile{toc}{\contentsline {subsection}{\numberline {7.2}Statistics}{127}{subsection.7.2}\protected@file@percent }
\@writefile{toc}{\defcounter {refsection}{0}\relax }\@writefile{toc}{\contentsline {subsubsection}{\numberline {7.2.1}Statistics Weekly}{127}{subsubsection.7.2.1}\protected@file@percent }
\@writefile{lol}{\defcounter {refsection}{0}\relax }\@writefile{lol}{\contentsline {lstlisting}{\numberline {106}Statistics Weekly onViewCreated()}{128}{lstlisting.106}\protected@file@percent }
\@writefile{lol}{\defcounter {refsection}{0}\relax }\@writefile{lol}{\contentsline {lstlisting}{\numberline {107}Statistics Weekly onUpdate()}{129}{lstlisting.107}\protected@file@percent }
\@writefile{lol}{\defcounter {refsection}{0}\relax }\@writefile{lol}{\contentsline {lstlisting}{\numberline {108}Statistics Weekly hoursPerProject()}{130}{lstlisting.108}\protected@file@percent }
\@writefile{toc}{\defcounter {refsection}{0}\relax }\@writefile{toc}{\contentsline {subsubsection}{\numberline {7.2.2}Statistics Monthly}{130}{subsubsection.7.2.2}\protected@file@percent }
\@writefile{toc}{\defcounter {refsection}{0}\relax }\@writefile{toc}{\contentsline {subsubsection}{\numberline {7.2.3}Statistics Yearly}{130}{subsubsection.7.2.3}\protected@file@percent }
\abx@aux@cite{FileProvider}
\abx@aux@segm{0}{0}{FileProvider}
\@writefile{toc}{\defcounter {refsection}{0}\relax }\@writefile{toc}{\contentsline {subsection}{\numberline {7.3}Export}{131}{subsection.7.3}\protected@file@percent }
\@writefile{toc}{\defcounter {refsection}{0}\relax }\@writefile{toc}{\contentsline {subsubsection}{\numberline {7.3.1}Method onExportTime()}{131}{subsubsection.7.3.1}\protected@file@percent }
\abx@aux@page{78}{131}
\@writefile{lol}{\defcounter {refsection}{0}\relax }\@writefile{lol}{\contentsline {lstlisting}{\numberline {109}export onExportTime()}{132}{lstlisting.109}\protected@file@percent }
\@writefile{lof}{\defcounter {refsection}{0}\relax }\@writefile{lof}{\contentsline {figure}{\numberline {60}{\ignorespaces E-Mail client chooser\relax }}{132}{figure.caption.53}\protected@file@percent }
\@writefile{toc}{\defcounter {refsection}{0}\relax }\@writefile{toc}{\contentsline {subsubsection}{\numberline {7.3.2}Method createCSVFile()}{133}{subsubsection.7.3.2}\protected@file@percent }
\@writefile{lot}{\defcounter {refsection}{0}\relax }\@writefile{lot}{\contentsline {table}{\numberline {2}{\ignorespaces worktimes.csv file format\relax }}{133}{table.caption.54}\protected@file@percent }
\@writefile{lof}{\defcounter {refsection}{0}\relax }\@writefile{lof}{\contentsline {figure}{\numberline {61}{\ignorespaces worktimes.csv location\relax }}{133}{figure.caption.55}\protected@file@percent }
\newlabel{Worktime Listing}{{7.3.2}{134}{Method createCSVFile()}{figure.caption.55}{}}
\@writefile{toc}{\defcounter {refsection}{0}\relax }\@writefile{toc}{\contentsline {subsection}{\numberline {7.4}Worktime Listing}{134}{subsection.7.4}\protected@file@percent }
\@writefile{lol}{\defcounter {refsection}{0}\relax }\@writefile{lol}{\contentsline {lstlisting}{\numberline {110}setWorktimes() Method in ListingProvider}{134}{lstlisting.110}\protected@file@percent }
\@writefile{lol}{\defcounter {refsection}{0}\relax }\@writefile{lol}{\contentsline {lstlisting}{\numberline {111}setWorktimesDateSpecific() Method in ListingProvider}{134}{lstlisting.111}\protected@file@percent }
\@writefile{lol}{\defcounter {refsection}{0}\relax }\@writefile{lol}{\contentsline {lstlisting}{\numberline {112}addLocalWorktimes() Method of ListingProvider}{135}{lstlisting.112}\protected@file@percent }
\@writefile{toc}{\defcounter {refsection}{0}\relax }\@writefile{toc}{\contentsline {subsubsection}{\numberline {7.4.1}Filtering Worktimes}{135}{subsubsection.7.4.1}\protected@file@percent }
\@writefile{lol}{\defcounter {refsection}{0}\relax }\@writefile{lol}{\contentsline {lstlisting}{\numberline {113}sortWorktimesBasicRefresh()-Method for Default Sorting of Worktime Objects}{136}{lstlisting.113}\protected@file@percent }
\@writefile{lol}{\defcounter {refsection}{0}\relax }\@writefile{lol}{\contentsline {lstlisting}{\numberline {114}filterWorktimes() Method in ListingProvider}{136}{lstlisting.114}\protected@file@percent }
\@writefile{lol}{\defcounter {refsection}{0}\relax }\@writefile{lol}{\contentsline {lstlisting}{\numberline {115}getWorktimesOfProject() Method in ListingProvider}{137}{lstlisting.115}\protected@file@percent }
\newlabel{Project/Issue Listing}{{7.4.1}{138}{Filtering Worktimes}{lstnumber.115.22}{}}
\@writefile{toc}{\defcounter {refsection}{0}\relax }\@writefile{toc}{\contentsline {subsection}{\numberline {7.5}Project/Issue Listing}{138}{subsection.7.5}\protected@file@percent }
\@writefile{lol}{\defcounter {refsection}{0}\relax }\@writefile{lol}{\contentsline {lstlisting}{\numberline {116}Initiating Projects and Issues in ListingProvider}{138}{lstlisting.116}\protected@file@percent }
\@writefile{lol}{\defcounter {refsection}{0}\relax }\@writefile{lol}{\contentsline {lstlisting}{\numberline {117}getIssuesOfProjects() Method in ListingProvider}{139}{lstlisting.117}\protected@file@percent }
\@writefile{lol}{\defcounter {refsection}{0}\relax }\@writefile{lol}{\contentsline {lstlisting}{\numberline {118}Sorting Issues Alphabetically}{139}{lstlisting.118}\protected@file@percent }
\@writefile{toc}{\defcounter {refsection}{0}\relax }\@writefile{toc}{\contentsline {subsection}{\numberline {7.6}Notifications}{140}{subsection.7.6}\protected@file@percent }
\@writefile{toc}{\defcounter {refsection}{0}\relax }\@writefile{toc}{\contentsline {subsubsection}{\numberline {7.6.1}The setup of Firebase}{140}{subsubsection.7.6.1}\protected@file@percent }
\@writefile{lof}{\defcounter {refsection}{0}\relax }\@writefile{lof}{\contentsline {figure}{\numberline {62}{\ignorespaces Connecting Firebase\relax }}{140}{figure.caption.56}\protected@file@percent }
\@writefile{lol}{\defcounter {refsection}{0}\relax }\@writefile{lol}{\contentsline {lstlisting}{\numberline {119}Cloud Messaging Manifest Entry}{141}{lstlisting.119}\protected@file@percent }
\@writefile{toc}{\defcounter {refsection}{0}\relax }\@writefile{toc}{\contentsline {subsubsection}{\numberline {7.6.2}Scheduling the notification}{141}{subsubsection.7.6.2}\protected@file@percent }
\@writefile{lol}{\defcounter {refsection}{0}\relax }\@writefile{lol}{\contentsline {lstlisting}{\numberline {120}scheduleNotification()}{141}{lstlisting.120}\protected@file@percent }
\abx@aux@cite{httpMessaging}
\abx@aux@segm{0}{0}{httpMessaging}
\abx@aux@cite{httpMessaging}
\abx@aux@segm{0}{0}{httpMessaging}
\abx@aux@page{79}{142}
\abx@aux@page{80}{142}
\@writefile{toc}{\defcounter {refsection}{0}\relax }\@writefile{toc}{\contentsline {subsubsection}{\numberline {7.6.3}Handling the notification}{143}{subsubsection.7.6.3}\protected@file@percent }
\@writefile{lof}{\defcounter {refsection}{0}\relax }\@writefile{lof}{\contentsline {figure}{\numberline {63}{\ignorespaces Notification\relax }}{143}{figure.caption.57}\protected@file@percent }
\@writefile{lol}{\defcounter {refsection}{0}\relax }\@writefile{lol}{\contentsline {lstlisting}{\numberline {121}onMessageReceived()}{144}{lstlisting.121}\protected@file@percent }
\@writefile{toc}{\defcounter {refsection}{0}\relax }\@writefile{toc}{\contentsline {section}{\numberline {8}Conclusion}{145}{section.8}\protected@file@percent }
\@writefile{toc}{\defcounter {refsection}{0}\relax }\@writefile{toc}{\contentsline {subsection}{\numberline {8.1}Kerstin Klaminger}{145}{subsection.8.1}\protected@file@percent }
\@writefile{toc}{\defcounter {refsection}{0}\relax }\@writefile{toc}{\contentsline {subsection}{\numberline {8.2}Matthäus Schwarzkogler}{145}{subsection.8.2}\protected@file@percent }
\@writefile{toc}{\defcounter {refsection}{0}\relax }\@writefile{toc}{\contentsline {subsection}{\numberline {8.3}Bernhard Heiß}{146}{subsection.8.3}\protected@file@percent }
\@writefile{toc}{\defcounter {refsection}{0}\relax }\@writefile{toc}{\contentsline {subsection}{\numberline {8.4}Matthias Pöschl}{146}{subsection.8.4}\protected@file@percent }
\@writefile{toc}{\defcounter {refsection}{0}\relax }\@writefile{toc}{\contentsline {subsection}{\numberline {8.5}Mario Schweiger}{146}{subsection.8.5}\protected@file@percent }
\@writefile{toc}{\defcounter {refsection}{0}\relax }\@writefile{toc}{\contentsline {section}{\numberline {9}Appendix}{147}{section.9}\protected@file@percent }
\@writefile{toc}{\defcounter {refsection}{0}\relax }\@writefile{toc}{\contentsline {subsection}{\numberline {9.1}Minutes of Meetings}{147}{subsection.9.1}\protected@file@percent }
\@writefile{toc}{\defcounter {refsection}{0}\relax }\@writefile{toc}{\contentsline {subsection}{\numberline {9.2}Time Sheet}{149}{subsection.9.2}\protected@file@percent }
\@writefile{lot}{\defcounter {refsection}{0}\relax }\@writefile{lot}{\contentsline {table}{\numberline {3}{\ignorespaces Time Sheet\relax }}{149}{table.caption.58}\protected@file@percent }
\@writefile{lot}{\defcounter {refsection}{0}\relax }\@writefile{lot}{\contentsline {table}{\numberline {4}{\ignorespaces Time Sheet Key\relax }}{149}{table.caption.59}\protected@file@percent }
\@writefile{toc}{\defcounter {refsection}{0}\relax }\@writefile{toc}{\contentsline {subsection}{\numberline {9.3}List of Figures}{150}{subsection.9.3}\protected@file@percent }
\@writefile{toc}{\defcounter {refsection}{0}\relax }\@writefile{toc}{\contentsline {subsection}{\numberline {9.4}List of Tables}{152}{subsection.9.4}\protected@file@percent }
\@writefile{toc}{\defcounter {refsection}{0}\relax }\@writefile{toc}{\contentsline {subsection}{\numberline {9.5}Code Listing}{153}{subsection.9.5}\protected@file@percent }
\gdef \LT@i {\LT@entry 
    {1}{68.9055pt}\LT@entry 
    {1}{410.33858pt}}
\@writefile{toc}{\defcounter {refsection}{0}\relax }\@writefile{toc}{\contentsline {subsection}{\numberline {9.6}List of Abbreviations}{156}{subsection.9.6}\protected@file@percent }
\@writefile{toc}{\defcounter {refsection}{0}\relax }\@writefile{toc}{\contentsline {subsection}{\numberline {9.7}Bibliography}{157}{subsection.9.7}\protected@file@percent }
\abx@aux@page{81}{157}
\abx@aux@page{82}{157}
\abx@aux@page{83}{157}
\abx@aux@page{84}{157}
\abx@aux@page{85}{157}
\abx@aux@page{86}{157}
\abx@aux@page{87}{157}
\abx@aux@page{88}{157}
\abx@aux@page{89}{157}
\abx@aux@page{90}{157}
\abx@aux@page{91}{157}
\abx@aux@page{92}{157}
\abx@aux@page{93}{157}
\abx@aux@page{94}{157}
\abx@aux@page{95}{157}
\abx@aux@page{96}{157}
\abx@aux@page{97}{157}
\abx@aux@page{98}{157}
\abx@aux@page{99}{157}
\abx@aux@page{100}{157}
\abx@aux@page{101}{157}
\abx@aux@page{102}{158}
\abx@aux@page{103}{158}
\abx@aux@page{104}{158}
\abx@aux@page{105}{158}
\abx@aux@page{106}{158}
\abx@aux@page{107}{158}
\abx@aux@page{108}{158}
\abx@aux@page{109}{158}
\abx@aux@page{110}{158}
\abx@aux@page{111}{158}
\abx@aux@page{112}{158}
\abx@aux@page{113}{158}
\abx@aux@page{114}{158}
\abx@aux@page{115}{158}
\abx@aux@page{116}{158}
\abx@aux@page{117}{158}
\abx@aux@page{118}{158}
\abx@aux@page{119}{158}
\abx@aux@page{120}{158}
\abx@aux@page{121}{158}
\abx@aux@page{122}{158}
\abx@aux@page{123}{159}
\abx@aux@page{124}{159}
\abx@aux@page{125}{159}
\abx@aux@page{126}{159}
\abx@aux@page{127}{159}
\abx@aux@page{128}{159}
\abx@aux@page{129}{159}
\abx@aux@page{130}{159}
\abx@aux@page{131}{159}
\abx@aux@page{132}{159}
\abx@aux@page{133}{159}
\abx@aux@page{134}{159}
\abx@aux@page{135}{159}
\abx@aux@page{136}{159}
\abx@aux@page{137}{159}
\abx@aux@page{138}{159}
\abx@aux@page{139}{159}
\abx@aux@page{140}{159}
\abx@aux@page{141}{159}
\abx@aux@page{142}{159}
\abx@aux@page{143}{159}
\abx@aux@page{144}{159}
\abx@aux@page{145}{159}
\abx@aux@refcontextdefaultsdone
\abx@aux@defaultrefcontext{0}{pixeldensity}{apa/global//global/global}
\abx@aux@defaultrefcontext{0}{asynctask_why}{apa/global//global/global}
\abx@aux@defaultrefcontext{0}{AppWidgetProvider}{apa/global//global/global}
\abx@aux@defaultrefcontext{0}{AppWidgetProvider_methods}{apa/global//global/global}
\abx@aux@defaultrefcontext{0}{roomdatabase}{apa/global//global/global}
\abx@aux@defaultrefcontext{0}{dialogs}{apa/global//global/global}
\abx@aux@defaultrefcontext{0}{entityInfo}{apa/global//global/global}
\abx@aux@defaultrefcontext{0}{AlarmManager}{apa/global//global/global}
\abx@aux@defaultrefcontext{0}{jetpackInfo}{apa/global//global/global}
\abx@aux@defaultrefcontext{0}{FileProvider}{apa/global//global/global}
\abx@aux@defaultrefcontext{0}{taskguide}{apa/global//global/global}
\abx@aux@defaultrefcontext{0}{RequirementsAppWidget}{apa/global//global/global}
\abx@aux@defaultrefcontext{0}{androidRoomInfo}{apa/global//global/global}
\abx@aux@defaultrefcontext{0}{roomarchitecture}{apa/global//global/global}
\abx@aux@defaultrefcontext{0}{sqliteInfo}{apa/global//global/global}
\abx@aux@defaultrefcontext{0}{datetimepicker}{apa/global//global/global}
\abx@aux@defaultrefcontext{0}{bitbucketlogo}{apa/global//global/global}
\abx@aux@defaultrefcontext{0}{jiralogo}{apa/global//global/global}
\abx@aux@defaultrefcontext{0}{sourcetreeInfo}{apa/global//global/global}
\abx@aux@defaultrefcontext{0}{sourcetreelogo}{apa/global//global/global}
\abx@aux@defaultrefcontext{0}{roomInfo}{apa/global//global/global}
\abx@aux@defaultrefcontext{0}{mindviewlogo}{apa/global//global/global}
\abx@aux@defaultrefcontext{0}{excel}{apa/global//global/global}
\abx@aux@defaultrefcontext{0}{postmanlogo}{apa/global//global/global}
\abx@aux@defaultrefcontext{0}{jira}{apa/global//global/global}
\abx@aux@defaultrefcontext{0}{firebaselogo}{apa/global//global/global}
\abx@aux@defaultrefcontext{0}{httpMessaging}{apa/global//global/global}
\abx@aux@defaultrefcontext{0}{gitLogo}{apa/global//global/global}
\abx@aux@defaultrefcontext{0}{heyspacelogo}{apa/global//global/global}
\abx@aux@defaultrefcontext{0}{wfmpic}{apa/global//global/global}
\abx@aux@defaultrefcontext{0}{colorpicker}{apa/global//global/global}
\abx@aux@defaultrefcontext{0}{rasci}{apa/global//global/global}
\abx@aux@defaultrefcontext{0}{independentPixel}{apa/global//global/global}
\abx@aux@defaultrefcontext{0}{what_is_waterfallmodel}{apa/global//global/global}
\abx@aux@defaultrefcontext{0}{mindview}{apa/global//global/global}
\abx@aux@defaultrefcontext{0}{materialdesignlogo}{apa/global//global/global}
\abx@aux@defaultrefcontext{0}{outlooklogo}{apa/global//global/global}
\abx@aux@defaultrefcontext{0}{deleteInfo}{apa/global//global/global}
\abx@aux@defaultrefcontext{0}{httppost}{apa/global//global/global}
\abx@aux@defaultrefcontext{0}{Java_Logo}{apa/global//global/global}
\abx@aux@defaultrefcontext{0}{chartlogo}{apa/global//global/global}
\abx@aux@defaultrefcontext{0}{densityBuckets}{apa/global//global/global}
\abx@aux@defaultrefcontext{0}{postman}{apa/global//global/global}
\abx@aux@defaultrefcontext{0}{basicauthcode}{apa/global//global/global}
\abx@aux@defaultrefcontext{0}{moqupslogo}{apa/global//global/global}
\abx@aux@defaultrefcontext{0}{sqlitevsroom}{apa/global//global/global}
\abx@aux@defaultrefcontext{0}{sequenceInfo}{apa/global//global/global}
\abx@aux@defaultrefcontext{0}{sqlitelogo}{apa/global//global/global}
\abx@aux@defaultrefcontext{0}{retrofit2_call}{apa/global//global/global}
\abx@aux@defaultrefcontext{0}{retrofit_doc}{apa/global//global/global}
\abx@aux@defaultrefcontext{0}{retrofitDoc}{apa/global//global/global}
\abx@aux@defaultrefcontext{0}{ssiLogo}{apa/global//global/global}
\abx@aux@defaultrefcontext{0}{texmakerlogo}{apa/global//global/global}
\abx@aux@defaultrefcontext{0}{cookieinterceptorcodes}{apa/global//global/global}
\abx@aux@defaultrefcontext{0}{tut_waterfallmodel}{apa/global//global/global}
\abx@aux@defaultrefcontext{0}{jsonvsxml}{apa/global//global/global}
\abx@aux@defaultrefcontext{0}{texlivelogo}{apa/global//global/global}
\abx@aux@defaultrefcontext{0}{AndroidStudio_Logo}{apa/global//global/global}
\abx@aux@defaultrefcontext{0}{bitBucketInfo}{apa/global//global/global}
\abx@aux@defaultrefcontext{0}{excel_logo}{apa/global//global/global}
\abx@aux@defaultrefcontext{0}{gitInfo}{apa/global//global/global}
\abx@aux@defaultrefcontext{0}{latexlogo}{apa/global//global/global}
\abx@aux@defaultrefcontext{0}{pojoWiki}{apa/global//global/global}
\abx@aux@defaultrefcontext{0}{planpoker}{apa/global//global/global}
\abx@aux@defaultrefcontext{0}{singletonWiki}{apa/global//global/global}
\abx@aux@defaultrefcontext{0}{versionControlInfo}{apa/global//global/global}
\abx@aux@defaultrefcontext{0}{xmllogo}{apa/global//global/global}
\abx@aux@page{146}{160}
\abx@aux@page{147}{160}
