[0] Config.pm:304> INFO - This is Biber 2.12
[1] Config.pm:307> INFO - Logfile is 'da_mainDocument.blg'
[61] biber-darwin:315> INFO - === Fri Mar 27, 2020, 14:44:40
[114] Biber.pm:371> INFO - Reading 'da_mainDocument.bcf'
[271] Biber.pm:889> INFO - Found 67 citekeys in bib section 0
[292] Biber.pm:4093> INFO - Processing section 0
[309] Biber.pm:4254> INFO - Looking for bibtex format file 'DA-INCLUDES/sources.bib' for section 0
[313] bibtex.pm:1523> INFO - LaTeX decoding ...
[430] bibtex.pm:1340> INFO - Found BibTeX data source 'DA-INCLUDES/sources.bib'
[622] Utils.pm:193> WARN - year field '2010 2010 2010' in entry 'texlivelogo' is not an integer - this will probably not sort properly.
[697] Utils.pm:193> WARN - year field '2013 2013' in entry 'excel' is not an integer - this will probably not sort properly.
[729] Utils.pm:193> WARN - Overwriting field 'year' with year value from field 'date' for entry 'dialogs'
[1182] UCollate.pm:68> INFO - Overriding locale 'en-US' defaults 'normalization = NFD' with 'normalization = prenormalized'
[1182] UCollate.pm:68> INFO - Overriding locale 'en-US' defaults 'variable = shifted' with 'variable = non-ignorable'
[1183] Biber.pm:3921> INFO - Sorting list 'apa/global//global/global' of type 'entry' with template 'apa' and locale 'en-US'
[1183] Biber.pm:3927> INFO - No sort tailoring available for locale 'en-US'
[1325] bbl.pm:636> INFO - Writing 'da_mainDocument.bbl' with encoding 'UTF-8'
[1409] bbl.pm:739> INFO - Output to da_mainDocument.bbl
[1410] Biber.pm:110> INFO - WARNINGS: 3
