% $ biblatex auxiliary file $
% $ biblatex bbl format version 3.0 $
% Do not modify the above lines!
%
% This is an auxiliary file used by the 'biblatex' package.
% This file may safely be deleted. It will be recreated by
% biber as required.
%
\begingroup
\makeatletter
\@ifundefined{ver@biblatex.sty}
  {\@latex@error
     {Missing 'biblatex' package}
     {The bibliography requires the 'biblatex' package.}
      \aftergroup\endinput}
  {}
\endgroup


\refsection{0}
  \datalist[entry]{apa/global//global/global}
    \entry{pixeldensity}{online}{}
      \name{author}{1}{}{%
        {{uniquename=0,uniquepart=base,hash=56d3bdb930d0c116769b838eb3888dfe}{%
           family={{Alex Hernandez}},
           familyi={A\bibinitperiod}}}%
      }
      \strng{namehash}{56d3bdb930d0c116769b838eb3888dfe}
      \strng{fullhash}{56d3bdb930d0c116769b838eb3888dfe}
      \strng{bibnamehash}{56d3bdb930d0c116769b838eb3888dfe}
      \strng{authorbibnamehash}{56d3bdb930d0c116769b838eb3888dfe}
      \strng{authornamehash}{56d3bdb930d0c116769b838eb3888dfe}
      \strng{authorfullhash}{56d3bdb930d0c116769b838eb3888dfe}
      \field{sortinit}{A}
      \field{sortinithash}{d77c7cdd82ff690d4c3ef13216f92f0b}
      \field{extradatescope}{labelyear}
      \field{labeldatesource}{}
      \true{uniqueprimaryauthor}
      \field{labelnamesource}{author}
      \field{labeltitlesource}{title}
      \field{day}{12}
      \field{month}{6}
      \field{title}{Making Sense of Device Resolution \& Pixel Density}
      \field{urlday}{9}
      \field{urlmonth}{3}
      \field{urlyear}{2020}
      \field{year}{2018}
      \field{dateera}{ce}
      \field{urldateera}{ce}
      \verb{urlraw}
      \verb https://blog.prototypr.io/making-sense-of-device-resolution-pixel-density-40922aeb8a6
      \endverb
      \verb{url}
      \verb https://blog.prototypr.io/making-sense-of-device-resolution-pixel-density-40922aeb8a6
      \endverb
    \endentry
    \entry{asynctask_why}{online}{}
      \name{author}{1}{}{%
        {{uniquename=0,uniquepart=base,hash=e84e30b9390cdb64db6db2c9ab87846d}{%
           family={Android},
           familyi={A\bibinitperiod}}}%
      }
      \strng{namehash}{e84e30b9390cdb64db6db2c9ab87846d}
      \strng{fullhash}{e84e30b9390cdb64db6db2c9ab87846d}
      \strng{bibnamehash}{e84e30b9390cdb64db6db2c9ab87846d}
      \strng{authorbibnamehash}{e84e30b9390cdb64db6db2c9ab87846d}
      \strng{authornamehash}{e84e30b9390cdb64db6db2c9ab87846d}
      \strng{authorfullhash}{e84e30b9390cdb64db6db2c9ab87846d}
      \field{extraname}{1}
      \field{sortinit}{A}
      \field{sortinithash}{d77c7cdd82ff690d4c3ef13216f92f0b}
      \field{extradatescope}{labelyear}
      \field{labeldatesource}{}
      \field{labelnamesource}{author}
      \field{labeltitlesource}{title}
      \field{day}{20}
      \field{month}{1}
      \field{title}{AsyncTask (fabric 1.3.15 API)}
      \field{urlday}{18}
      \field{urlmonth}{2}
      \field{urlyear}{2020}
      \field{year}{2017}
      \field{dateera}{ce}
      \field{urldateera}{ce}
      \verb{urlraw}
      \verb https://docs.fabric.io/javadocs/fabric/1.3.15/io/fabric/sdk/android/services/concurrency/AsyncTask.html
      \endverb
      \verb{url}
      \verb https://docs.fabric.io/javadocs/fabric/1.3.15/io/fabric/sdk/android/services/concurrency/AsyncTask.html
      \endverb
    \endentry
    \entry{AppWidgetProvider}{online}{}
      \name{author}{1}{}{%
        {{uniquename=0,uniquepart=base,hash=e84e30b9390cdb64db6db2c9ab87846d}{%
           family={Android},
           familyi={A\bibinitperiod}}}%
      }
      \strng{namehash}{e84e30b9390cdb64db6db2c9ab87846d}
      \strng{fullhash}{e84e30b9390cdb64db6db2c9ab87846d}
      \strng{bibnamehash}{e84e30b9390cdb64db6db2c9ab87846d}
      \strng{authorbibnamehash}{e84e30b9390cdb64db6db2c9ab87846d}
      \strng{authornamehash}{e84e30b9390cdb64db6db2c9ab87846d}
      \strng{authorfullhash}{e84e30b9390cdb64db6db2c9ab87846d}
      \field{extraname}{2}
      \field{sortinit}{A}
      \field{sortinithash}{d77c7cdd82ff690d4c3ef13216f92f0b}
      \field{extradate}{1}
      \field{extradatescope}{labelyear}
      \field{labeldatesource}{}
      \field{labelnamesource}{author}
      \field{labeltitlesource}{title}
      \field{day}{27}
      \field{month}{12}
      \field{title}{AppWidgetProvider}
      \field{urlday}{10}
      \field{urlmonth}{3}
      \field{urlyear}{2020}
      \field{year}{2019}
      \field{dateera}{ce}
      \field{urldateera}{ce}
      \verb{urlraw}
      \verb https://developer.android.com/reference/android/appwidget/AppWidgetProvider
      \endverb
      \verb{url}
      \verb https://developer.android.com/reference/android/appwidget/AppWidgetProvider
      \endverb
    \endentry
    \entry{AppWidgetProvider_methods}{online}{}
      \name{author}{1}{}{%
        {{uniquename=0,uniquepart=base,hash=e84e30b9390cdb64db6db2c9ab87846d}{%
           family={Android},
           familyi={A\bibinitperiod}}}%
      }
      \strng{namehash}{e84e30b9390cdb64db6db2c9ab87846d}
      \strng{fullhash}{e84e30b9390cdb64db6db2c9ab87846d}
      \strng{bibnamehash}{e84e30b9390cdb64db6db2c9ab87846d}
      \strng{authorbibnamehash}{e84e30b9390cdb64db6db2c9ab87846d}
      \strng{authornamehash}{e84e30b9390cdb64db6db2c9ab87846d}
      \strng{authorfullhash}{e84e30b9390cdb64db6db2c9ab87846d}
      \field{extraname}{3}
      \field{sortinit}{A}
      \field{sortinithash}{d77c7cdd82ff690d4c3ef13216f92f0b}
      \field{extradate}{2}
      \field{extradatescope}{labelyear}
      \field{labeldatesource}{}
      \field{labelnamesource}{author}
      \field{labeltitlesource}{title}
      \field{day}{27}
      \field{month}{12}
      \field{title}{AppWidgetProvider methods}
      \field{year}{2019}
      \field{dateera}{ce}
      \verb{urlraw}
      \verb https://developer.android.com/guide/topics/appwidgets/#AppWidgetProvider
      \endverb
      \verb{url}
      \verb https://developer.android.com/guide/topics/appwidgets/#AppWidgetProvider
      \endverb
    \endentry
    \entry{roomdatabase}{online}{}
      \name{author}{1}{}{%
        {{uniquename=0,uniquepart=base,hash=e84e30b9390cdb64db6db2c9ab87846d}{%
           family={Android},
           familyi={A\bibinitperiod}}}%
      }
      \strng{namehash}{e84e30b9390cdb64db6db2c9ab87846d}
      \strng{fullhash}{e84e30b9390cdb64db6db2c9ab87846d}
      \strng{bibnamehash}{e84e30b9390cdb64db6db2c9ab87846d}
      \strng{authorbibnamehash}{e84e30b9390cdb64db6db2c9ab87846d}
      \strng{authornamehash}{e84e30b9390cdb64db6db2c9ab87846d}
      \strng{authorfullhash}{e84e30b9390cdb64db6db2c9ab87846d}
      \field{extraname}{4}
      \field{sortinit}{A}
      \field{sortinithash}{d77c7cdd82ff690d4c3ef13216f92f0b}
      \field{extradate}{3}
      \field{extradatescope}{labelyear}
      \field{labeldatesource}{}
      \field{labelnamesource}{author}
      \field{labeltitlesource}{title}
      \field{day}{27}
      \field{month}{12}
      \field{title}{Database}
      \field{urlday}{22}
      \field{urlmonth}{2}
      \field{urlyear}{2020}
      \field{year}{2019}
      \field{dateera}{ce}
      \field{urldateera}{ce}
      \verb{urlraw}
      \verb https://developer.android.com/reference/androidx/room/Database
      \endverb
      \verb{url}
      \verb https://developer.android.com/reference/androidx/room/Database
      \endverb
    \endentry
    \entry{dialogs}{online}{}
      \name{author}{1}{}{%
        {{uniquename=0,uniquepart=base,hash=e84e30b9390cdb64db6db2c9ab87846d}{%
           family={Android},
           familyi={A\bibinitperiod}}}%
      }
      \strng{namehash}{e84e30b9390cdb64db6db2c9ab87846d}
      \strng{fullhash}{e84e30b9390cdb64db6db2c9ab87846d}
      \strng{bibnamehash}{e84e30b9390cdb64db6db2c9ab87846d}
      \strng{authorbibnamehash}{e84e30b9390cdb64db6db2c9ab87846d}
      \strng{authornamehash}{e84e30b9390cdb64db6db2c9ab87846d}
      \strng{authorfullhash}{e84e30b9390cdb64db6db2c9ab87846d}
      \field{extraname}{5}
      \field{sortinit}{A}
      \field{sortinithash}{d77c7cdd82ff690d4c3ef13216f92f0b}
      \field{extradate}{4}
      \field{extradatescope}{labelyear}
      \field{labeldatesource}{}
      \field{labelnamesource}{author}
      \field{labeltitlesource}{title}
      \field{day}{27}
      \field{month}{12}
      \field{title}{Dialogs}
      \field{urlday}{26}
      \field{urlmonth}{2}
      \field{urlyear}{2020}
      \field{year}{2019}
      \field{dateera}{ce}
      \field{urldateera}{ce}
      \verb{urlraw}
      \verb https://developer.android.com/guide/topics/ui/dialogs
      \endverb
      \verb{url}
      \verb https://developer.android.com/guide/topics/ui/dialogs
      \endverb
      \warn{\item Overwriting field 'year' with year value from field 'date' for entry 'dialogs'}
    \endentry
    \entry{entityInfo}{online}{}
      \name{author}{1}{}{%
        {{uniquename=0,uniquepart=base,hash=e84e30b9390cdb64db6db2c9ab87846d}{%
           family={Android},
           familyi={A\bibinitperiod}}}%
      }
      \strng{namehash}{e84e30b9390cdb64db6db2c9ab87846d}
      \strng{fullhash}{e84e30b9390cdb64db6db2c9ab87846d}
      \strng{bibnamehash}{e84e30b9390cdb64db6db2c9ab87846d}
      \strng{authorbibnamehash}{e84e30b9390cdb64db6db2c9ab87846d}
      \strng{authornamehash}{e84e30b9390cdb64db6db2c9ab87846d}
      \strng{authorfullhash}{e84e30b9390cdb64db6db2c9ab87846d}
      \field{extraname}{6}
      \field{sortinit}{A}
      \field{sortinithash}{d77c7cdd82ff690d4c3ef13216f92f0b}
      \field{extradate}{5}
      \field{extradatescope}{labelyear}
      \field{labeldatesource}{}
      \field{labelnamesource}{author}
      \field{labeltitlesource}{title}
      \field{day}{27}
      \field{month}{12}
      \field{title}{Entity}
      \field{urlday}{6}
      \field{urlmonth}{3}
      \field{urlyear}{2020}
      \field{year}{2019}
      \field{dateera}{ce}
      \field{urldateera}{ce}
      \verb{urlraw}
      \verb https://developer.android.com/reference/androidx/room/Entity
      \endverb
      \verb{url}
      \verb https://developer.android.com/reference/androidx/room/Entity
      \endverb
    \endentry
    \entry{AlarmManager}{online}{}
      \name{author}{1}{}{%
        {{uniquename=0,uniquepart=base,hash=e84e30b9390cdb64db6db2c9ab87846d}{%
           family={Android},
           familyi={A\bibinitperiod}}}%
      }
      \strng{namehash}{e84e30b9390cdb64db6db2c9ab87846d}
      \strng{fullhash}{e84e30b9390cdb64db6db2c9ab87846d}
      \strng{bibnamehash}{e84e30b9390cdb64db6db2c9ab87846d}
      \strng{authorbibnamehash}{e84e30b9390cdb64db6db2c9ab87846d}
      \strng{authornamehash}{e84e30b9390cdb64db6db2c9ab87846d}
      \strng{authorfullhash}{e84e30b9390cdb64db6db2c9ab87846d}
      \field{extraname}{7}
      \field{sortinit}{A}
      \field{sortinithash}{d77c7cdd82ff690d4c3ef13216f92f0b}
      \field{extradate}{1}
      \field{extradatescope}{labelyear}
      \field{labeldatesource}{}
      \field{labelnamesource}{author}
      \field{labeltitlesource}{title}
      \field{title}{AlarmManager}
      \field{urlday}{20}
      \field{urlmonth}{2}
      \field{urlyear}{2020}
      \field{year}{2020}
      \field{dateera}{ce}
      \field{urldateera}{ce}
      \verb{urlraw}
      \verb https://developer.android.com/reference/android/app/AlarmManager
      \endverb
      \verb{url}
      \verb https://developer.android.com/reference/android/app/AlarmManager
      \endverb
    \endentry
    \entry{jetpackInfo}{online}{}
      \name{author}{1}{}{%
        {{uniquename=0,uniquepart=base,hash=e84e30b9390cdb64db6db2c9ab87846d}{%
           family={Android},
           familyi={A\bibinitperiod}}}%
      }
      \strng{namehash}{e84e30b9390cdb64db6db2c9ab87846d}
      \strng{fullhash}{e84e30b9390cdb64db6db2c9ab87846d}
      \strng{bibnamehash}{e84e30b9390cdb64db6db2c9ab87846d}
      \strng{authorbibnamehash}{e84e30b9390cdb64db6db2c9ab87846d}
      \strng{authornamehash}{e84e30b9390cdb64db6db2c9ab87846d}
      \strng{authorfullhash}{e84e30b9390cdb64db6db2c9ab87846d}
      \field{extraname}{8}
      \field{sortinit}{A}
      \field{sortinithash}{d77c7cdd82ff690d4c3ef13216f92f0b}
      \field{extradate}{2}
      \field{extradatescope}{labelyear}
      \field{labeldatesource}{}
      \field{labelnamesource}{author}
      \field{labeltitlesource}{title}
      \field{title}{Android Jetpack}
      \field{urlday}{7}
      \field{urlmonth}{1}
      \field{urlyear}{2020}
      \field{year}{2020}
      \field{dateera}{ce}
      \field{urldateera}{ce}
      \verb{urlraw}
      \verb https://developer.android.com/jetpack
      \endverb
      \verb{url}
      \verb https://developer.android.com/jetpack
      \endverb
    \endentry
    \entry{FileProvider}{online}{}
      \name{author}{1}{}{%
        {{uniquename=0,uniquepart=base,hash=e84e30b9390cdb64db6db2c9ab87846d}{%
           family={Android},
           familyi={A\bibinitperiod}}}%
      }
      \strng{namehash}{e84e30b9390cdb64db6db2c9ab87846d}
      \strng{fullhash}{e84e30b9390cdb64db6db2c9ab87846d}
      \strng{bibnamehash}{e84e30b9390cdb64db6db2c9ab87846d}
      \strng{authorbibnamehash}{e84e30b9390cdb64db6db2c9ab87846d}
      \strng{authornamehash}{e84e30b9390cdb64db6db2c9ab87846d}
      \strng{authorfullhash}{e84e30b9390cdb64db6db2c9ab87846d}
      \field{extraname}{9}
      \field{sortinit}{A}
      \field{sortinithash}{d77c7cdd82ff690d4c3ef13216f92f0b}
      \field{extradate}{3}
      \field{extradatescope}{labelyear}
      \field{labeldatesource}{}
      \field{labelnamesource}{author}
      \field{labeltitlesource}{title}
      \field{title}{FileProvider}
      \field{urlday}{27}
      \field{urlmonth}{2}
      \field{urlyear}{2020}
      \field{year}{2020}
      \field{dateera}{ce}
      \field{urldateera}{ce}
      \verb{urlraw}
      \verb https://developer.android.com/reference/androidx/core/content/FileProvider
      \endverb
      \verb{url}
      \verb https://developer.android.com/reference/androidx/core/content/FileProvider
      \endverb
    \endentry
    \entry{taskguide}{online}{}
      \name{author}{1}{}{%
        {{uniquename=0,uniquepart=base,hash=e84e30b9390cdb64db6db2c9ab87846d}{%
           family={Android},
           familyi={A\bibinitperiod}}}%
      }
      \strng{namehash}{e84e30b9390cdb64db6db2c9ab87846d}
      \strng{fullhash}{e84e30b9390cdb64db6db2c9ab87846d}
      \strng{bibnamehash}{e84e30b9390cdb64db6db2c9ab87846d}
      \strng{authorbibnamehash}{e84e30b9390cdb64db6db2c9ab87846d}
      \strng{authornamehash}{e84e30b9390cdb64db6db2c9ab87846d}
      \strng{authorfullhash}{e84e30b9390cdb64db6db2c9ab87846d}
      \field{extraname}{10}
      \field{sortinit}{A}
      \field{sortinithash}{d77c7cdd82ff690d4c3ef13216f92f0b}
      \field{extradate}{4}
      \field{extradatescope}{labelyear}
      \field{labeldatesource}{}
      \field{labelnamesource}{author}
      \field{labeltitlesource}{title}
      \field{day}{18}
      \field{month}{2}
      \field{title}{Guide to background processing}
      \field{urlday}{24}
      \field{urlmonth}{2}
      \field{urlyear}{2020}
      \field{year}{2020}
      \field{dateera}{ce}
      \field{urldateera}{ce}
      \verb{urlraw}
      \verb https://developer.android.com/guide/background
      \endverb
      \verb{url}
      \verb https://developer.android.com/guide/background
      \endverb
    \endentry
    \entry{RequirementsAppWidget}{online}{}
      \name{author}{1}{}{%
        {{uniquename=0,uniquepart=base,hash=e84e30b9390cdb64db6db2c9ab87846d}{%
           family={Android},
           familyi={A\bibinitperiod}}}%
      }
      \strng{namehash}{e84e30b9390cdb64db6db2c9ab87846d}
      \strng{fullhash}{e84e30b9390cdb64db6db2c9ab87846d}
      \strng{bibnamehash}{e84e30b9390cdb64db6db2c9ab87846d}
      \strng{authorbibnamehash}{e84e30b9390cdb64db6db2c9ab87846d}
      \strng{authornamehash}{e84e30b9390cdb64db6db2c9ab87846d}
      \strng{authorfullhash}{e84e30b9390cdb64db6db2c9ab87846d}
      \field{extraname}{11}
      \field{sortinit}{A}
      \field{sortinithash}{d77c7cdd82ff690d4c3ef13216f92f0b}
      \field{extradate}{5}
      \field{extradatescope}{labelyear}
      \field{labeldatesource}{}
      \field{labelnamesource}{author}
      \field{labeltitlesource}{title}
      \field{title}{Requirements App Widget}
      \field{urlday}{25}
      \field{urlmonth}{2}
      \field{urlyear}{2020}
      \field{year}{2020}
      \field{dateera}{ce}
      \field{urldateera}{ce}
      \verb{urlraw}
      \verb https://developer.android.com/guide/topics/appwidgets#Basics
      \endverb
      \verb{url}
      \verb https://developer.android.com/guide/topics/appwidgets#Basics
      \endverb
    \endentry
    \entry{androidRoomInfo}{online}{}
      \name{author}{1}{}{%
        {{uniquename=0,uniquepart=base,hash=e84e30b9390cdb64db6db2c9ab87846d}{%
           family={Android},
           familyi={A\bibinitperiod}}}%
      }
      \strng{namehash}{e84e30b9390cdb64db6db2c9ab87846d}
      \strng{fullhash}{e84e30b9390cdb64db6db2c9ab87846d}
      \strng{bibnamehash}{e84e30b9390cdb64db6db2c9ab87846d}
      \strng{authorbibnamehash}{e84e30b9390cdb64db6db2c9ab87846d}
      \strng{authornamehash}{e84e30b9390cdb64db6db2c9ab87846d}
      \strng{authorfullhash}{e84e30b9390cdb64db6db2c9ab87846d}
      \field{extraname}{12}
      \field{sortinit}{A}
      \field{sortinithash}{d77c7cdd82ff690d4c3ef13216f92f0b}
      \field{extradate}{6}
      \field{extradatescope}{labelyear}
      \field{labeldatesource}{}
      \field{labelnamesource}{author}
      \field{labeltitlesource}{title}
      \field{day}{19}
      \field{month}{2}
      \field{title}{Room Persistance Library}
      \field{urlday}{7}
      \field{urlmonth}{1}
      \field{urlyear}{2020}
      \field{year}{2020}
      \field{dateera}{ce}
      \field{urldateera}{ce}
      \verb{urlraw}
      \verb https://developer.android.com/topic/libraries/architecture/room
      \endverb
      \verb{url}
      \verb https://developer.android.com/topic/libraries/architecture/room
      \endverb
    \endentry
    \entry{roomarchitecture}{online}{}
      \name{author}{1}{}{%
        {{uniquename=0,uniquepart=base,hash=e84e30b9390cdb64db6db2c9ab87846d}{%
           family={Android},
           familyi={A\bibinitperiod}}}%
      }
      \strng{namehash}{e84e30b9390cdb64db6db2c9ab87846d}
      \strng{fullhash}{e84e30b9390cdb64db6db2c9ab87846d}
      \strng{bibnamehash}{e84e30b9390cdb64db6db2c9ab87846d}
      \strng{authorbibnamehash}{e84e30b9390cdb64db6db2c9ab87846d}
      \strng{authornamehash}{e84e30b9390cdb64db6db2c9ab87846d}
      \strng{authorfullhash}{e84e30b9390cdb64db6db2c9ab87846d}
      \field{extraname}{13}
      \field{sortinit}{A}
      \field{sortinithash}{d77c7cdd82ff690d4c3ef13216f92f0b}
      \field{extradate}{7}
      \field{extradatescope}{labelyear}
      \field{labeldatesource}{}
      \field{labelnamesource}{author}
      \field{labeltitlesource}{title}
      \field{day}{19}
      \field{month}{2}
      \field{title}{Save data in a local database using Room}
      \field{urlday}{22}
      \field{urlmonth}{2}
      \field{urlyear}{2020}
      \field{year}{2020}
      \field{dateera}{ce}
      \field{urldateera}{ce}
      \verb{urlraw}
      \verb https://developer.android.com/training/data-storage/room
      \endverb
      \verb{url}
      \verb https://developer.android.com/training/data-storage/room
      \endverb
    \endentry
    \entry{sqliteInfo}{online}{}
      \name{author}{1}{}{%
        {{uniquename=0,uniquepart=base,hash=0c7a65bf1c86a886da6b272c2e51f0bb}{%
           family={{Android Wiki}},
           familyi={A\bibinitperiod}}}%
      }
      \strng{namehash}{0c7a65bf1c86a886da6b272c2e51f0bb}
      \strng{fullhash}{0c7a65bf1c86a886da6b272c2e51f0bb}
      \strng{bibnamehash}{0c7a65bf1c86a886da6b272c2e51f0bb}
      \strng{authorbibnamehash}{0c7a65bf1c86a886da6b272c2e51f0bb}
      \strng{authornamehash}{0c7a65bf1c86a886da6b272c2e51f0bb}
      \strng{authorfullhash}{0c7a65bf1c86a886da6b272c2e51f0bb}
      \field{sortinit}{A}
      \field{sortinithash}{d77c7cdd82ff690d4c3ef13216f92f0b}
      \field{extradatescope}{labelyear}
      \field{labeldatesource}{}
      \true{uniqueprimaryauthor}
      \field{labelnamesource}{author}
      \field{labeltitlesource}{title}
      \field{day}{7}
      \field{month}{12}
      \field{title}{SQLite}
      \field{urlday}{7}
      \field{urlmonth}{1}
      \field{urlyear}{2020}
      \field{year}{2015}
      \field{dateera}{ce}
      \field{urldateera}{ce}
      \verb{urlraw}
      \verb https://www.droidwiki.org/wiki/SQLite
      \endverb
      \verb{url}
      \verb https://www.droidwiki.org/wiki/SQLite
      \endverb
    \endentry
    \entry{datetimepicker}{online}{}
      \name{author}{1}{}{%
        {{uniquename=0,uniquepart=base,hash=3a04ef0d8d3e770424fcde343a8fdc80}{%
           family={{Anupam Chugh}},
           familyi={A\bibinitperiod}}}%
      }
      \strng{namehash}{3a04ef0d8d3e770424fcde343a8fdc80}
      \strng{fullhash}{3a04ef0d8d3e770424fcde343a8fdc80}
      \strng{bibnamehash}{3a04ef0d8d3e770424fcde343a8fdc80}
      \strng{authorbibnamehash}{3a04ef0d8d3e770424fcde343a8fdc80}
      \strng{authornamehash}{3a04ef0d8d3e770424fcde343a8fdc80}
      \strng{authorfullhash}{3a04ef0d8d3e770424fcde343a8fdc80}
      \field{sortinit}{A}
      \field{sortinithash}{d77c7cdd82ff690d4c3ef13216f92f0b}
      \field{extradatescope}{labelyear}
      \field{labeldatesource}{}
      \true{uniqueprimaryauthor}
      \field{labelnamesource}{author}
      \field{labeltitlesource}{title}
      \field{title}{Android Date Time Picker Dialog}
      \field{urlday}{11}
      \field{urlmonth}{3}
      \field{urlyear}{2020}
      \field{year}{2020}
      \field{dateera}{ce}
      \field{urldateera}{ce}
      \verb{urlraw}
      \verb https://www.journaldev.com/9976/android-date-time-picker-dialog
      \endverb
      \verb{url}
      \verb https://www.journaldev.com/9976/android-date-time-picker-dialog
      \endverb
    \endentry
    \entry{bitbucketlogo}{online}{}
      \name{author}{1}{}{%
        {{uniquename=0,uniquepart=base,hash=a8fd8cd0b6d2cfda939a8ef257e60192}{%
           family={Atlassian},
           familyi={A\bibinitperiod}}}%
      }
      \strng{namehash}{a8fd8cd0b6d2cfda939a8ef257e60192}
      \strng{fullhash}{a8fd8cd0b6d2cfda939a8ef257e60192}
      \strng{bibnamehash}{a8fd8cd0b6d2cfda939a8ef257e60192}
      \strng{authorbibnamehash}{a8fd8cd0b6d2cfda939a8ef257e60192}
      \strng{authornamehash}{a8fd8cd0b6d2cfda939a8ef257e60192}
      \strng{authorfullhash}{a8fd8cd0b6d2cfda939a8ef257e60192}
      \field{extraname}{1}
      \field{sortinit}{A}
      \field{sortinithash}{d77c7cdd82ff690d4c3ef13216f92f0b}
      \field{extradate}{1}
      \field{extradatescope}{labelyear}
      \field{labeldatesource}{}
      \field{labelnamesource}{author}
      \field{labeltitlesource}{title}
      \field{title}{BitBucket Logo}
      \field{urlday}{8}
      \field{urlmonth}{1}
      \field{urlyear}{2020}
      \field{year}{2020}
      \field{dateera}{ce}
      \field{urldateera}{ce}
      \verb{urlraw}
      \verb https://www.atlassian.design/guidelines/marketing/resources/logo-files
      \endverb
      \verb{url}
      \verb https://www.atlassian.design/guidelines/marketing/resources/logo-files
      \endverb
    \endentry
    \entry{jiralogo}{online}{}
      \name{author}{1}{}{%
        {{uniquename=0,uniquepart=base,hash=a8fd8cd0b6d2cfda939a8ef257e60192}{%
           family={Atlassian},
           familyi={A\bibinitperiod}}}%
      }
      \strng{namehash}{a8fd8cd0b6d2cfda939a8ef257e60192}
      \strng{fullhash}{a8fd8cd0b6d2cfda939a8ef257e60192}
      \strng{bibnamehash}{a8fd8cd0b6d2cfda939a8ef257e60192}
      \strng{authorbibnamehash}{a8fd8cd0b6d2cfda939a8ef257e60192}
      \strng{authornamehash}{a8fd8cd0b6d2cfda939a8ef257e60192}
      \strng{authorfullhash}{a8fd8cd0b6d2cfda939a8ef257e60192}
      \field{extraname}{2}
      \field{sortinit}{A}
      \field{sortinithash}{d77c7cdd82ff690d4c3ef13216f92f0b}
      \field{extradate}{2}
      \field{extradatescope}{labelyear}
      \field{labeldatesource}{year}
      \field{labelnamesource}{author}
      \field{labeltitlesource}{title}
      \field{title}{Jira Software Logo}
      \field{urlday}{1}
      \field{urlmonth}{3}
      \field{urlyear}{2020}
      \field{year}{2020}
      \field{urldateera}{ce}
      \verb{urlraw}
      \verb https://wac-cdn.atlassian.com/dam/jcr:9e1841b9-2557-4eb2-ab47-d92428580b02/Jira%20Software@2x-blue.png
      \endverb
      \verb{url}
      \verb https://wac-cdn.atlassian.com/dam/jcr:9e1841b9-2557-4eb2-ab47-d92428580b02/Jira%20Software@2x-blue.png
      \endverb
    \endentry
    \entry{sourcetreeInfo}{online}{}
      \name{author}{1}{}{%
        {{uniquename=0,uniquepart=base,hash=a8fd8cd0b6d2cfda939a8ef257e60192}{%
           family={Atlassian},
           familyi={A\bibinitperiod}}}%
      }
      \strng{namehash}{a8fd8cd0b6d2cfda939a8ef257e60192}
      \strng{fullhash}{a8fd8cd0b6d2cfda939a8ef257e60192}
      \strng{bibnamehash}{a8fd8cd0b6d2cfda939a8ef257e60192}
      \strng{authorbibnamehash}{a8fd8cd0b6d2cfda939a8ef257e60192}
      \strng{authornamehash}{a8fd8cd0b6d2cfda939a8ef257e60192}
      \strng{authorfullhash}{a8fd8cd0b6d2cfda939a8ef257e60192}
      \field{extraname}{3}
      \field{sortinit}{A}
      \field{sortinithash}{d77c7cdd82ff690d4c3ef13216f92f0b}
      \field{extradate}{3}
      \field{extradatescope}{labelyear}
      \field{labeldatesource}{}
      \field{labelnamesource}{author}
      \field{labeltitlesource}{title}
      \field{title}{Sourcetree - A free Git \& Mercurial client}
      \field{urlday}{8}
      \field{urlmonth}{1}
      \field{urlyear}{2020}
      \field{year}{2020}
      \field{dateera}{ce}
      \field{urldateera}{ce}
      \verb{urlraw}
      \verb https://www.atlassian.com/software/sourcetree
      \endverb
      \verb{url}
      \verb https://www.atlassian.com/software/sourcetree
      \endverb
    \endentry
    \entry{sourcetreelogo}{online}{}
      \name{author}{1}{}{%
        {{uniquename=0,uniquepart=base,hash=a8fd8cd0b6d2cfda939a8ef257e60192}{%
           family={Atlassian},
           familyi={A\bibinitperiod}}}%
      }
      \strng{namehash}{a8fd8cd0b6d2cfda939a8ef257e60192}
      \strng{fullhash}{a8fd8cd0b6d2cfda939a8ef257e60192}
      \strng{bibnamehash}{a8fd8cd0b6d2cfda939a8ef257e60192}
      \strng{authorbibnamehash}{a8fd8cd0b6d2cfda939a8ef257e60192}
      \strng{authornamehash}{a8fd8cd0b6d2cfda939a8ef257e60192}
      \strng{authorfullhash}{a8fd8cd0b6d2cfda939a8ef257e60192}
      \field{extraname}{4}
      \field{sortinit}{A}
      \field{sortinithash}{d77c7cdd82ff690d4c3ef13216f92f0b}
      \field{extradate}{4}
      \field{extradatescope}{labelyear}
      \field{labeldatesource}{}
      \field{labelnamesource}{author}
      \field{labeltitlesource}{title}
      \field{title}{SourceTree Logo}
      \field{urlday}{8}
      \field{urlmonth}{1}
      \field{urlyear}{2020}
      \field{year}{2020}
      \field{dateera}{ce}
      \field{urldateera}{ce}
      \verb{urlraw}
      \verb https://www.atlassian.design/guidelines/marketing/resources/logo-files
      \endverb
      \verb{url}
      \verb https://www.atlassian.design/guidelines/marketing/resources/logo-files
      \endverb
    \endentry
    \entry{roomInfo}{online}{}
      \name{author}{1}{}{%
        {{uniquename=0,uniquepart=base,hash=92fa2cbc5acf9e1cf7441ed2c770568b}{%
           family={Augustine},
           familyi={A\bibinitperiod},
           given={Ajin},
           giveni={A\bibinitperiod},
           givenun=0}}%
      }
      \strng{namehash}{92fa2cbc5acf9e1cf7441ed2c770568b}
      \strng{fullhash}{92fa2cbc5acf9e1cf7441ed2c770568b}
      \strng{bibnamehash}{92fa2cbc5acf9e1cf7441ed2c770568b}
      \strng{authorbibnamehash}{92fa2cbc5acf9e1cf7441ed2c770568b}
      \strng{authornamehash}{92fa2cbc5acf9e1cf7441ed2c770568b}
      \strng{authorfullhash}{92fa2cbc5acf9e1cf7441ed2c770568b}
      \field{sortinit}{A}
      \field{sortinithash}{d77c7cdd82ff690d4c3ef13216f92f0b}
      \field{extradatescope}{labelyear}
      \field{labeldatesource}{}
      \true{uniqueprimaryauthor}
      \field{labelnamesource}{author}
      \field{labeltitlesource}{title}
      \field{day}{29}
      \field{month}{1}
      \field{title}{A Beginner's Guide to the Room Persistence Library}
      \field{urlday}{7}
      \field{urlmonth}{1}
      \field{urlyear}{2020}
      \field{year}{2018}
      \field{dateera}{ce}
      \field{urldateera}{ce}
      \verb{urlraw}
      \verb https://www.freecodecamp.org/news/room-sqlite-beginner-tutorial-2e725e47bfab/
      \endverb
      \verb{url}
      \verb https://www.freecodecamp.org/news/room-sqlite-beginner-tutorial-2e725e47bfab/
      \endverb
    \endentry
    \entry{mindviewlogo}{online}{}
      \name{author}{1}{}{%
        {{uniquename=0,uniquepart=base,hash=23ec68ca3e953dfeada4b84d115959d8}{%
           family={Biage},
           familyi={B\bibinitperiod}}}%
      }
      \strng{namehash}{23ec68ca3e953dfeada4b84d115959d8}
      \strng{fullhash}{23ec68ca3e953dfeada4b84d115959d8}
      \strng{bibnamehash}{23ec68ca3e953dfeada4b84d115959d8}
      \strng{authorbibnamehash}{23ec68ca3e953dfeada4b84d115959d8}
      \strng{authornamehash}{23ec68ca3e953dfeada4b84d115959d8}
      \strng{authorfullhash}{23ec68ca3e953dfeada4b84d115959d8}
      \field{sortinit}{B}
      \field{sortinithash}{276475738cc058478c1677046f857703}
      \field{extradatescope}{labelyear}
      \field{labeldatesource}{}
      \true{uniqueprimaryauthor}
      \field{labelnamesource}{author}
      \field{labeltitlesource}{title}
      \field{day}{16}
      \field{month}{10}
      \field{title}{Full MatchWare MindView Mind Mapping Software Review - All You Need To Know About MatchWare MindView}
      \field{year}{2018}
      \field{dateera}{ce}
      \verb{urlraw}
      \verb https://skyose.com/wp-content/uploads/2018/10/MatchWare-MindView-logo.png
      \endverb
      \verb{url}
      \verb https://skyose.com/wp-content/uploads/2018/10/MatchWare-MindView-logo.png
      \endverb
    \endentry
    \entry{excel}{online}{}
      \name{author}{1}{}{%
        {{uniquename=0,uniquepart=base,hash=ac9ec4516aca0a28f0a4e34608797808}{%
           family={DeskBright},
           familyi={D\bibinitperiod}}}%
      }
      \strng{namehash}{ac9ec4516aca0a28f0a4e34608797808}
      \strng{fullhash}{ac9ec4516aca0a28f0a4e34608797808}
      \strng{bibnamehash}{ac9ec4516aca0a28f0a4e34608797808}
      \strng{authorbibnamehash}{ac9ec4516aca0a28f0a4e34608797808}
      \strng{authornamehash}{ac9ec4516aca0a28f0a4e34608797808}
      \strng{authorfullhash}{ac9ec4516aca0a28f0a4e34608797808}
      \field{sortinit}{D}
      \field{sortinithash}{2ef1bd9a78cc71eb74d7231c635177b8}
      \field{extradatescope}{labelyear}
      \field{labeldatesource}{}
      \true{uniqueprimaryauthor}
      \field{labelnamesource}{author}
      \field{labeltitlesource}{title}
      \field{day}{22}
      \field{month}{2}
      \field{title}{What is Excel? A beginner's overview}
      \field{urlday}{9}
      \field{urlmonth}{3}
      \field{urlyear}{2020}
      \field{year}{2013}
      \field{dateera}{ce}
      \field{urldateera}{ce}
      \verb{urlraw}
      \verb https://www.deskbright.com/excel/what-is-excel/
      \endverb
      \verb{url}
      \verb https://www.deskbright.com/excel/what-is-excel/
      \endverb
    \endentry
    \entry{postmanlogo}{online}{}
      \name{author}{1}{}{%
        {{uniquename=0,uniquepart=base,hash=f890d41f1f0fc84cef7edcdd92dfda56}{%
           family={devdone},
           familyi={d\bibinitperiod}}}%
      }
      \strng{namehash}{f890d41f1f0fc84cef7edcdd92dfda56}
      \strng{fullhash}{f890d41f1f0fc84cef7edcdd92dfda56}
      \strng{bibnamehash}{f890d41f1f0fc84cef7edcdd92dfda56}
      \strng{authorbibnamehash}{f890d41f1f0fc84cef7edcdd92dfda56}
      \strng{authornamehash}{f890d41f1f0fc84cef7edcdd92dfda56}
      \strng{authorfullhash}{f890d41f1f0fc84cef7edcdd92dfda56}
      \field{sortinit}{d}
      \field{sortinithash}{2ef1bd9a78cc71eb74d7231c635177b8}
      \field{extradatescope}{labelyear}
      \field{labeldatesource}{}
      \true{uniqueprimaryauthor}
      \field{labelnamesource}{author}
      \field{labeltitlesource}{title}
      \field{day}{23}
      \field{month}{4}
      \field{title}{Testing Asynchronous APIs with Postman}
      \field{urlday}{9}
      \field{urlmonth}{3}
      \field{urlyear}{2020}
      \field{year}{2018}
      \field{dateera}{ce}
      \field{urldateera}{ce}
      \verb{urlraw}
      \verb https://miro.medium.com/max/1881/1*QOx_tPV5wJnhTzAGhfIiLA.png
      \endverb
      \verb{url}
      \verb https://miro.medium.com/max/1881/1*QOx_tPV5wJnhTzAGhfIiLA.png
      \endverb
    \endentry
    \entry{jira}{online}{}
      \name{author}{1}{}{%
        {{uniquename=0,uniquepart=base,hash=f0a3b4b88e71a343acc4cba86073a0a6}{%
           family={EDUCBA},
           familyi={E\bibinitperiod}}}%
      }
      \strng{namehash}{f0a3b4b88e71a343acc4cba86073a0a6}
      \strng{fullhash}{f0a3b4b88e71a343acc4cba86073a0a6}
      \strng{bibnamehash}{f0a3b4b88e71a343acc4cba86073a0a6}
      \strng{authorbibnamehash}{f0a3b4b88e71a343acc4cba86073a0a6}
      \strng{authornamehash}{f0a3b4b88e71a343acc4cba86073a0a6}
      \strng{authorfullhash}{f0a3b4b88e71a343acc4cba86073a0a6}
      \field{sortinit}{E}
      \field{sortinithash}{f615fb9c6fba11c6f962fb3fd599810e}
      \field{extradatescope}{labelyear}
      \field{labeldatesource}{year}
      \true{uniqueprimaryauthor}
      \field{labelnamesource}{author}
      \field{labeltitlesource}{title}
      \field{title}{What is Jira Software?}
      \field{urlday}{1}
      \field{urlmonth}{3}
      \field{urlyear}{2020}
      \field{year}{2020}
      \field{urldateera}{ce}
      \verb{urlraw}
      \verb https://www.educba.com/what-is-jira-software/
      \endverb
      \verb{url}
      \verb https://www.educba.com/what-is-jira-software/
      \endverb
    \endentry
    \entry{firebaselogo}{online}{}
      \name{author}{1}{}{%
        {{uniquename=0,uniquepart=base,hash=035489ff8d092741943e4a83241f5af9}{%
           family={Firebase},
           familyi={F\bibinitperiod}}}%
      }
      \strng{namehash}{035489ff8d092741943e4a83241f5af9}
      \strng{fullhash}{035489ff8d092741943e4a83241f5af9}
      \strng{bibnamehash}{035489ff8d092741943e4a83241f5af9}
      \strng{authorbibnamehash}{035489ff8d092741943e4a83241f5af9}
      \strng{authornamehash}{035489ff8d092741943e4a83241f5af9}
      \strng{authorfullhash}{035489ff8d092741943e4a83241f5af9}
      \field{extraname}{1}
      \field{sortinit}{F}
      \field{sortinithash}{669c706c6f1fbf3b5a83d26f1d9e9e72}
      \field{extradate}{1}
      \field{extradatescope}{labelyear}
      \field{labeldatesource}{}
      \field{labelnamesource}{author}
      \field{labeltitlesource}{title}
      \field{title}{Firebase}
      \field{urlday}{17}
      \field{urlmonth}{2}
      \field{urlyear}{2020}
      \field{year}{2020}
      \field{dateera}{ce}
      \field{urldateera}{ce}
      \verb{urlraw}
      \verb https://firebase.google.com/downloads/brand-guidelines/PNG/logo-standard.png
      \endverb
      \verb{url}
      \verb https://firebase.google.com/downloads/brand-guidelines/PNG/logo-standard.png
      \endverb
    \endentry
    \entry{httpMessaging}{online}{}
      \name{author}{1}{}{%
        {{uniquename=0,uniquepart=base,hash=035489ff8d092741943e4a83241f5af9}{%
           family={Firebase},
           familyi={F\bibinitperiod}}}%
      }
      \strng{namehash}{035489ff8d092741943e4a83241f5af9}
      \strng{fullhash}{035489ff8d092741943e4a83241f5af9}
      \strng{bibnamehash}{035489ff8d092741943e4a83241f5af9}
      \strng{authorbibnamehash}{035489ff8d092741943e4a83241f5af9}
      \strng{authornamehash}{035489ff8d092741943e4a83241f5af9}
      \strng{authorfullhash}{035489ff8d092741943e4a83241f5af9}
      \field{extraname}{2}
      \field{sortinit}{F}
      \field{sortinithash}{669c706c6f1fbf3b5a83d26f1d9e9e72}
      \field{extradate}{2}
      \field{extradatescope}{labelyear}
      \field{labeldatesource}{}
      \field{labelnamesource}{author}
      \field{labeltitlesource}{title}
      \field{day}{25}
      \field{month}{2}
      \field{title}{Firebase Cloud Messaging HTTP protocol}
      \field{urlday}{29}
      \field{urlmonth}{2}
      \field{urlyear}{2020}
      \field{year}{2020}
      \field{dateera}{ce}
      \field{urldateera}{ce}
      \verb{urlraw}
      \verb https://firebase.google.com/docs/cloud-messaging/http-server-ref?hl=de
      \endverb
      \verb{url}
      \verb https://firebase.google.com/docs/cloud-messaging/http-server-ref?hl=de
      \endverb
    \endentry
    \entry{gitLogo}{online}{}
      \name{author}{1}{}{%
        {{uniquename=0,uniquepart=base,hash=0bcc70105ad279503e31fe7b3f47b665}{%
           family={Git},
           familyi={G\bibinitperiod}}}%
      }
      \strng{namehash}{0bcc70105ad279503e31fe7b3f47b665}
      \strng{fullhash}{0bcc70105ad279503e31fe7b3f47b665}
      \strng{bibnamehash}{0bcc70105ad279503e31fe7b3f47b665}
      \strng{authorbibnamehash}{0bcc70105ad279503e31fe7b3f47b665}
      \strng{authornamehash}{0bcc70105ad279503e31fe7b3f47b665}
      \strng{authorfullhash}{0bcc70105ad279503e31fe7b3f47b665}
      \field{sortinit}{G}
      \field{sortinithash}{5e8d2bf9d38de41b1528bd307546008f}
      \field{extradatescope}{labelyear}
      \field{labeldatesource}{}
      \true{uniqueprimaryauthor}
      \field{labelnamesource}{author}
      \field{labeltitlesource}{title}
      \field{title}{Git Logo}
      \field{urlday}{5}
      \field{urlmonth}{3}
      \field{urlyear}{2020}
      \field{year}{2020}
      \field{dateera}{ce}
      \field{urldateera}{ce}
      \verb{urlraw}
      \verb https://git-scm.com/images/logo@2x.png
      \endverb
      \verb{url}
      \verb https://git-scm.com/images/logo@2x.png
      \endverb
    \endentry
    \entry{heyspacelogo}{online}{}
      \field{sortinit}{H}
      \field{sortinithash}{5f15a7bc777ad49ff15aa4d2831b1681}
      \field{extradatescope}{labelyear}
      \field{labeldatesource}{}
      \field{labeltitlesource}{title}
      \field{title}{HeySpace}
      \field{urlday}{14}
      \field{urlmonth}{3}
      \field{urlyear}{2020}
      \field{year}{2020}
      \field{dateera}{ce}
      \field{urldateera}{ce}
      \verb{urlraw}
      \verb https://reviews.financesonline.com/p/heyspace/
      \endverb
      \verb{url}
      \verb https://reviews.financesonline.com/p/heyspace/
      \endverb
    \endentry
    \entry{wfmpic}{online}{}
      \name{author}{1}{}{%
        {{uniquename=0,uniquepart=base,hash=a3a2a0be1037d45a7752faa9d84e105e}{%
           family={JavaTPoint},
           familyi={J\bibinitperiod}}}%
      }
      \strng{namehash}{a3a2a0be1037d45a7752faa9d84e105e}
      \strng{fullhash}{a3a2a0be1037d45a7752faa9d84e105e}
      \strng{bibnamehash}{a3a2a0be1037d45a7752faa9d84e105e}
      \strng{authorbibnamehash}{a3a2a0be1037d45a7752faa9d84e105e}
      \strng{authornamehash}{a3a2a0be1037d45a7752faa9d84e105e}
      \strng{authorfullhash}{a3a2a0be1037d45a7752faa9d84e105e}
      \field{sortinit}{J}
      \field{sortinithash}{fce5f8d0bd05e8d93f3dbe21c78897ca}
      \field{extradatescope}{labelyear}
      \field{labeldatesource}{year}
      \true{uniqueprimaryauthor}
      \field{labelnamesource}{author}
      \field{labeltitlesource}{title}
      \field{title}{JIRA Waterfall Model}
      \field{urlday}{27}
      \field{urlmonth}{2}
      \field{urlyear}{2020}
      \field{year}{2018}
      \field{urldateera}{ce}
      \verb{urlraw}
      \verb https://static.javatpoint.com/tutorial/jira/images/jira-waterfall-model.png
      \endverb
      \verb{url}
      \verb https://static.javatpoint.com/tutorial/jira/images/jira-waterfall-model.png
      \endverb
    \endentry
    \entry{colorpicker}{online}{}
      \name{author}{1}{}{%
        {{uniquename=0,uniquepart=base,hash=45bd9b77e04aadf0f814fa49c901ad9d}{%
           family={Kristiyan},
           familyi={K\bibinitperiod},
           given={Petrov},
           giveni={P\bibinitperiod},
           givenun=0}}%
      }
      \strng{namehash}{45bd9b77e04aadf0f814fa49c901ad9d}
      \strng{fullhash}{45bd9b77e04aadf0f814fa49c901ad9d}
      \strng{bibnamehash}{45bd9b77e04aadf0f814fa49c901ad9d}
      \strng{authorbibnamehash}{45bd9b77e04aadf0f814fa49c901ad9d}
      \strng{authornamehash}{45bd9b77e04aadf0f814fa49c901ad9d}
      \strng{authorfullhash}{45bd9b77e04aadf0f814fa49c901ad9d}
      \field{sortinit}{K}
      \field{sortinithash}{9fd838a31ba64d981e8f44562bd33f89}
      \field{extradatescope}{labelyear}
      \field{labeldatesource}{}
      \true{uniqueprimaryauthor}
      \field{labelnamesource}{author}
      \field{labeltitlesource}{title}
      \field{day}{1}
      \field{month}{11}
      \field{title}{ColorPicker}
      \field{urlday}{5}
      \field{urlmonth}{3}
      \field{urlyear}{2020}
      \field{year}{2018}
      \field{dateera}{ce}
      \field{urldateera}{ce}
      \verb{urlraw}
      \verb https://github.com/kristiyanP/colorpicker
      \endverb
      \verb{url}
      \verb https://github.com/kristiyanP/colorpicker
      \endverb
    \endentry
    \entry{rasci}{online}{}
      \name{author}{1}{}{%
        {{uniquename=0,uniquepart=base,hash=913b76f9310cbbdc0521a97547b8615f}{%
           family={ManagementMania},
           familyi={M\bibinitperiod}}}%
      }
      \strng{namehash}{913b76f9310cbbdc0521a97547b8615f}
      \strng{fullhash}{913b76f9310cbbdc0521a97547b8615f}
      \strng{bibnamehash}{913b76f9310cbbdc0521a97547b8615f}
      \strng{authorbibnamehash}{913b76f9310cbbdc0521a97547b8615f}
      \strng{authornamehash}{913b76f9310cbbdc0521a97547b8615f}
      \strng{authorfullhash}{913b76f9310cbbdc0521a97547b8615f}
      \field{sortinit}{M}
      \field{sortinithash}{cfd219b90152c06204fab207bc6c7cab}
      \field{extradatescope}{labelyear}
      \field{labeldatesource}{}
      \true{uniqueprimaryauthor}
      \field{labelnamesource}{author}
      \field{labeltitlesource}{title}
      \field{day}{1}
      \field{month}{5}
      \field{title}{RASCI Responsibility Matrix}
      \field{urlday}{27}
      \field{urlmonth}{2}
      \field{urlyear}{2020}
      \field{year}{2019}
      \field{dateera}{ce}
      \field{urldateera}{ce}
      \verb{urlraw}
      \verb https://managementmania.com/en/rasci-responsibility-matrix
      \endverb
      \verb{url}
      \verb https://managementmania.com/en/rasci-responsibility-matrix
      \endverb
    \endentry
    \entry{independentPixel}{online}{}
      \name{author}{1}{}{%
        {{uniquename=0,uniquepart=base,hash=a14606220b187f1c57657fc7a2841365}{%
           family={{Maret Idris}},
           familyi={M\bibinitperiod}}}%
      }
      \strng{namehash}{a14606220b187f1c57657fc7a2841365}
      \strng{fullhash}{a14606220b187f1c57657fc7a2841365}
      \strng{bibnamehash}{a14606220b187f1c57657fc7a2841365}
      \strng{authorbibnamehash}{a14606220b187f1c57657fc7a2841365}
      \strng{authornamehash}{a14606220b187f1c57657fc7a2841365}
      \strng{authorfullhash}{a14606220b187f1c57657fc7a2841365}
      \field{sortinit}{M}
      \field{sortinithash}{cfd219b90152c06204fab207bc6c7cab}
      \field{extradatescope}{labelyear}
      \field{labeldatesource}{}
      \true{uniqueprimaryauthor}
      \field{labelnamesource}{author}
      \field{labeltitlesource}{title}
      \field{day}{21}
      \field{month}{7}
      \field{title}{Designing for multiple screen densities on Android}
      \field{urlday}{9}
      \field{urlmonth}{3}
      \field{urlyear}{2020}
      \field{year}{2018}
      \field{dateera}{ce}
      \field{urldateera}{ce}
      \verb{urlraw}
      \verb https://blog.prototypr.io/designing-for-multiple-screen-densities-on-android-5fba8afe7ead
      \endverb
      \verb{url}
      \verb https://blog.prototypr.io/designing-for-multiple-screen-densities-on-android-5fba8afe7ead
      \endverb
    \endentry
    \entry{what_is_waterfallmodel}{online}{}
      \name{author}{1}{}{%
        {{uniquename=0,uniquepart=base,hash=0c9c0ff047a8732b9cfd2814387785d4}{%
           family={{Margaret Rouse}},
           familyi={M\bibinitperiod}}}%
      }
      \name{editor}{1}{}{%
        {{hash=840fc86a3f19a70ef35511cb8eb035e1}{%
           family={Lewis},
           familyi={L\bibinitperiod},
           given={Sarah},
           giveni={S\bibinitperiod}}}%
      }
      \strng{namehash}{0c9c0ff047a8732b9cfd2814387785d4}
      \strng{fullhash}{0c9c0ff047a8732b9cfd2814387785d4}
      \strng{bibnamehash}{0c9c0ff047a8732b9cfd2814387785d4}
      \strng{authorbibnamehash}{0c9c0ff047a8732b9cfd2814387785d4}
      \strng{authornamehash}{0c9c0ff047a8732b9cfd2814387785d4}
      \strng{authorfullhash}{0c9c0ff047a8732b9cfd2814387785d4}
      \strng{editorbibnamehash}{840fc86a3f19a70ef35511cb8eb035e1}
      \strng{editornamehash}{840fc86a3f19a70ef35511cb8eb035e1}
      \strng{editorfullhash}{840fc86a3f19a70ef35511cb8eb035e1}
      \field{sortinit}{M}
      \field{sortinithash}{cfd219b90152c06204fab207bc6c7cab}
      \field{extradatescope}{labelyear}
      \field{labeldatesource}{}
      \true{uniqueprimaryauthor}
      \field{labelnamesource}{author}
      \field{labeltitlesource}{title}
      \field{day}{7}
      \field{month}{2}
      \field{title}{Waterfall Model Definition}
      \field{urlday}{27}
      \field{urlmonth}{2}
      \field{urlyear}{2020}
      \field{year}{2019}
      \field{dateera}{ce}
      \field{urldateera}{ce}
      \verb{urlraw}
      \verb https://searchsoftwarequality.techtarget.com/definition/waterfall-model
      \endverb
      \verb{url}
      \verb https://searchsoftwarequality.techtarget.com/definition/waterfall-model
      \endverb
    \endentry
    \entry{mindview}{online}{}
      \name{author}{1}{}{%
        {{uniquename=0,uniquepart=base,hash=c54ceda81ec22857bde57ab4ad7fa3f7}{%
           family={Matchware},
           familyi={M\bibinitperiod}}}%
      }
      \strng{namehash}{c54ceda81ec22857bde57ab4ad7fa3f7}
      \strng{fullhash}{c54ceda81ec22857bde57ab4ad7fa3f7}
      \strng{bibnamehash}{c54ceda81ec22857bde57ab4ad7fa3f7}
      \strng{authorbibnamehash}{c54ceda81ec22857bde57ab4ad7fa3f7}
      \strng{authornamehash}{c54ceda81ec22857bde57ab4ad7fa3f7}
      \strng{authorfullhash}{c54ceda81ec22857bde57ab4ad7fa3f7}
      \field{sortinit}{M}
      \field{sortinithash}{cfd219b90152c06204fab207bc6c7cab}
      \field{extradatescope}{labelyear}
      \field{labeldatesource}{year}
      \true{uniqueprimaryauthor}
      \field{labelnamesource}{author}
      \field{labeltitlesource}{title}
      \field{title}{Mind Mapping Software}
      \field{urlday}{27}
      \field{urlmonth}{2}
      \field{urlyear}{2020}
      \field{year}{2020}
      \field{urldateera}{ce}
      \verb{urlraw}
      \verb https://www.matchware.com/mind-mapping-software
      \endverb
      \verb{url}
      \verb https://www.matchware.com/mind-mapping-software
      \endverb
    \endentry
    \entry{materialdesignlogo}{online}{}
      \field{sortinit}{M}
      \field{sortinithash}{cfd219b90152c06204fab207bc6c7cab}
      \field{extradatescope}{labelyear}
      \field{labeldatesource}{}
      \field{labeltitlesource}{title}
      \field{title}{Material Design}
      \field{urlday}{10}
      \field{urlmonth}{3}
      \field{urlyear}{2020}
      \field{year}{2020}
      \field{dateera}{ce}
      \field{urldateera}{ce}
      \verb{urlraw}
      \verb https://material.io/resources/icons/?style=baseline
      \endverb
      \verb{url}
      \verb https://material.io/resources/icons/?style=baseline
      \endverb
    \endentry
    \entry{outlooklogo}{online}{}
      \name{author}{1}{}{%
        {{uniquename=0,uniquepart=base,hash=397ce328fedcac300b44f7a862e04082}{%
           family={{Microsoft Corperation}},
           familyi={M\bibinitperiod}}}%
      }
      \strng{namehash}{397ce328fedcac300b44f7a862e04082}
      \strng{fullhash}{397ce328fedcac300b44f7a862e04082}
      \strng{bibnamehash}{397ce328fedcac300b44f7a862e04082}
      \strng{authorbibnamehash}{397ce328fedcac300b44f7a862e04082}
      \strng{authornamehash}{397ce328fedcac300b44f7a862e04082}
      \strng{authorfullhash}{397ce328fedcac300b44f7a862e04082}
      \field{sortinit}{M}
      \field{sortinithash}{cfd219b90152c06204fab207bc6c7cab}
      \field{extradatescope}{labelyear}
      \field{labeldatesource}{}
      \true{uniqueprimaryauthor}
      \field{labelnamesource}{author}
      \field{labeltitlesource}{title}
      \field{day}{25}
      \field{month}{9}
      \field{title}{Logo for Microsoft Outlook since 2018}
      \field{urlday}{21}
      \field{urlmonth}{2}
      \field{urlyear}{2020}
      \field{year}{2019}
      \field{dateera}{ce}
      \field{urldateera}{ce}
      \verb{urlraw}
      \verb https://upload.wikimedia.org/wikipedia/commons/thumb/d/df/Microsoft_Office_Outlook_%282018%E2%80%93present%29.svg/768px-Microsoft_Office_Outlook_%282018%E2%80%93present%29.svg.png
      \endverb
      \verb{url}
      \verb https://upload.wikimedia.org/wikipedia/commons/thumb/d/df/Microsoft_Office_Outlook_%282018%E2%80%93present%29.svg/768px-Microsoft_Office_Outlook_%282018%E2%80%93present%29.svg.png
      \endverb
    \endentry
    \entry{deleteInfo}{online}{}
      \name{author}{1}{}{%
        {{uniquename=0,uniquepart=base,hash=502f1bd97b0e7d80b88e1f45ae1bfdb8}{%
           family={Mozilla},
           familyi={M\bibinitperiod}}}%
      }
      \strng{namehash}{502f1bd97b0e7d80b88e1f45ae1bfdb8}
      \strng{fullhash}{502f1bd97b0e7d80b88e1f45ae1bfdb8}
      \strng{bibnamehash}{502f1bd97b0e7d80b88e1f45ae1bfdb8}
      \strng{authorbibnamehash}{502f1bd97b0e7d80b88e1f45ae1bfdb8}
      \strng{authornamehash}{502f1bd97b0e7d80b88e1f45ae1bfdb8}
      \strng{authorfullhash}{502f1bd97b0e7d80b88e1f45ae1bfdb8}
      \field{extraname}{1}
      \field{sortinit}{M}
      \field{sortinithash}{cfd219b90152c06204fab207bc6c7cab}
      \field{extradate}{1}
      \field{extradatescope}{labelyear}
      \field{labeldatesource}{}
      \field{labelnamesource}{author}
      \field{labeltitlesource}{title}
      \field{day}{18}
      \field{month}{3}
      \field{title}{DELETE}
      \field{urlday}{6}
      \field{urlmonth}{3}
      \field{urlyear}{2020}
      \field{year}{2019}
      \field{dateera}{ce}
      \field{urldateera}{ce}
      \verb{urlraw}
      \verb https://developer.mozilla.org/en-US/docs/Web/HTTP/Methods/DELETE
      \endverb
      \verb{url}
      \verb https://developer.mozilla.org/en-US/docs/Web/HTTP/Methods/DELETE
      \endverb
    \endentry
    \entry{httppost}{online}{}
      \name{author}{1}{}{%
        {{uniquename=0,uniquepart=base,hash=502f1bd97b0e7d80b88e1f45ae1bfdb8}{%
           family={Mozilla},
           familyi={M\bibinitperiod}}}%
      }
      \strng{namehash}{502f1bd97b0e7d80b88e1f45ae1bfdb8}
      \strng{fullhash}{502f1bd97b0e7d80b88e1f45ae1bfdb8}
      \strng{bibnamehash}{502f1bd97b0e7d80b88e1f45ae1bfdb8}
      \strng{authorbibnamehash}{502f1bd97b0e7d80b88e1f45ae1bfdb8}
      \strng{authornamehash}{502f1bd97b0e7d80b88e1f45ae1bfdb8}
      \strng{authorfullhash}{502f1bd97b0e7d80b88e1f45ae1bfdb8}
      \field{extraname}{2}
      \field{sortinit}{M}
      \field{sortinithash}{cfd219b90152c06204fab207bc6c7cab}
      \field{extradate}{2}
      \field{extradatescope}{labelyear}
      \field{labeldatesource}{}
      \field{labelnamesource}{author}
      \field{labeltitlesource}{title}
      \field{day}{10}
      \field{month}{7}
      \field{title}{POST}
      \field{urlday}{19}
      \field{urlmonth}{2}
      \field{urlyear}{2020}
      \field{year}{2019}
      \field{dateera}{ce}
      \field{urldateera}{ce}
      \verb{urlraw}
      \verb https://developer.mozilla.org/en-US/docs/Web/HTTP/Methods/POST
      \endverb
      \verb{url}
      \verb https://developer.mozilla.org/en-US/docs/Web/HTTP/Methods/POST
      \endverb
    \endentry
    \entry{Java_Logo}{online}{}
      \name{author}{1}{}{%
        {{uniquename=0,uniquepart=base,hash=30162ed78b6c10f731411f2fc440c24f}{%
           family={Oracle},
           familyi={O\bibinitperiod}}}%
      }
      \strng{namehash}{30162ed78b6c10f731411f2fc440c24f}
      \strng{fullhash}{30162ed78b6c10f731411f2fc440c24f}
      \strng{bibnamehash}{30162ed78b6c10f731411f2fc440c24f}
      \strng{authorbibnamehash}{30162ed78b6c10f731411f2fc440c24f}
      \strng{authornamehash}{30162ed78b6c10f731411f2fc440c24f}
      \strng{authorfullhash}{30162ed78b6c10f731411f2fc440c24f}
      \field{sortinit}{O}
      \field{sortinithash}{dad3efd0836470093a7b4a7bb756eb8c}
      \field{extradatescope}{labelyear}
      \field{labeldatesource}{}
      \true{uniqueprimaryauthor}
      \field{labelnamesource}{author}
      \field{labeltitlesource}{title}
      \field{title}{Java Logo}
      \field{urlday}{27}
      \field{urlmonth}{2}
      \field{urlyear}{2020}
      \field{year}{2020}
      \field{dateera}{ce}
      \field{urldateera}{ce}
      \verb{urlraw}
      \verb https://java.com/ga/images/auto/1371159372900?image=true
      \endverb
      \verb{url}
      \verb https://java.com/ga/images/auto/1371159372900?image=true
      \endverb
    \endentry
    \entry{chartlogo}{online}{}
      \name{author}{1}{}{%
        {{uniquename=0,uniquepart=base,hash=4b140c35ca4a345de778485a93e27422}{%
           family={{Philipp Jahoda}},
           familyi={P\bibinitperiod}}}%
      }
      \strng{namehash}{4b140c35ca4a345de778485a93e27422}
      \strng{fullhash}{4b140c35ca4a345de778485a93e27422}
      \strng{bibnamehash}{4b140c35ca4a345de778485a93e27422}
      \strng{authorbibnamehash}{4b140c35ca4a345de778485a93e27422}
      \strng{authornamehash}{4b140c35ca4a345de778485a93e27422}
      \strng{authorfullhash}{4b140c35ca4a345de778485a93e27422}
      \field{sortinit}{P}
      \field{sortinithash}{8d51b3d5b78d75b54308d706b9bbe285}
      \field{extradatescope}{labelyear}
      \field{labeldatesource}{}
      \true{uniqueprimaryauthor}
      \field{labelnamesource}{author}
      \field{labeltitlesource}{title}
      \field{title}{MPAndroidChart}
      \field{urlday}{17}
      \field{urlmonth}{2}
      \field{urlyear}{2020}
      \field{year}{2020}
      \field{dateera}{ce}
      \field{urldateera}{ce}
      \verb{urlraw}
      \verb https://github.com/PhilJay/MPAndroidChart
      \endverb
      \verb{url}
      \verb https://github.com/PhilJay/MPAndroidChart
      \endverb
    \endentry
    \entry{densityBuckets}{online}{}
      \name{author}{1}{}{%
        {{uniquename=0,uniquepart=base,hash=7855cca1372aed929a9ae2afb1011134}{%
           family={Pineapple},
           familyi={P\bibinitperiod}}}%
      }
      \strng{namehash}{7855cca1372aed929a9ae2afb1011134}
      \strng{fullhash}{7855cca1372aed929a9ae2afb1011134}
      \strng{bibnamehash}{7855cca1372aed929a9ae2afb1011134}
      \strng{authorbibnamehash}{7855cca1372aed929a9ae2afb1011134}
      \strng{authornamehash}{7855cca1372aed929a9ae2afb1011134}
      \strng{authorfullhash}{7855cca1372aed929a9ae2afb1011134}
      \field{sortinit}{P}
      \field{sortinithash}{8d51b3d5b78d75b54308d706b9bbe285}
      \field{extradatescope}{labelyear}
      \field{labeldatesource}{}
      \true{uniqueprimaryauthor}
      \field{labelnamesource}{author}
      \field{labeltitlesource}{title}
      \field{day}{15}
      \field{month}{10}
      \field{title}{A quick guide on Android density buckets!}
      \field{urlday}{9}
      \field{urlmonth}{3}
      \field{urlyear}{2020}
      \field{year}{2019}
      \field{dateera}{ce}
      \field{urldateera}{ce}
      \verb{urlraw}
      \verb https://medium.com/@pineapplestudio.in/a-quick-guide-on-android-density-buckets-f3b0cdb0f1fb
      \endverb
      \verb{url}
      \verb https://medium.com/@pineapplestudio.in/a-quick-guide-on-android-density-buckets-f3b0cdb0f1fb
      \endverb
    \endentry
    \entry{postman}{online}{}
      \name{author}{1}{}{%
        {{uniquename=0,uniquepart=base,hash=6f061e1cad5e2783cea0b2976ed2f4c3}{%
           family={Postman},
           familyi={P\bibinitperiod}}}%
      }
      \strng{namehash}{6f061e1cad5e2783cea0b2976ed2f4c3}
      \strng{fullhash}{6f061e1cad5e2783cea0b2976ed2f4c3}
      \strng{bibnamehash}{6f061e1cad5e2783cea0b2976ed2f4c3}
      \strng{authorbibnamehash}{6f061e1cad5e2783cea0b2976ed2f4c3}
      \strng{authornamehash}{6f061e1cad5e2783cea0b2976ed2f4c3}
      \strng{authorfullhash}{6f061e1cad5e2783cea0b2976ed2f4c3}
      \field{sortinit}{P}
      \field{sortinithash}{8d51b3d5b78d75b54308d706b9bbe285}
      \field{extradatescope}{labelyear}
      \field{labeldatesource}{}
      \true{uniqueprimaryauthor}
      \field{labelnamesource}{author}
      \field{labeltitlesource}{title}
      \field{title}{Postman API Client}
      \field{urlday}{9}
      \field{urlmonth}{3}
      \field{urlyear}{2020}
      \field{year}{2020}
      \field{dateera}{ce}
      \field{urldateera}{ce}
      \verb{urlraw}
      \verb https://www.postman.com/product/api-client
      \endverb
      \verb{url}
      \verb https://www.postman.com/product/api-client
      \endverb
    \endentry
    \entry{basicauthcode}{online}{}
      \name{author}{1}{}{%
        {{uniquename=0,uniquepart=base,hash=37b5608b3e2044c8d75f19ac0834820c}{%
           family={Rajasekhar},
           familyi={R\bibinitperiod}}}%
      }
      \name{editor}{1}{}{%
        {{hash=f0427e8b2b84c9961a1b7e07863e876c}{%
           family={Linh},
           familyi={L\bibinitperiod},
           given={Phan\bibnamedelima Van},
           giveni={P\bibinitperiod\bibinitdelim V\bibinitperiod}}}%
      }
      \strng{namehash}{37b5608b3e2044c8d75f19ac0834820c}
      \strng{fullhash}{37b5608b3e2044c8d75f19ac0834820c}
      \strng{bibnamehash}{37b5608b3e2044c8d75f19ac0834820c}
      \strng{authorbibnamehash}{37b5608b3e2044c8d75f19ac0834820c}
      \strng{authornamehash}{37b5608b3e2044c8d75f19ac0834820c}
      \strng{authorfullhash}{37b5608b3e2044c8d75f19ac0834820c}
      \strng{editorbibnamehash}{f0427e8b2b84c9961a1b7e07863e876c}
      \strng{editornamehash}{f0427e8b2b84c9961a1b7e07863e876c}
      \strng{editorfullhash}{f0427e8b2b84c9961a1b7e07863e876c}
      \field{sortinit}{R}
      \field{sortinithash}{da6b42bd3ab22fee61abed031ee405f7}
      \field{extradatescope}{labelyear}
      \field{labeldatesource}{}
      \true{uniqueprimaryauthor}
      \field{labelnamesource}{author}
      \field{labeltitlesource}{title}
      \field{day}{12}
      \field{month}{4}
      \field{title}{Retrofit and OkHttp basic authentication}
      \field{urlday}{15}
      \field{urlmonth}{7}
      \field{urlyear}{2019}
      \field{year}{2017}
      \field{dateera}{ce}
      \field{urldateera}{ce}
      \verb{urlraw}
      \verb https://stackoverflow.com/questions/43366164/retrofit-and-okhttp-basic-authentication
      \endverb
      \verb{url}
      \verb https://stackoverflow.com/questions/43366164/retrofit-and-okhttp-basic-authentication
      \endverb
    \endentry
    \entry{moqupslogo}{online}{}
      \name{author}{1}{}{%
        {{uniquename=0,uniquepart=base,hash=56aee75973935d8c39ae5735335cbd21}{%
           family={{S. C. Evercoder Software S.R.L.}},
           familyi={S\bibinitperiod}}}%
      }
      \strng{namehash}{56aee75973935d8c39ae5735335cbd21}
      \strng{fullhash}{56aee75973935d8c39ae5735335cbd21}
      \strng{bibnamehash}{56aee75973935d8c39ae5735335cbd21}
      \strng{authorbibnamehash}{56aee75973935d8c39ae5735335cbd21}
      \strng{authornamehash}{56aee75973935d8c39ae5735335cbd21}
      \strng{authorfullhash}{56aee75973935d8c39ae5735335cbd21}
      \field{sortinit}{S}
      \field{sortinithash}{322b1d5276f2f6c1bccdcd15920dbee6}
      \field{extradatescope}{labelyear}
      \field{labeldatesource}{}
      \true{uniqueprimaryauthor}
      \field{labelnamesource}{author}
      \field{labeltitlesource}{title}
      \field{title}{Moqups}
      \field{urlday}{10}
      \field{urlmonth}{3}
      \field{urlyear}{2020}
      \field{year}{2020}
      \field{dateera}{ce}
      \field{urldateera}{ce}
      \verb{urlraw}
      \verb https://moqups.com/
      \endverb
      \verb{url}
      \verb https://moqups.com/
      \endverb
    \endentry
    \entry{sqlitevsroom}{online}{}
      \name{author}{1}{}{%
        {{uniquename=0,uniquepart=base,hash=2c1f702107bb7901786fe2a2c5abe2e5}{%
           family={Sankalp},
           familyi={S\bibinitperiod}}}%
      }
      \strng{namehash}{2c1f702107bb7901786fe2a2c5abe2e5}
      \strng{fullhash}{2c1f702107bb7901786fe2a2c5abe2e5}
      \strng{bibnamehash}{2c1f702107bb7901786fe2a2c5abe2e5}
      \strng{authorbibnamehash}{2c1f702107bb7901786fe2a2c5abe2e5}
      \strng{authornamehash}{2c1f702107bb7901786fe2a2c5abe2e5}
      \strng{authorfullhash}{2c1f702107bb7901786fe2a2c5abe2e5}
      \field{sortinit}{S}
      \field{sortinithash}{322b1d5276f2f6c1bccdcd15920dbee6}
      \field{extradatescope}{labelyear}
      \field{labeldatesource}{}
      \true{uniqueprimaryauthor}
      \field{labelnamesource}{author}
      \field{labeltitlesource}{title}
      \field{day}{12}
      \field{month}{11}
      \field{title}{SQLite Database VS Room persistence library}
      \field{urlday}{22}
      \field{urlmonth}{2}
      \field{urlyear}{2020}
      \field{year}{2018}
      \field{dateera}{ce}
      \field{urldateera}{ce}
      \verb{urlraw}
      \verb https://stackoverflow.com/questions/50650077/sqlite-database-vs-room-persistence-library
      \endverb
      \verb{url}
      \verb https://stackoverflow.com/questions/50650077/sqlite-database-vs-room-persistence-library
      \endverb
    \endentry
    \entry{sequenceInfo}{online}{}
      \name{author}{1}{}{%
        {{uniquename=0,uniquepart=base,hash=9803a18ca0cdb9d95b04395e1d0ba725}{%
           family={SequenceDiagram.org},
           familyi={S\bibinitperiod}}}%
      }
      \strng{namehash}{9803a18ca0cdb9d95b04395e1d0ba725}
      \strng{fullhash}{9803a18ca0cdb9d95b04395e1d0ba725}
      \strng{bibnamehash}{9803a18ca0cdb9d95b04395e1d0ba725}
      \strng{authorbibnamehash}{9803a18ca0cdb9d95b04395e1d0ba725}
      \strng{authornamehash}{9803a18ca0cdb9d95b04395e1d0ba725}
      \strng{authorfullhash}{9803a18ca0cdb9d95b04395e1d0ba725}
      \field{sortinit}{S}
      \field{sortinithash}{322b1d5276f2f6c1bccdcd15920dbee6}
      \field{extradatescope}{labelyear}
      \field{labeldatesource}{}
      \true{uniqueprimaryauthor}
      \field{labelnamesource}{author}
      \field{labeltitlesource}{title}
      \field{title}{SequenceDiagram.org}
      \field{urlday}{10}
      \field{urlmonth}{3}
      \field{urlyear}{2020}
      \field{year}{2020}
      \field{dateera}{ce}
      \field{urldateera}{ce}
      \verb{urlraw}
      \verb https://sequencediagram.org
      \endverb
      \verb{url}
      \verb https://sequencediagram.org
      \endverb
    \endentry
    \entry{sqlitelogo}{online}{}
      \name{author}{1}{}{%
        {{uniquename=0,uniquepart=base,hash=497757a9c5b2ec17ded656170b51c788}{%
           family={SQLite},
           familyi={S\bibinitperiod}}}%
      }
      \strng{namehash}{497757a9c5b2ec17ded656170b51c788}
      \strng{fullhash}{497757a9c5b2ec17ded656170b51c788}
      \strng{bibnamehash}{497757a9c5b2ec17ded656170b51c788}
      \strng{authorbibnamehash}{497757a9c5b2ec17ded656170b51c788}
      \strng{authornamehash}{497757a9c5b2ec17ded656170b51c788}
      \strng{authorfullhash}{497757a9c5b2ec17ded656170b51c788}
      \field{sortinit}{S}
      \field{sortinithash}{322b1d5276f2f6c1bccdcd15920dbee6}
      \field{extradatescope}{labelyear}
      \field{labeldatesource}{}
      \true{uniqueprimaryauthor}
      \field{labelnamesource}{author}
      \field{labeltitlesource}{title}
      \field{title}{SQLite Logo}
      \field{urlday}{7}
      \field{urlmonth}{1}
      \field{urlyear}{2020}
      \field{year}{2020}
      \field{dateera}{ce}
      \field{urldateera}{ce}
      \verb{urlraw}
      \verb https://www.sqlite.org/images/sqlite370_banner.gif
      \endverb
      \verb{url}
      \verb https://www.sqlite.org/images/sqlite370_banner.gif
      \endverb
    \endentry
    \entry{retrofit2_call}{online}{}
      \name{author}{1}{}{%
        {{uniquename=0,uniquepart=base,hash=ceb46ca115d05c51aa5a16a8867c3304}{%
           family={Square},
           familyi={S\bibinitperiod}}}%
      }
      \strng{namehash}{ceb46ca115d05c51aa5a16a8867c3304}
      \strng{fullhash}{ceb46ca115d05c51aa5a16a8867c3304}
      \strng{bibnamehash}{ceb46ca115d05c51aa5a16a8867c3304}
      \strng{authorbibnamehash}{ceb46ca115d05c51aa5a16a8867c3304}
      \strng{authornamehash}{ceb46ca115d05c51aa5a16a8867c3304}
      \strng{authorfullhash}{ceb46ca115d05c51aa5a16a8867c3304}
      \field{extraname}{1}
      \field{sortinit}{S}
      \field{sortinithash}{322b1d5276f2f6c1bccdcd15920dbee6}
      \field{extradate}{1}
      \field{extradatescope}{labelyear}
      \field{labeldatesource}{}
      \field{labelnamesource}{author}
      \field{labeltitlesource}{title}
      \field{day}{2}
      \field{month}{1}
      \field{title}{Call (Retrofit 2.7.1 API)}
      \field{urlday}{18}
      \field{urlmonth}{2}
      \field{urlyear}{2020}
      \field{year}{2020}
      \field{dateera}{ce}
      \field{urldateera}{ce}
      \verb{urlraw}
      \verb https://square.github.io/retrofit/2.x/retrofit/retrofit2/Call.html
      \endverb
      \verb{url}
      \verb https://square.github.io/retrofit/2.x/retrofit/retrofit2/Call.html
      \endverb
    \endentry
    \entry{retrofit_doc}{online}{}
      \name{author}{1}{}{%
        {{uniquename=0,uniquepart=base,hash=ceb46ca115d05c51aa5a16a8867c3304}{%
           family={Square},
           familyi={S\bibinitperiod}}}%
      }
      \strng{namehash}{ceb46ca115d05c51aa5a16a8867c3304}
      \strng{fullhash}{ceb46ca115d05c51aa5a16a8867c3304}
      \strng{bibnamehash}{ceb46ca115d05c51aa5a16a8867c3304}
      \strng{authorbibnamehash}{ceb46ca115d05c51aa5a16a8867c3304}
      \strng{authornamehash}{ceb46ca115d05c51aa5a16a8867c3304}
      \strng{authorfullhash}{ceb46ca115d05c51aa5a16a8867c3304}
      \field{extraname}{2}
      \field{sortinit}{S}
      \field{sortinithash}{322b1d5276f2f6c1bccdcd15920dbee6}
      \field{extradate}{2}
      \field{extradatescope}{labelyear}
      \field{labeldatesource}{}
      \field{labelnamesource}{author}
      \field{labeltitlesource}{title}
      \field{title}{Retrofit}
      \field{urlday}{18}
      \field{urlmonth}{2}
      \field{urlyear}{2020}
      \field{year}{2020}
      \field{dateera}{ce}
      \field{urldateera}{ce}
      \verb{urlraw}
      \verb https://square.github.io/retrofit/
      \endverb
      \verb{url}
      \verb https://square.github.io/retrofit/
      \endverb
    \endentry
    \entry{retrofitDoc}{online}{}
      \name{author}{1}{}{%
        {{uniquename=0,uniquepart=base,hash=ceb46ca115d05c51aa5a16a8867c3304}{%
           family={Square},
           familyi={S\bibinitperiod}}}%
      }
      \strng{namehash}{ceb46ca115d05c51aa5a16a8867c3304}
      \strng{fullhash}{ceb46ca115d05c51aa5a16a8867c3304}
      \strng{bibnamehash}{ceb46ca115d05c51aa5a16a8867c3304}
      \strng{authorbibnamehash}{ceb46ca115d05c51aa5a16a8867c3304}
      \strng{authornamehash}{ceb46ca115d05c51aa5a16a8867c3304}
      \strng{authorfullhash}{ceb46ca115d05c51aa5a16a8867c3304}
      \field{extraname}{3}
      \field{sortinit}{S}
      \field{sortinithash}{322b1d5276f2f6c1bccdcd15920dbee6}
      \field{extradate}{3}
      \field{extradatescope}{labelyear}
      \field{labeldatesource}{}
      \field{labelnamesource}{author}
      \field{labeltitlesource}{title}
      \field{title}{Retrofit}
      \field{urlday}{6}
      \field{urlmonth}{3}
      \field{urlyear}{2020}
      \field{year}{2020}
      \field{dateera}{ce}
      \field{urldateera}{ce}
      \verb{urlraw}
      \verb https://square.github.io/retrofit/
      \endverb
      \verb{url}
      \verb https://square.github.io/retrofit/
      \endverb
    \endentry
    \entry{ssiLogo}{online}{}
      \name{author}{1}{}{%
        {{uniquename=0,uniquepart=base,hash=9caac6f623664d567ad3fbc23079cc87}{%
           family={SSI-Schäfer},
           familyi={S\bibinithyphendelim S\bibinitperiod}}}%
      }
      \strng{namehash}{9caac6f623664d567ad3fbc23079cc87}
      \strng{fullhash}{9caac6f623664d567ad3fbc23079cc87}
      \strng{bibnamehash}{9caac6f623664d567ad3fbc23079cc87}
      \strng{authorbibnamehash}{9caac6f623664d567ad3fbc23079cc87}
      \strng{authornamehash}{9caac6f623664d567ad3fbc23079cc87}
      \strng{authorfullhash}{9caac6f623664d567ad3fbc23079cc87}
      \field{sortinit}{S}
      \field{sortinithash}{322b1d5276f2f6c1bccdcd15920dbee6}
      \field{extradatescope}{labelyear}
      \field{labeldatesource}{}
      \true{uniqueprimaryauthor}
      \field{labelnamesource}{author}
      \field{labeltitlesource}{title}
      \field{day}{5}
      \field{month}{12}
      \field{title}{SSI Schäfer Logo}
      \field{urlday}{11}
      \field{urlmonth}{6}
      \field{urlyear}{2019}
      \field{year}{2014}
      \field{dateera}{ce}
      \field{urldateera}{ce}
      \verb{urlraw}
      \verb https://upload.wikimedia.org/wikipedia/commons/thumb/9/9d/Logo_SSI_Sch%C3%A4fer.svg/1037px-Logo_SSI_Sch%C3%A4fer.svg.png
      \endverb
      \verb{url}
      \verb https://upload.wikimedia.org/wikipedia/commons/thumb/9/9d/Logo_SSI_Sch%C3%A4fer.svg/1037px-Logo_SSI_Sch%C3%A4fer.svg.png
      \endverb
    \endentry
    \entry{texmakerlogo}{online}{}
      \field{sortinit}{T}
      \field{sortinithash}{6f7aff9db9dcfeb7f95fd5bbd2f78df9}
      \field{extradatescope}{labelyear}
      \field{labeldatesource}{}
      \field{labeltitlesource}{title}
      \field{title}{Texmaker}
      \field{urlday}{17}
      \field{urlmonth}{2}
      \field{urlyear}{2020}
      \field{year}{2020}
      \field{dateera}{ce}
      \field{urldateera}{ce}
      \verb{urlraw}
      \verb https://www.saashub.com/texmaker-alternatives
      \endverb
      \verb{url}
      \verb https://www.saashub.com/texmaker-alternatives
      \endverb
    \endentry
    \entry{cookieinterceptorcodes}{online}{}
      \name{author}{1}{}{%
        {{uniquename=0,uniquepart=base,hash=0291e86a376c4d841056283b29411319}{%
           family={tsuharesu},
           familyi={t\bibinitperiod}}}%
      }
      \strng{namehash}{0291e86a376c4d841056283b29411319}
      \strng{fullhash}{0291e86a376c4d841056283b29411319}
      \strng{bibnamehash}{0291e86a376c4d841056283b29411319}
      \strng{authorbibnamehash}{0291e86a376c4d841056283b29411319}
      \strng{authornamehash}{0291e86a376c4d841056283b29411319}
      \strng{authorfullhash}{0291e86a376c4d841056283b29411319}
      \field{sortinit}{t}
      \field{sortinithash}{6f7aff9db9dcfeb7f95fd5bbd2f78df9}
      \field{extradatescope}{labelyear}
      \field{labeldatesource}{}
      \true{uniqueprimaryauthor}
      \field{labelnamesource}{author}
      \field{labeltitlesource}{title}
      \field{day}{2}
      \field{month}{4}
      \field{title}{Handle Cookies easily with Retrofit/OkHttp}
      \field{urlday}{16}
      \field{urlmonth}{7}
      \field{urlyear}{2019}
      \field{year}{2015}
      \field{dateera}{ce}
      \field{urldateera}{ce}
      \verb{urlraw}
      \verb https://gist.github.com/tsuharesu/cbfd8f02d46498b01f1b
      \endverb
      \verb{url}
      \verb https://gist.github.com/tsuharesu/cbfd8f02d46498b01f1b
      \endverb
    \endentry
    \entry{tut_waterfallmodel}{online}{}
      \name{author}{1}{}{%
        {{uniquename=0,uniquepart=base,hash=da653faa9f00528be9a57f3474f0e437}{%
           family={Tutorialspoint},
           familyi={T\bibinitperiod}}}%
      }
      \strng{namehash}{da653faa9f00528be9a57f3474f0e437}
      \strng{fullhash}{da653faa9f00528be9a57f3474f0e437}
      \strng{bibnamehash}{da653faa9f00528be9a57f3474f0e437}
      \strng{authorbibnamehash}{da653faa9f00528be9a57f3474f0e437}
      \strng{authornamehash}{da653faa9f00528be9a57f3474f0e437}
      \strng{authorfullhash}{da653faa9f00528be9a57f3474f0e437}
      \field{sortinit}{T}
      \field{sortinithash}{6f7aff9db9dcfeb7f95fd5bbd2f78df9}
      \field{extradatescope}{labelyear}
      \field{labeldatesource}{}
      \true{uniqueprimaryauthor}
      \field{labelnamesource}{author}
      \field{labeltitlesource}{title}
      \field{title}{SDLC - Waterfall Model}
      \field{urlday}{27}
      \field{urlmonth}{2}
      \field{urlyear}{2020}
      \field{year}{2020}
      \field{dateera}{ce}
      \field{urldateera}{ce}
      \verb{urlraw}
      \verb https://www.tutorialspoint.com/sdlc/sdlc_waterfall_model.htm
      \endverb
      \verb{url}
      \verb https://www.tutorialspoint.com/sdlc/sdlc_waterfall_model.htm
      \endverb
    \endentry
    \entry{jsonvsxml}{online}{}
      \name{author}{1}{}{%
        {{uniquename=0,uniquepart=base,hash=593c6ec53e16b2209b2441504d6b8ab1}{%
           family={w3schools},
           familyi={w\bibinitperiod}}}%
      }
      \strng{namehash}{593c6ec53e16b2209b2441504d6b8ab1}
      \strng{fullhash}{593c6ec53e16b2209b2441504d6b8ab1}
      \strng{bibnamehash}{593c6ec53e16b2209b2441504d6b8ab1}
      \strng{authorbibnamehash}{593c6ec53e16b2209b2441504d6b8ab1}
      \strng{authornamehash}{593c6ec53e16b2209b2441504d6b8ab1}
      \strng{authorfullhash}{593c6ec53e16b2209b2441504d6b8ab1}
      \field{sortinit}{w}
      \field{sortinithash}{ecb89ff85896a47dc313960773ac311d}
      \field{extradatescope}{labelyear}
      \field{labeldatesource}{}
      \true{uniqueprimaryauthor}
      \field{labelnamesource}{author}
      \field{labeltitlesource}{title}
      \field{title}{JSON vs XML}
      \field{urlday}{18}
      \field{urlmonth}{2}
      \field{urlyear}{2020}
      \field{year}{2020}
      \field{dateera}{ce}
      \field{urldateera}{ce}
      \verb{urlraw}
      \verb https://www.w3schools.com/js/js_json_xml.asp
      \endverb
      \verb{url}
      \verb https://www.w3schools.com/js/js_json_xml.asp
      \endverb
    \endentry
    \entry{texlivelogo}{online}{}
      \name{author}{1}{}{%
        {{uniquename=0,uniquepart=base,hash=9c677286866aad38f8e9b660f5411814}{%
           family={Wikipedia},
           familyi={W\bibinitperiod}}}%
      }
      \strng{namehash}{9c677286866aad38f8e9b660f5411814}
      \strng{fullhash}{9c677286866aad38f8e9b660f5411814}
      \strng{bibnamehash}{9c677286866aad38f8e9b660f5411814}
      \strng{authorbibnamehash}{9c677286866aad38f8e9b660f5411814}
      \strng{authornamehash}{9c677286866aad38f8e9b660f5411814}
      \strng{authorfullhash}{9c677286866aad38f8e9b660f5411814}
      \field{extraname}{1}
      \field{sortinit}{W}
      \field{sortinithash}{ecb89ff85896a47dc313960773ac311d}
      \field{extradatescope}{labelyear}
      \field{labeldatesource}{}
      \field{labelnamesource}{author}
      \field{labeltitlesource}{title}
      \field{day}{29}
      \field{month}{9}
      \field{title}{TeX Live}
      \field{urlday}{17}
      \field{urlmonth}{2}
      \field{urlyear}{2020}
      \field{year}{2010}
      \field{dateera}{ce}
      \field{urldateera}{ce}
      \verb{urlraw}
      \verb https://de.wikipedia.org/wiki/Datei:Logo_TeX_Live.svg
      \endverb
      \verb{url}
      \verb https://de.wikipedia.org/wiki/Datei:Logo_TeX_Live.svg
      \endverb
    \endentry
    \entry{AndroidStudio_Logo}{online}{}
      \name{author}{1}{}{%
        {{uniquename=0,uniquepart=base,hash=9c677286866aad38f8e9b660f5411814}{%
           family={Wikipedia},
           familyi={W\bibinitperiod}}}%
      }
      \strng{namehash}{9c677286866aad38f8e9b660f5411814}
      \strng{fullhash}{9c677286866aad38f8e9b660f5411814}
      \strng{bibnamehash}{9c677286866aad38f8e9b660f5411814}
      \strng{authorbibnamehash}{9c677286866aad38f8e9b660f5411814}
      \strng{authornamehash}{9c677286866aad38f8e9b660f5411814}
      \strng{authorfullhash}{9c677286866aad38f8e9b660f5411814}
      \field{extraname}{2}
      \field{sortinit}{W}
      \field{sortinithash}{ecb89ff85896a47dc313960773ac311d}
      \field{extradate}{1}
      \field{extradatescope}{labelyear}
      \field{labeldatesource}{}
      \field{labelnamesource}{author}
      \field{labeltitlesource}{title}
      \field{title}{Android Studio Logo}
      \field{urlday}{27}
      \field{urlmonth}{2}
      \field{urlyear}{2020}
      \field{year}{2020}
      \field{dateera}{ce}
      \field{urldateera}{ce}
      \verb{urlraw}
      \verb https://upload.wikimedia.org/wikipedia/commons/3/34/Android_Studio_icon.svg
      \endverb
      \verb{url}
      \verb https://upload.wikimedia.org/wikipedia/commons/3/34/Android_Studio_icon.svg
      \endverb
    \endentry
    \entry{bitBucketInfo}{online}{}
      \name{author}{1}{}{%
        {{uniquename=0,uniquepart=base,hash=9c677286866aad38f8e9b660f5411814}{%
           family={Wikipedia},
           familyi={W\bibinitperiod}}}%
      }
      \strng{namehash}{9c677286866aad38f8e9b660f5411814}
      \strng{fullhash}{9c677286866aad38f8e9b660f5411814}
      \strng{bibnamehash}{9c677286866aad38f8e9b660f5411814}
      \strng{authorbibnamehash}{9c677286866aad38f8e9b660f5411814}
      \strng{authornamehash}{9c677286866aad38f8e9b660f5411814}
      \strng{authorfullhash}{9c677286866aad38f8e9b660f5411814}
      \field{extraname}{3}
      \field{sortinit}{W}
      \field{sortinithash}{ecb89ff85896a47dc313960773ac311d}
      \field{extradate}{2}
      \field{extradatescope}{labelyear}
      \field{labeldatesource}{}
      \field{labelnamesource}{author}
      \field{labeltitlesource}{title}
      \field{day}{4}
      \field{month}{3}
      \field{title}{Bitbucket}
      \field{urlday}{8}
      \field{urlmonth}{1}
      \field{urlyear}{2020}
      \field{year}{2020}
      \field{dateera}{ce}
      \field{urldateera}{ce}
      \verb{urlraw}
      \verb https://en.wikipedia.org/wiki/Bitbucket
      \endverb
      \verb{url}
      \verb https://en.wikipedia.org/wiki/Bitbucket
      \endverb
    \endentry
    \entry{excel_logo}{online}{}
      \name{author}{1}{}{%
        {{uniquename=0,uniquepart=base,hash=9c677286866aad38f8e9b660f5411814}{%
           family={Wikipedia},
           familyi={W\bibinitperiod}}}%
      }
      \strng{namehash}{9c677286866aad38f8e9b660f5411814}
      \strng{fullhash}{9c677286866aad38f8e9b660f5411814}
      \strng{bibnamehash}{9c677286866aad38f8e9b660f5411814}
      \strng{authorbibnamehash}{9c677286866aad38f8e9b660f5411814}
      \strng{authornamehash}{9c677286866aad38f8e9b660f5411814}
      \strng{authorfullhash}{9c677286866aad38f8e9b660f5411814}
      \field{extraname}{4}
      \field{sortinit}{W}
      \field{sortinithash}{ecb89ff85896a47dc313960773ac311d}
      \field{extradate}{3}
      \field{extradatescope}{labelyear}
      \field{labeldatesource}{}
      \field{labelnamesource}{author}
      \field{labeltitlesource}{title}
      \field{title}{Datei:Microsoft Excel Logo.svg}
      \field{urlday}{9}
      \field{urlmonth}{3}
      \field{urlyear}{2020}
      \field{year}{2020}
      \field{dateera}{ce}
      \field{urldateera}{ce}
      \verb{urlraw}
      \verb https://de.wikipedia.org/wiki/Datei:Microsoft_Excel_Logo.svg
      \endverb
      \verb{url}
      \verb https://de.wikipedia.org/wiki/Datei:Microsoft_Excel_Logo.svg
      \endverb
    \endentry
    \entry{gitInfo}{online}{}
      \name{author}{1}{}{%
        {{uniquename=0,uniquepart=base,hash=9c677286866aad38f8e9b660f5411814}{%
           family={Wikipedia},
           familyi={W\bibinitperiod}}}%
      }
      \strng{namehash}{9c677286866aad38f8e9b660f5411814}
      \strng{fullhash}{9c677286866aad38f8e9b660f5411814}
      \strng{bibnamehash}{9c677286866aad38f8e9b660f5411814}
      \strng{authorbibnamehash}{9c677286866aad38f8e9b660f5411814}
      \strng{authornamehash}{9c677286866aad38f8e9b660f5411814}
      \strng{authorfullhash}{9c677286866aad38f8e9b660f5411814}
      \field{extraname}{5}
      \field{sortinit}{W}
      \field{sortinithash}{ecb89ff85896a47dc313960773ac311d}
      \field{extradate}{4}
      \field{extradatescope}{labelyear}
      \field{labeldatesource}{}
      \field{labelnamesource}{author}
      \field{labeltitlesource}{title}
      \field{day}{1}
      \field{month}{3}
      \field{title}{Git}
      \field{urlday}{5}
      \field{urlmonth}{3}
      \field{urlyear}{2020}
      \field{year}{2020}
      \field{dateera}{ce}
      \field{urldateera}{ce}
      \verb{urlraw}
      \verb https://en.wikipedia.org/wiki/Git
      \endverb
      \verb{url}
      \verb https://en.wikipedia.org/wiki/Git
      \endverb
    \endentry
    \entry{latexlogo}{online}{}
      \name{author}{1}{}{%
        {{uniquename=0,uniquepart=base,hash=9c677286866aad38f8e9b660f5411814}{%
           family={Wikipedia},
           familyi={W\bibinitperiod}}}%
      }
      \strng{namehash}{9c677286866aad38f8e9b660f5411814}
      \strng{fullhash}{9c677286866aad38f8e9b660f5411814}
      \strng{bibnamehash}{9c677286866aad38f8e9b660f5411814}
      \strng{authorbibnamehash}{9c677286866aad38f8e9b660f5411814}
      \strng{authornamehash}{9c677286866aad38f8e9b660f5411814}
      \strng{authorfullhash}{9c677286866aad38f8e9b660f5411814}
      \field{extraname}{6}
      \field{sortinit}{W}
      \field{sortinithash}{ecb89ff85896a47dc313960773ac311d}
      \field{extradate}{5}
      \field{extradatescope}{labelyear}
      \field{labeldatesource}{}
      \field{labelnamesource}{author}
      \field{labeltitlesource}{title}
      \field{title}{LaTex}
      \field{urlday}{17}
      \field{urlmonth}{2}
      \field{urlyear}{2020}
      \field{year}{2020}
      \field{dateera}{ce}
      \field{urldateera}{ce}
      \verb{urlraw}
      \verb https://de.wikipedia.org/wiki/LaTeX
      \endverb
      \verb{url}
      \verb https://de.wikipedia.org/wiki/LaTeX
      \endverb
    \endentry
    \entry{pojoWiki}{online}{}
      \name{author}{1}{}{%
        {{uniquename=0,uniquepart=base,hash=9c677286866aad38f8e9b660f5411814}{%
           family={Wikipedia},
           familyi={W\bibinitperiod}}}%
      }
      \strng{namehash}{9c677286866aad38f8e9b660f5411814}
      \strng{fullhash}{9c677286866aad38f8e9b660f5411814}
      \strng{bibnamehash}{9c677286866aad38f8e9b660f5411814}
      \strng{authorbibnamehash}{9c677286866aad38f8e9b660f5411814}
      \strng{authornamehash}{9c677286866aad38f8e9b660f5411814}
      \strng{authorfullhash}{9c677286866aad38f8e9b660f5411814}
      \field{extraname}{7}
      \field{sortinit}{W}
      \field{sortinithash}{ecb89ff85896a47dc313960773ac311d}
      \field{extradate}{6}
      \field{extradatescope}{labelyear}
      \field{labeldatesource}{}
      \field{labelnamesource}{author}
      \field{labeltitlesource}{title}
      \field{day}{30}
      \field{month}{1}
      \field{title}{Plain old Java object}
      \field{urlday}{7}
      \field{urlmonth}{3}
      \field{urlyear}{2020}
      \field{year}{2020}
      \field{dateera}{ce}
      \field{urldateera}{ce}
      \verb{urlraw}
      \verb https://en.wikipedia.org/wiki/Plain_old_Java_object
      \endverb
      \verb{url}
      \verb https://en.wikipedia.org/wiki/Plain_old_Java_object
      \endverb
    \endentry
    \entry{planpoker}{online}{}
      \name{author}{1}{}{%
        {{uniquename=0,uniquepart=base,hash=9c677286866aad38f8e9b660f5411814}{%
           family={Wikipedia},
           familyi={W\bibinitperiod}}}%
      }
      \strng{namehash}{9c677286866aad38f8e9b660f5411814}
      \strng{fullhash}{9c677286866aad38f8e9b660f5411814}
      \strng{bibnamehash}{9c677286866aad38f8e9b660f5411814}
      \strng{authorbibnamehash}{9c677286866aad38f8e9b660f5411814}
      \strng{authornamehash}{9c677286866aad38f8e9b660f5411814}
      \strng{authorfullhash}{9c677286866aad38f8e9b660f5411814}
      \field{extraname}{8}
      \field{sortinit}{W}
      \field{sortinithash}{ecb89ff85896a47dc313960773ac311d}
      \field{extradate}{7}
      \field{extradatescope}{labelyear}
      \field{labeldatesource}{}
      \field{labelnamesource}{author}
      \field{labeltitlesource}{title}
      \field{day}{22}
      \field{month}{2}
      \field{title}{Planning Poker}
      \field{urlday}{22}
      \field{urlmonth}{2}
      \field{urlyear}{2020}
      \field{year}{2020}
      \field{dateera}{ce}
      \field{urldateera}{ce}
      \verb{urlraw}
      \verb https://en.wikipedia.org/wiki/Planning_poker
      \endverb
      \verb{url}
      \verb https://en.wikipedia.org/wiki/Planning_poker
      \endverb
    \endentry
    \entry{singletonWiki}{online}{}
      \name{author}{1}{}{%
        {{uniquename=0,uniquepart=base,hash=9c677286866aad38f8e9b660f5411814}{%
           family={Wikipedia},
           familyi={W\bibinitperiod}}}%
      }
      \strng{namehash}{9c677286866aad38f8e9b660f5411814}
      \strng{fullhash}{9c677286866aad38f8e9b660f5411814}
      \strng{bibnamehash}{9c677286866aad38f8e9b660f5411814}
      \strng{authorbibnamehash}{9c677286866aad38f8e9b660f5411814}
      \strng{authornamehash}{9c677286866aad38f8e9b660f5411814}
      \strng{authorfullhash}{9c677286866aad38f8e9b660f5411814}
      \field{extraname}{9}
      \field{sortinit}{W}
      \field{sortinithash}{ecb89ff85896a47dc313960773ac311d}
      \field{extradate}{8}
      \field{extradatescope}{labelyear}
      \field{labeldatesource}{}
      \field{labelnamesource}{author}
      \field{labeltitlesource}{title}
      \field{day}{12}
      \field{month}{2}
      \field{title}{Singleton Pattern}
      \field{urlday}{7}
      \field{urlmonth}{3}
      \field{urlyear}{2020}
      \field{year}{2020}
      \field{dateera}{ce}
      \field{urldateera}{ce}
      \verb{urlraw}
      \verb https://en.wikipedia.org/wiki/Singleton_pattern
      \endverb
      \verb{url}
      \verb https://en.wikipedia.org/wiki/Singleton_pattern
      \endverb
    \endentry
    \entry{versionControlInfo}{online}{}
      \name{author}{1}{}{%
        {{uniquename=0,uniquepart=base,hash=9c677286866aad38f8e9b660f5411814}{%
           family={Wikipedia},
           familyi={W\bibinitperiod}}}%
      }
      \strng{namehash}{9c677286866aad38f8e9b660f5411814}
      \strng{fullhash}{9c677286866aad38f8e9b660f5411814}
      \strng{bibnamehash}{9c677286866aad38f8e9b660f5411814}
      \strng{authorbibnamehash}{9c677286866aad38f8e9b660f5411814}
      \strng{authornamehash}{9c677286866aad38f8e9b660f5411814}
      \strng{authorfullhash}{9c677286866aad38f8e9b660f5411814}
      \field{extraname}{10}
      \field{sortinit}{W}
      \field{sortinithash}{ecb89ff85896a47dc313960773ac311d}
      \field{extradate}{9}
      \field{extradatescope}{labelyear}
      \field{labeldatesource}{}
      \field{labelnamesource}{author}
      \field{labeltitlesource}{title}
      \field{day}{3}
      \field{month}{3}
      \field{title}{Version Control}
      \field{urlday}{8}
      \field{urlmonth}{1}
      \field{urlyear}{2020}
      \field{year}{2020}
      \field{dateera}{ce}
      \field{urldateera}{ce}
      \verb{urlraw}
      \verb https://en.wikipedia.org/wiki/Version_control
      \endverb
      \verb{url}
      \verb https://en.wikipedia.org/wiki/Version_control
      \endverb
    \endentry
    \entry{xmllogo}{online}{}
      \field{sortinit}{X}
      \field{sortinithash}{b0b62a29ee4a21a0e618fed53a0313cc}
      \field{extradatescope}{labelyear}
      \field{labeldatesource}{}
      \field{labeltitlesource}{title}
      \field{title}{XML}
      \field{urlday}{10}
      \field{urlmonth}{3}
      \field{urlyear}{2020}
      \field{year}{2020}
      \field{dateera}{ce}
      \field{urldateera}{ce}
      \verb{urlraw}
      \verb https://www.pngwave.com/png-clip-art-ddcff
      \endverb
      \verb{url}
      \verb https://www.pngwave.com/png-clip-art-ddcff
      \endverb
    \endentry
  \enddatalist
\endrefsection
\endinput

